{
  "log" : {
    "version" : "1.2",
    "pages" : [ ],
    "entries" : [ {
      "startedDateTime" : "2021-01-07T12:20:39.363Z",
      "request" : {
        "method" : "POST",
        "url" : "https://gen5-qc.asuransiastra.com/GardaAkses/API/CCOOutbound/FollowUpTicketClaim",
        "httpVersion" : "",
        "cookies" : [ ],
        "headers" : [ {
          "name" : "Content-Type",
          "value" : "application/x-www-form-urlencoded"
        }, {
          "name" : "Authorization",
          "value" : "Bearer kA4i1or0utfXYDjjXI1//FDE6+OdOqr3HPt/LMh1KFigGEZMnTsUtDOCZMIs3Kaf2+vXuf5NCUT61esW6DkLHYF6pw0Jtx87cPhEkJhxjApv4SHMtvKdo1lRnHkEAXUz9GoL47pCWbA/ySHKEvp/WEJ1o+HgohF25Dg81dCUO1WrttajSUPA8Qt74mq2TEwRWr30DAcEsYuC+X5GSXklH4A8MMm9CJ7AFi6IB3pFQHwO5bGSKKRPyxV89YO6PSmQ"
        } ],
        "queryString" : [ ],
        "postData" : {
          "mimeType" : "application/x-www-form-urlencoded",
          "params" : [ {
            "name" : "ServiceType",
            "value" : "PRI",
            "comment" : ""
          }, {
            "name" : "MemberNo",
            "value" : "B/00017507",
            "comment" : ""
          }, {
            "name" : "MemberName",
            "value" : "BUNGA ASRI KENCANA",
            "comment" : ""
          }, {
            "name" : "ClientID",
            "value" : "CJKPP0009",
            "comment" : ""
          }, {
            "name" : "ProviderID",
            "value" : "TJKRP0146",
            "comment" : ""
          }, {
            "name" : "PreviousTrID",
            "value" : "2744046",
            "comment" : ""
          }, {
            "name" : "GLType",
            "value" : "GL Awal",
            "comment" : ""
          }, {
            "name" : "StartFollowUp",
            "value" : "2020-11-17 15:56:47",
            "comment" : ""
          }, {
            "name" : "Guid",
            "value" : "5edfafca1a324db0bdb8a833d63481110595b500e630f3ea2b359de4b3edae92",
            "comment" : ""
          }, {
            "name" : "ConfirmationItem",
            "value" : "[{\"ConfirmationType\":\"CCO\",\"PICDesc\":\"Contact Center\",\"PICName\":\"DNP\",\"NameDesc\":\"DNP - Danny Indra Permana\",\"ConfirmationDate\":\"18/11/2020 13:47\",\"Confirmation\":\"COV\",\"ConfirmationDesc\":\"Covered\",\"Remarks\":\"\",\"FollowUpTime\":\"\",\"Channel\":\"\",\"PreviousLimit\":null,\"CurrentLimit\":null,\"BenefitCoverage\":\"BC004\",\"Reason\":\"\",\"ConfirmationCategory\":\"Diagnosa\",\"DateTimeConfirmation\":null,\"DocumentGLNeeded\":null,\"fileCLByte\":null,\"fileNames\":null,\"isPrevious\":0,\"FollowUpTicketDocuments\":[],\"FollowUpTicketDocumentsNeeded\":[],\"Payer\":\"\",\"ClientHR\":\"\",\"IsFromTicketBefore\":0}]",
            "comment" : ""
          }, {
            "name" : "diagnosisConfirmationItem",
            "value" : "[{\"DiagnosisID\":\"B20\",\"Diagnosis\":\"HIV DISEASE RESULTING IN INFECTIOUS AND PARASITIC DISEASE\",\"DiagnosisPayer\":\"Employee\",\"DiagnosisCategory\":\"HIV, AIDS, ARDS\",\"DiagnosisCoverage\":\"Covered\"}]",
            "comment" : ""
          }, {
            "name" : "FamilyPlanningItemConfirmation",
            "value" : "[]",
            "comment" : ""
          }, {
            "name" : "email",
            "value" : "ehu@beyond.asuransi.astra.co.id",
            "comment" : ""
          }, {
            "name" : "hp",
            "value" : "081808623854",
            "comment" : ""
          }, {
            "name" : "providerconfirmationitem",
            "value" : "[]",
            "comment" : ""
          }, {
            "name" : "IsFUWaved",
            "value" : "0",
            "comment" : ""
          }, {
            "name" : "WavedReasonCode",
            "value" : "",
            "comment" : ""
          }, {
            "name" : "ProductType",
            "value" : "IP",
            "comment" : ""
          }, {
            "name" : "NonMedicalItem",
            "value" : "[]",
            "comment" : ""
          }, {
            "name" : "claimdetails",
            "value" : "[]",
            "comment" : ""
          }, {
            "name" : "ReferenceClaimLimitRecovery",
            "value" : "",
            "comment" : ""
          } ],
          "comment" : ""
        },
        "headersSize" : 0,
        "bodySize" : 0,
        "comment" : ""
      },
      "response" : {
        "status" : 200,
        "statusText" : "",
        "httpVersion" : "",
        "cookies" : [ ],
        "headers" : [ {
          "name" : "X-Frame-Options",
          "value" : "SAMEORIGIN"
        }, {
          "name" : "Strict-Transport-Security",
          "value" : "max-age=16070400"
        }, {
          "name" : "Cache-Control",
          "value" : "no-cache"
        }, {
          "name" : "X-Content-Type-Options",
          "value" : "nosniff"
        }, {
          "name" : "Set-Cookie",
          "value" : "EGRUM_BTM=d2c372ac-3b7d-4460-8876-f4c876a8cc4a#~#1||0; path=/"
        }, {
          "name" : "Set-Cookie",
          "value" : "TS0125c461=015294299a3e03e47c7159c7bc891e17623cc2fbf00c1a5fd60de3bba2d6aa3d71694921a0657d19c37b99f789a70993180f15592f91554113ab5d85d79cb61fdb7621e237; Path=/; Domain=.gen5-qc.asuransiastra.com"
        }, {
          "name" : "Pragma",
          "value" : "no-cache"
        }, {
          "name" : "Expires",
          "value" : "-1"
        }, {
          "name" : "#status#",
          "value" : "HTTP/1.1 200 OK"
        }, {
          "name" : "Content-Length",
          "value" : "992"
        }, {
          "name" : "X-XSS-Protection",
          "value" : "1; mode=block"
        }, {
          "name" : "Date",
          "value" : "Thu, 07 Jan 2021 12:19:48 GMT"
        }, {
          "name" : "Content-Type",
          "value" : "application/json; charset=utf-8"
        } ],
        "content" : {
          "size" : 992,
          "mimeType" : "application/json; charset=utf-8",
          "text" : "{\"status\":true,\"message\":\"OK\",\"data\":{\"TrIDCallOut\":2773239,\"CalloutDetailID\":[34914],\"MessagePopUp\":\"<br><b>Validasi Diagnosa</b><br>PIC : CCO <br>\\r\\nPIC Name : Danny Indra Permana <br>\\r\\nDate Time Confirmation : 2020-11-18 13:47:00 <br>\\r\\nConfirmation : Covered <br>\\r\\nBenefit Coverage : ODC <br>\\r\\n\\r\\n\",\"IsProcess\":1,\"FollowUpStatus\":\"Not Need Follow Up\",\"IsNeedRejectionLetter\":0,\"BenefitCoverage\":\"BC004\",\"IsDiagnosisNeedNextValidation\":0,\"IsAnnualLimitNeedNextValidation\":1,\"IsNewMemberNeedNextValidation\":1,\"IsExcessNeedNextValidation\":1,\"IsDocumentNeedNextValidation\":1,\"IsEligibilityNeedNextValidation\":1,\"IsMedicalTreatmentNeedNextValidation\":1,\"IsFamilyPlanningNeedNextValidation\":1,\"IsProductNeedNextValidation\":1,\"Remarks\":\"Hasil Follow Up Outbound Diagnosa\\r\\n==============================\\r\\nPIC : CCO\\r\\nPIC Name : Danny Indra Permana\\r\\nDate Time Confirmation : 2020-11-18 13:47:00\\r\\nConfirmation : Covered\\r\\nBenefit Coverage : ODC\\r\\n\\r\\n\",\"IsExcessCalculation\":0}}",
          "comment" : ""
        },
        "redirectURL" : "",
        "headersSize" : 534,
        "bodySize" : 992,
        "comment" : ""
      },
      "cache" : { },
      "timings" : {
        "comment" : "",
        "ssl" : -1,
        "connect" : 383,
        "send" : 0,
        "blocked" : -1,
        "dns" : -1,
        "receive" : 0,
        "wait" : 0
      },
      "comment" : "",
      "_katalonRequestInformation" : {
        "name" : "31",
        "testObjectId" : "Object Repository/Follow Up/FollowUpTicketClaim",
        "harId" : "b840ddf9-8138-4f8e-92e1-63545503125c",
        "reportFolder" : null
      },
      "time" : 383
    } ],
    "comment" : ""
  }
}