{
  "log" : {
    "version" : "1.2",
    "pages" : [ ],
    "entries" : [ {
      "startedDateTime" : "2021-01-07T12:21:31.181Z",
      "request" : {
        "method" : "POST",
        "url" : "https://gen5-qc.asuransiastra.com/GardaAkses/API/CCOOutbound/FollowUpTicketClaim",
        "httpVersion" : "",
        "cookies" : [ ],
        "headers" : [ {
          "name" : "Content-Type",
          "value" : "application/x-www-form-urlencoded"
        }, {
          "name" : "Authorization",
          "value" : "Bearer 3ITvVxcshwJ1MezdD26ttInynI/y5WHPmc9X+3By8xVtsAF1NDeSu2bg63t+EMXYbkShrM+JRVHxijXGin9Siex7u9vTRo9WRF7jt72Eo3f4y+Xb4Mt0H5OIBIMffLJhFEelXWEpJ3TkKfp8Ans0ZrfapAoOqY0HOTG0DCiH7FH13x3tzhAq5tvZeHCUv+DVFOeJ1NrszGrlCFeSuBXwhJXZDpRcX/FSE/wX/YrnjP+MVJeeR2srkSuEEKpkOUcW"
        } ],
        "queryString" : [ ],
        "postData" : {
          "mimeType" : "application/x-www-form-urlencoded",
          "params" : [ {
            "name" : "ServiceType",
            "value" : "PRI",
            "comment" : ""
          }, {
            "name" : "MemberNo",
            "value" : "B/00017507",
            "comment" : ""
          }, {
            "name" : "MemberName",
            "value" : "BUNGA ASRI KENCANA",
            "comment" : ""
          }, {
            "name" : "ClientID",
            "value" : "CJKPP0009",
            "comment" : ""
          }, {
            "name" : "ProviderID",
            "value" : "TJKRP0146",
            "comment" : ""
          }, {
            "name" : "PreviousTrID",
            "value" : "2744046",
            "comment" : ""
          }, {
            "name" : "GLType",
            "value" : "GL Awal",
            "comment" : ""
          }, {
            "name" : "StartFollowUp",
            "value" : "2020-11-17 15:56:47",
            "comment" : ""
          }, {
            "name" : "Guid",
            "value" : "5edfafca1a324db0bdb8a833d63481110595b500e630f3ea2b359de4b3edae92",
            "comment" : ""
          }, {
            "name" : "ConfirmationItem",
            "value" : "[{\"ConfirmationType\":\"Provider\",\"PICDesc\":\"Provider\",\"PICName\":\"RSIA Hermina Jatinegara\",\"NameDesc\":\"RSIA Hermina Jatinegara\",\"ConfirmationDate\":\"18/11/2020 13:52\",\"Confirmation\":\"HLD\",\"ConfirmationDesc\":\"Hold\",\"Remarks\":\"tsg\",\"FollowUpTime\":\"3\",\"Channel\":\"WA\",\"PreviousLimit\":null,\"CurrentLimit\":null,\"BenefitCoverage\":\"\",\"Reason\":\"FUR007\",\"ConfirmationCategory\":\"Diagnosa\",\"DateTimeConfirmation\":null,\"DocumentGLNeeded\":null,\"fileCLByte\":null,\"fileNames\":null,\"isPrevious\":0,\"FollowUpTicketDocuments\":[],\"FollowUpTicketDocumentsNeeded\":[],\"Payer\":\"\",\"ClientHR\":\"\",\"IsFromTicketBefore\":0}]",
            "comment" : ""
          }, {
            "name" : "diagnosisConfirmationItem",
            "value" : "[{\"DiagnosisID\":\"B20\",\"Diagnosis\":\"HIV DISEASE RESULTING IN INFECTIOUS AND PARASITIC DISEASE\",\"DiagnosisPayer\":\"Employee\",\"DiagnosisCategory\":\"HIV, AIDS, ARDS\",\"DiagnosisCoverage\":\"Covered\"}]",
            "comment" : ""
          }, {
            "name" : "FamilyPlanningItemConfirmation",
            "value" : "[]",
            "comment" : ""
          }, {
            "name" : "email",
            "value" : "ehu@beyond.asuransi.astra.co.id",
            "comment" : ""
          }, {
            "name" : "hp",
            "value" : "081808623854",
            "comment" : ""
          }, {
            "name" : "providerconfirmationitem",
            "value" : "[]",
            "comment" : ""
          }, {
            "name" : "IsFUWaved",
            "value" : "0",
            "comment" : ""
          }, {
            "name" : "WavedReasonCode",
            "value" : "",
            "comment" : ""
          }, {
            "name" : "ProductType",
            "value" : "IP",
            "comment" : ""
          }, {
            "name" : "NonMedicalItem",
            "value" : "[]",
            "comment" : ""
          }, {
            "name" : "claimdetails",
            "value" : "[]",
            "comment" : ""
          }, {
            "name" : "ReferenceClaimLimitRecovery",
            "value" : "",
            "comment" : ""
          } ],
          "comment" : ""
        },
        "headersSize" : 0,
        "bodySize" : 0,
        "comment" : ""
      },
      "response" : {
        "status" : 200,
        "statusText" : "",
        "httpVersion" : "",
        "cookies" : [ ],
        "headers" : [ {
          "name" : "X-Frame-Options",
          "value" : "SAMEORIGIN"
        }, {
          "name" : "Strict-Transport-Security",
          "value" : "max-age=16070400"
        }, {
          "name" : "Cache-Control",
          "value" : "no-cache"
        }, {
          "name" : "X-Content-Type-Options",
          "value" : "nosniff"
        }, {
          "name" : "Set-Cookie",
          "value" : "EGRUM_BTM=ff163322-fa8e-45ef-9316-ce77ff3bf97a#~#1||0; path=/"
        }, {
          "name" : "Set-Cookie",
          "value" : "TS0125c461=015294299aa23717391ee561585e779a051a6d99ccb64953e4e0a2634959073ee4a1dc1b777c0ae858e13e4c255b8ada9c35ebcac89dea4baec97da5b60f9c88f239716b2e; Path=/; Domain=.gen5-qc.asuransiastra.com"
        }, {
          "name" : "Pragma",
          "value" : "no-cache"
        }, {
          "name" : "Expires",
          "value" : "-1"
        }, {
          "name" : "#status#",
          "value" : "HTTP/1.1 200 OK"
        }, {
          "name" : "Content-Length",
          "value" : "1387"
        }, {
          "name" : "X-XSS-Protection",
          "value" : "1; mode=block"
        }, {
          "name" : "Date",
          "value" : "Thu, 07 Jan 2021 12:20:40 GMT"
        }, {
          "name" : "Content-Type",
          "value" : "application/json; charset=utf-8"
        } ],
        "content" : {
          "size" : 1387,
          "mimeType" : "application/json; charset=utf-8",
          "text" : "{\"status\":true,\"message\":\"OK\",\"data\":{\"TrIDCallOut\":2773254,\"CalloutDetailID\":[34928],\"MessagePopUp\":\"Rawat Inap atas nama <span style=\\\"color:blue\\\">BUNGA ASRI KENCANA</span> dari <span style=\\\"color:blue\\\">PT Bank Permata Tbk</span> telah diproses dan <b>masih menunggu konfirmasi.</b><br></br>\\r\\n<b>Latest Confirmation Result: </b><br></br><br><b>Validasi Diagnosa</b><br>PIC : Provider <br>\\r\\nPIC Name : RSIA Hermina Jatinegara <br>\\r\\nDate Time Confirmation : 2020-11-18 13:52:00 <br>\\r\\nChannel : WhatsApp <br>\\r\\nConfirmation : Hold <br>\\r\\nReason : Menunggu konfirmasi dokter RS <br>\\r\\nRemarks : tsg <br>\\r\\nFU Time : 3 <br>\\r\\n\\r\\n\",\"IsProcess\":0,\"FollowUpStatus\":\"Follow Up\",\"IsNeedRejectionLetter\":0,\"BenefitCoverage\":\"\",\"IsDiagnosisNeedNextValidation\":0,\"IsAnnualLimitNeedNextValidation\":1,\"IsNewMemberNeedNextValidation\":1,\"IsExcessNeedNextValidation\":1,\"IsDocumentNeedNextValidation\":1,\"IsEligibilityNeedNextValidation\":1,\"IsMedicalTreatmentNeedNextValidation\":1,\"IsFamilyPlanningNeedNextValidation\":1,\"IsProductNeedNextValidation\":1,\"Remarks\":\"Hasil Follow Up Outbound Diagnosa\\r\\n==============================\\r\\nPIC : Provider\\r\\nPIC Name : RSIA Hermina Jatinegara\\r\\nDate Time Confirmation : 2020-11-18 13:52:00\\r\\nChannel : WhatsApp\\r\\nConfirmation : Hold\\r\\nReason : Menunggu konfirmasi dokter RS\\r\\nRemarks : tsg\\r\\nFU Time : 3\\r\\n\\r\\n\",\"IsExcessCalculation\":0}}",
          "comment" : ""
        },
        "redirectURL" : "",
        "headersSize" : 535,
        "bodySize" : 1387,
        "comment" : ""
      },
      "cache" : { },
      "timings" : {
        "comment" : "",
        "ssl" : -1,
        "connect" : 856,
        "send" : 0,
        "blocked" : -1,
        "dns" : -1,
        "receive" : 0,
        "wait" : 0
      },
      "comment" : "",
      "_katalonRequestInformation" : {
        "name" : "59",
        "testObjectId" : "Object Repository/Follow Up/FollowUpTicketClaim",
        "harId" : "eee1dd34-7f44-42d8-a3a2-1aa3c2cceb4f",
        "reportFolder" : null
      },
      "time" : 856
    } ],
    "comment" : ""
  }
}