{
  "log" : {
    "version" : "1.2",
    "pages" : [ ],
    "entries" : [ {
      "startedDateTime" : "2021-01-07T12:18:06.340Z",
      "request" : {
        "method" : "POST",
        "url" : "https://gen5-qc.asuransiastra.com/GardaAkses/API/CCOOutbound/FollowUpTicketClaim",
        "httpVersion" : "",
        "cookies" : [ ],
        "headers" : [ {
          "name" : "Content-Type",
          "value" : "application/x-www-form-urlencoded"
        }, {
          "name" : "Authorization",
          "value" : "Bearer 6fyx3NxYgCEq/nadXxy5GtRIeXaSbJ2LrtgOmhE0aQLP8fECGDYoblCCM02v1pVcwnhkaWC3Pf2GaGBTdjjxISZ51uI7SaGjodgU9wBcXZvqVfqH3zCIGdFLq+DV4gjCB7+g2CZhdl2EPmeIol4DKaSxfiN8RJP2vPNLZ5ffrlz0MQjPi/juj7/nLVjOEgpjAgUEGdxRB3aN9sF5uTQ1RMtuJInhHU+f8RP7QiGCsjxl75LHEc2ZPM2O8sq5RcmY"
        } ],
        "queryString" : [ ],
        "postData" : {
          "mimeType" : "application/x-www-form-urlencoded",
          "params" : [ {
            "name" : "ServiceType",
            "value" : "PRI",
            "comment" : ""
          }, {
            "name" : "MemberNo",
            "value" : "B/00017507",
            "comment" : ""
          }, {
            "name" : "MemberName",
            "value" : "BUNGA ASRI KENCANA",
            "comment" : ""
          }, {
            "name" : "ClientID",
            "value" : "CJKPP0009",
            "comment" : ""
          }, {
            "name" : "ProviderID",
            "value" : "TJKRP0146",
            "comment" : ""
          }, {
            "name" : "PreviousTrID",
            "value" : "2744046",
            "comment" : ""
          }, {
            "name" : "GLType",
            "value" : "GL Awal",
            "comment" : ""
          }, {
            "name" : "StartFollowUp",
            "value" : "2020-11-17 15:56:47",
            "comment" : ""
          }, {
            "name" : "Guid",
            "value" : "5edfafca1a324db0bdb8a833d63481110595b500e630f3ea2b359de4b3edae92",
            "comment" : ""
          }, {
            "name" : "ConfirmationItem",
            "value" : "[{\"ConfirmationType\":\"Doctor\",\"PICDesc\":\"Doctor\",\"PICName\":\"IEA\",\"NameDesc\":\"Irna Putri Perdana\",\"ConfirmationDate\":\"18/11/2020 13:47\",\"Confirmation\":\"COV\",\"ConfirmationDesc\":\"Covered\",\"Remarks\":\"tsg\",\"FollowUpTime\":\"0\",\"Channel\":\"WA\",\"PreviousLimit\":null,\"CurrentLimit\":null,\"BenefitCoverage\":\"BC002\",\"Reason\":\"\",\"ConfirmationCategory\":\"Diagnosa\",\"DateTimeConfirmation\":null,\"DocumentGLNeeded\":null,\"fileCLByte\":null,\"fileNames\":null,\"isPrevious\":0,\"FollowUpTicketDocuments\":[],\"FollowUpTicketDocumentsNeeded\":[],\"Payer\":\"\",\"ClientHR\":\"\",\"IsFromTicketBefore\":0}]",
            "comment" : ""
          }, {
            "name" : "diagnosisConfirmationItem",
            "value" : "[{\"DiagnosisID\":\"B20\",\"Diagnosis\":\"HIV DISEASE RESULTING IN INFECTIOUS AND PARASITIC DISEASE\",\"DiagnosisPayer\":\"Employee\",\"DiagnosisCategory\":\"HIV, AIDS, ARDS\",\"DiagnosisCoverage\":\"Covered\"}]",
            "comment" : ""
          }, {
            "name" : "FamilyPlanningItemConfirmation",
            "value" : "[]",
            "comment" : ""
          }, {
            "name" : "email",
            "value" : "ehu@beyond.asuransi.astra.co.id",
            "comment" : ""
          }, {
            "name" : "hp",
            "value" : "081808623854",
            "comment" : ""
          }, {
            "name" : "providerconfirmationitem",
            "value" : "[]",
            "comment" : ""
          }, {
            "name" : "IsFUWaved",
            "value" : "0",
            "comment" : ""
          }, {
            "name" : "WavedReasonCode",
            "value" : "",
            "comment" : ""
          }, {
            "name" : "ProductType",
            "value" : "IP",
            "comment" : ""
          }, {
            "name" : "NonMedicalItem",
            "value" : "[]",
            "comment" : ""
          }, {
            "name" : "claimdetails",
            "value" : "[]",
            "comment" : ""
          }, {
            "name" : "ReferenceClaimLimitRecovery",
            "value" : "",
            "comment" : ""
          } ],
          "comment" : ""
        },
        "headersSize" : 0,
        "bodySize" : 0,
        "comment" : ""
      },
      "response" : {
        "status" : 200,
        "statusText" : "",
        "httpVersion" : "",
        "cookies" : [ ],
        "headers" : [ {
          "name" : "X-Frame-Options",
          "value" : "SAMEORIGIN"
        }, {
          "name" : "Strict-Transport-Security",
          "value" : "max-age=16070400"
        }, {
          "name" : "Cache-Control",
          "value" : "no-cache"
        }, {
          "name" : "X-Content-Type-Options",
          "value" : "nosniff"
        }, {
          "name" : "Set-Cookie",
          "value" : "EGRUM_BTM=50fbe273-dcc0-429d-82ff-495f06e8d7aa#~#1||0; path=/"
        }, {
          "name" : "Set-Cookie",
          "value" : "TS0125c461=015294299a4344d9b408dc183e4fa5288f209d9ef6ba0efbb586f66065e1ccdf51b34bdbb58bc7292c1053ff73c6544761a97ce934fb1da87d064e6a40da89ed3b136e8f2a; Path=/; Domain=.gen5-qc.asuransiastra.com"
        }, {
          "name" : "Pragma",
          "value" : "no-cache"
        }, {
          "name" : "Expires",
          "value" : "-1"
        }, {
          "name" : "#status#",
          "value" : "HTTP/1.1 200 OK"
        }, {
          "name" : "Content-Length",
          "value" : "1375"
        }, {
          "name" : "X-XSS-Protection",
          "value" : "1; mode=block"
        }, {
          "name" : "Date",
          "value" : "Thu, 07 Jan 2021 12:17:15 GMT"
        }, {
          "name" : "Content-Type",
          "value" : "application/json; charset=utf-8"
        } ],
        "content" : {
          "size" : 1375,
          "mimeType" : "application/json; charset=utf-8",
          "text" : "{\"status\":true,\"message\":\"OK\",\"data\":{\"TrIDCallOut\":2773209,\"CalloutDetailID\":[34886],\"MessagePopUp\":\"Rawat Inap atas nama <span style=\\\"color:blue\\\">BUNGA ASRI KENCANA</span> dari <span style=\\\"color:blue\\\">PT Bank Permata Tbk</span> tidak dapat diproses karena <b style=\\\"color:red\\\">TIDAK DIJAMINKAN</b>\\r\\n<br></br><b>Latest Confirmation Result: </b><br></br><br><b>Validasi Diagnosa</b><br>PIC : Doctor <br>\\r\\nPIC Name : Irna Putri Perdana <br>\\r\\nDate Time Confirmation : 2020-11-18 13:47:00 <br>\\r\\nChannel : WhatsApp <br>\\r\\nConfirmation : Covered <br>\\r\\nBenefit Coverage : IP - Reimbursement <br>\\r\\nRemarks : tsg <br>\\r\\n\\r\\n\",\"IsProcess\":0,\"FollowUpStatus\":\"Not Need Follow Up\",\"IsNeedRejectionLetter\":0,\"BenefitCoverage\":\"BC002\",\"IsDiagnosisNeedNextValidation\":0,\"IsAnnualLimitNeedNextValidation\":1,\"IsNewMemberNeedNextValidation\":1,\"IsExcessNeedNextValidation\":1,\"IsDocumentNeedNextValidation\":1,\"IsEligibilityNeedNextValidation\":1,\"IsMedicalTreatmentNeedNextValidation\":1,\"IsFamilyPlanningNeedNextValidation\":1,\"IsProductNeedNextValidation\":1,\"Remarks\":\"Hasil Follow Up Outbound Diagnosa\\r\\n==============================\\r\\nPIC : Doctor\\r\\nPIC Name : Irna Putri Perdana\\r\\nDate Time Confirmation : 2020-11-18 13:47:00\\r\\nChannel : WhatsApp\\r\\nConfirmation : Covered\\r\\nBenefit Coverage : IP - Reimbursement\\r\\nRemarks : tsg\\r\\n\\r\\n\",\"IsExcessCalculation\":0}}",
          "comment" : ""
        },
        "redirectURL" : "",
        "headersSize" : 535,
        "bodySize" : 1375,
        "comment" : ""
      },
      "cache" : { },
      "timings" : {
        "comment" : "",
        "ssl" : -1,
        "send" : 0,
        "dns" : -1,
        "blocked" : -1,
        "receive" : 0,
        "wait" : 0,
        "connect" : 697
      },
      "comment" : "",
      "_katalonRequestInformation" : {
        "name" : "39",
        "testObjectId" : "Object Repository/Follow Up/FollowUpTicketClaim",
        "harId" : "9328df0b-bcb8-4ddd-a674-4e439b162149",
        "reportFolder" : null
      },
      "time" : 697
    } ],
    "comment" : ""
  }
}