{
  "log" : {
    "version" : "1.2",
    "pages" : [ ],
    "entries" : [ {
      "startedDateTime" : "2021-01-07T11:57:15.314Z",
      "request" : {
        "method" : "POST",
        "url" : "https://gen5-qc.asuransiastra.com/GardaAkses/API/CCOOutbound/FollowUpTicketClaim",
        "httpVersion" : "",
        "cookies" : [ ],
        "headers" : [ {
          "name" : "Content-Type",
          "value" : "application/x-www-form-urlencoded"
        }, {
          "name" : "Authorization",
          "value" : "Bearer 2FQzV6B4dA5zUTMzpQjHwlwWUyqZGh/8vLxsoY81mTSR3XG2bSX23AiH6Y+1ZhUXoAGRb6G8K8aEW0O9bEV0d2cE9J7Us1OS04i5iaQ9MJnypx8RH4XUP7iFX1hSLcH9iHXd3yDJ3lAX9is3w9w6JCQeEzw93aViNkHEShYA2Yc8TJgnc3YuSmyj4BZkH+sDqhHPxWgNUEEITh+INGz5d7wzDr9UPsorVN0rFpuS6COVdxTc28ZRHsMhOhDDRxwR"
        } ],
        "queryString" : [ ],
        "postData" : {
          "mimeType" : "application/x-www-form-urlencoded",
          "params" : [ {
            "name" : "ServiceType",
            "value" : "PRI",
            "comment" : ""
          }, {
            "name" : "MemberNo",
            "value" : "B/00017507",
            "comment" : ""
          }, {
            "name" : "MemberName",
            "value" : "BUNGA ASRI KENCANA",
            "comment" : ""
          }, {
            "name" : "ClientID",
            "value" : "CJKPP0009",
            "comment" : ""
          }, {
            "name" : "ProviderID",
            "value" : "TJKRP0146",
            "comment" : ""
          }, {
            "name" : "PreviousTrID",
            "value" : "2744046",
            "comment" : ""
          }, {
            "name" : "GLType",
            "value" : "GL Awal",
            "comment" : ""
          }, {
            "name" : "StartFollowUp",
            "value" : "2020-11-17 15:56:47",
            "comment" : ""
          }, {
            "name" : "Guid",
            "value" : "5edfafca1a324db0bdb8a833d63481110595b500e630f3ea2b359de4b3edae92",
            "comment" : ""
          }, {
            "name" : "ConfirmationItem",
            "value" : "[{\"ConfirmationType\":\"AM\",\"PICDesc\":\"Account Manager\",\"PICName\":\"BRD\",\"NameDesc\":\"Bintar Maday Raditya\",\"ConfirmationDate\":\"18/11/2020 08:35\",\"Confirmation\":\"AMNA\",\"ConfirmationDesc\":\"AM not available\",\"Remarks\":\"\",\"FollowUpTime\":\"1\",\"Channel\":\"\",\"PreviousLimit\":null,\"CurrentLimit\":null,\"BenefitCoverage\":\"\",\"Reason\":\"\",\"ConfirmationCategory\":\"Diagnosa\",\"DateTimeConfirmation\":null,\"DocumentGLNeeded\":null,\"fileCLByte\":null,\"fileNames\":null,\"isPrevious\":0,\"FollowUpTicketDocuments\":[],\"FollowUpTicketDocumentsNeeded\":[],\"Payer\":\"\",\"ClientHR\":\"\",\"IsFromTicketBefore\":0}]",
            "comment" : ""
          }, {
            "name" : "diagnosisConfirmationItem",
            "value" : "[{\"DiagnosisID\":\"B20\",\"Diagnosis\":\"HIV DISEASE RESULTING IN INFECTIOUS AND PARASITIC DISEASE\",\"DiagnosisPayer\":\"Employee\",\"DiagnosisCategory\":\"HIV, AIDS, ARDS\",\"DiagnosisCoverage\":\"Covered\"}]",
            "comment" : ""
          }, {
            "name" : "FamilyPlanningItemConfirmation",
            "value" : "[]",
            "comment" : ""
          }, {
            "name" : "email",
            "value" : "ehu@beyond.asuransi.astra.co.id",
            "comment" : ""
          }, {
            "name" : "hp",
            "value" : "081808623854",
            "comment" : ""
          }, {
            "name" : "providerconfirmationitem",
            "value" : "[]",
            "comment" : ""
          }, {
            "name" : "IsFUWaved",
            "value" : "0",
            "comment" : ""
          }, {
            "name" : "WavedReasonCode",
            "value" : "",
            "comment" : ""
          }, {
            "name" : "ProductType",
            "value" : "IP",
            "comment" : ""
          }, {
            "name" : "NonMedicalItem",
            "value" : "[]",
            "comment" : ""
          }, {
            "name" : "claimdetails",
            "value" : "[]",
            "comment" : ""
          }, {
            "name" : "ReferenceClaimLimitRecovery",
            "value" : "",
            "comment" : ""
          } ],
          "comment" : ""
        },
        "headersSize" : 0,
        "bodySize" : 0,
        "comment" : ""
      },
      "response" : {
        "status" : 200,
        "statusText" : "",
        "httpVersion" : "",
        "cookies" : [ ],
        "headers" : [ {
          "name" : "X-Frame-Options",
          "value" : "SAMEORIGIN"
        }, {
          "name" : "Strict-Transport-Security",
          "value" : "max-age=16070400"
        }, {
          "name" : "Cache-Control",
          "value" : "no-cache"
        }, {
          "name" : "X-Content-Type-Options",
          "value" : "nosniff"
        }, {
          "name" : "Set-Cookie",
          "value" : "EGRUM_BTM=30dff830-a1ae-478c-b385-fc4d66787c35#~#1||0; path=/"
        }, {
          "name" : "Set-Cookie",
          "value" : "TS0125c461=015294299ae5ca4d8f5f0df6b94937e7d5e55e5f9b4b4a5da4a54921cb4b8ad94ebbf091b990581fc72d308ac51c240a403d71bd7c6f91e094319b473936f05c21e3343aed; Path=/; Domain=.gen5-qc.asuransiastra.com"
        }, {
          "name" : "Pragma",
          "value" : "no-cache"
        }, {
          "name" : "Expires",
          "value" : "-1"
        }, {
          "name" : "#status#",
          "value" : "HTTP/1.1 200 OK"
        }, {
          "name" : "Content-Length",
          "value" : "1216"
        }, {
          "name" : "X-XSS-Protection",
          "value" : "1; mode=block"
        }, {
          "name" : "Date",
          "value" : "Thu, 07 Jan 2021 11:56:25 GMT"
        }, {
          "name" : "Content-Type",
          "value" : "application/json; charset=utf-8"
        } ],
        "content" : {
          "size" : 1216,
          "mimeType" : "application/json; charset=utf-8",
          "text" : "{\"status\":true,\"message\":\"OK\",\"data\":{\"TrIDCallOut\":2773127,\"CalloutDetailID\":[34827],\"MessagePopUp\":\"Rawat Inap atas nama <span style=\\\"color:blue\\\">BUNGA ASRI KENCANA</span> dari <span style=\\\"color:blue\\\">PT Bank Permata Tbk</span> telah diproses dan <b>masih menunggu konfirmasi.</b><br></br>\\r\\n<b>Latest Confirmation Result: </b><br></br><br><b>Validasi Diagnosa</b><br>PIC : AM <br>\\r\\nPIC Name : Bintar Maday Raditya <br>\\r\\nDate Time Confirmation : 2020-11-18 08:35:00 <br>\\r\\nConfirmation : AM not available <br>\\r\\nFU Time : 1 <br>\\r\\n\\r\\n\",\"IsProcess\":0,\"FollowUpStatus\":\"Follow Up\",\"IsNeedRejectionLetter\":0,\"BenefitCoverage\":\"\",\"IsDiagnosisNeedNextValidation\":0,\"IsAnnualLimitNeedNextValidation\":1,\"IsNewMemberNeedNextValidation\":1,\"IsExcessNeedNextValidation\":1,\"IsDocumentNeedNextValidation\":1,\"IsEligibilityNeedNextValidation\":1,\"IsMedicalTreatmentNeedNextValidation\":1,\"IsFamilyPlanningNeedNextValidation\":1,\"IsProductNeedNextValidation\":1,\"Remarks\":\"Hasil Follow Up Outbound Diagnosa\\r\\n==============================\\r\\nPIC : AM\\r\\nPIC Name : Bintar Maday Raditya\\r\\nDate Time Confirmation : 2020-11-18 08:35:00\\r\\nConfirmation : AM not available\\r\\nFU Time : 1\\r\\n\\r\\n\",\"IsExcessCalculation\":0}}",
          "comment" : ""
        },
        "redirectURL" : "",
        "headersSize" : 535,
        "bodySize" : 1216,
        "comment" : ""
      },
      "cache" : { },
      "timings" : {
        "comment" : "",
        "ssl" : -1,
        "connect" : 525,
        "receive" : 0,
        "blocked" : -1,
        "send" : 0,
        "dns" : -1,
        "wait" : 0
      },
      "comment" : "",
      "_katalonRequestInformation" : {
        "name" : "1",
        "testObjectId" : "Object Repository/Follow Up/FollowUpTicketClaim",
        "harId" : "43350275-34e2-480d-b74e-8487d31a6a84",
        "reportFolder" : null
      },
      "time" : 525
    } ],
    "comment" : ""
  }
}