{
  "log" : {
    "version" : "1.2",
    "pages" : [ ],
    "entries" : [ {
      "startedDateTime" : "2021-01-07T11:58:07.314Z",
      "request" : {
        "method" : "POST",
        "url" : "https://gen5-qc.asuransiastra.com/GardaAkses/API/CCOOutbound/FollowUpTicketClaim",
        "httpVersion" : "",
        "cookies" : [ ],
        "headers" : [ {
          "name" : "Content-Type",
          "value" : "application/x-www-form-urlencoded"
        }, {
          "name" : "Authorization",
          "value" : "Bearer mj1eD+8vMFQKw7ZHizw0xTUv66NWISJD73FsO+KZcvlpdGmxpcxotBouBZLQ7rqpCY/CbkL6A1k0MLB9rLdD9hDArnUnxeHXSpS/spAjolAie2FmSLc2v0490l8HO1ZKqRWr5WqgX5KR+jWnp3TxG6+DXV6pBZ0GytKlD518pNBe1rO0v/pCQjUvq/krAf1l7FxLgPGzawipnE3VBe7DlCsmoWIE5W7UCrdHVsAhAftPzNxzQvUguqMyaaJIA0kE"
        } ],
        "queryString" : [ ],
        "postData" : {
          "mimeType" : "application/x-www-form-urlencoded",
          "params" : [ {
            "name" : "ServiceType",
            "value" : "PRI",
            "comment" : ""
          }, {
            "name" : "MemberNo",
            "value" : "B/00017507",
            "comment" : ""
          }, {
            "name" : "MemberName",
            "value" : "BUNGA ASRI KENCANA",
            "comment" : ""
          }, {
            "name" : "ClientID",
            "value" : "CJKPP0009",
            "comment" : ""
          }, {
            "name" : "ProviderID",
            "value" : "TJKRP0146",
            "comment" : ""
          }, {
            "name" : "PreviousTrID",
            "value" : "2744046",
            "comment" : ""
          }, {
            "name" : "GLType",
            "value" : "GL Awal",
            "comment" : ""
          }, {
            "name" : "StartFollowUp",
            "value" : "2020-11-17 15:56:47",
            "comment" : ""
          }, {
            "name" : "Guid",
            "value" : "5edfafca1a324db0bdb8a833d63481110595b500e630f3ea2b359de4b3edae92",
            "comment" : ""
          }, {
            "name" : "ConfirmationItem",
            "value" : "[{\"ConfirmationType\":\"Doctor\",\"PICDesc\":\"Doctor\",\"PICName\":\"YMU\",\"NameDesc\":\"Yeyen Usman\",\"ConfirmationDate\":\"18/11/2020 13:49\",\"Confirmation\":\"HLD\",\"ConfirmationDesc\":\"Hold\",\"Remarks\":\"tsg\",\"FollowUpTime\":\"5\",\"Channel\":\"CALL\",\"PreviousLimit\":null,\"CurrentLimit\":null,\"BenefitCoverage\":\"\",\"Reason\":\"FUR004\",\"ConfirmationCategory\":\"Diagnosa\",\"DateTimeConfirmation\":null,\"DocumentGLNeeded\":null,\"fileCLByte\":null,\"fileNames\":null,\"isPrevious\":0,\"FollowUpTicketDocuments\":[],\"FollowUpTicketDocumentsNeeded\":[],\"Payer\":\"\",\"ClientHR\":\"\",\"IsFromTicketBefore\":0}]",
            "comment" : ""
          }, {
            "name" : "diagnosisConfirmationItem",
            "value" : "[{\"DiagnosisID\":\"B20\",\"Diagnosis\":\"HIV DISEASE RESULTING IN INFECTIOUS AND PARASITIC DISEASE\",\"DiagnosisPayer\":\"Employee\",\"DiagnosisCategory\":\"HIV, AIDS, ARDS\",\"DiagnosisCoverage\":\"Covered\"}]",
            "comment" : ""
          }, {
            "name" : "FamilyPlanningItemConfirmation",
            "value" : "[]",
            "comment" : ""
          }, {
            "name" : "email",
            "value" : "ehu@beyond.asuransi.astra.co.id",
            "comment" : ""
          }, {
            "name" : "hp",
            "value" : "081808623854",
            "comment" : ""
          }, {
            "name" : "providerconfirmationitem",
            "value" : "[]",
            "comment" : ""
          }, {
            "name" : "IsFUWaved",
            "value" : "0",
            "comment" : ""
          }, {
            "name" : "WavedReasonCode",
            "value" : "",
            "comment" : ""
          }, {
            "name" : "ProductType",
            "value" : "IP",
            "comment" : ""
          }, {
            "name" : "NonMedicalItem",
            "value" : "[]",
            "comment" : ""
          }, {
            "name" : "claimdetails",
            "value" : "[]",
            "comment" : ""
          }, {
            "name" : "ReferenceClaimLimitRecovery",
            "value" : "",
            "comment" : ""
          } ],
          "comment" : ""
        },
        "headersSize" : 0,
        "bodySize" : 0,
        "comment" : ""
      },
      "response" : {
        "status" : 200,
        "statusText" : "",
        "httpVersion" : "",
        "cookies" : [ ],
        "headers" : [ {
          "name" : "X-Frame-Options",
          "value" : "SAMEORIGIN"
        }, {
          "name" : "Strict-Transport-Security",
          "value" : "max-age=16070400"
        }, {
          "name" : "Cache-Control",
          "value" : "no-cache"
        }, {
          "name" : "X-Content-Type-Options",
          "value" : "nosniff"
        }, {
          "name" : "Set-Cookie",
          "value" : "EGRUM_BTM=7638559e-2624-43d6-baa2-9e0ff155fce1#~#1||0; path=/"
        }, {
          "name" : "Set-Cookie",
          "value" : "TS0125c461=015294299a7940cd2224f9c196e8e46ad4466464c301baddb4500dc63d8be2e793bf8a71c2017212808cb0289117a16eb8d223647d4261e3e72cbdcbf24f15123917fb6020; Path=/; Domain=.gen5-qc.asuransiastra.com"
        }, {
          "name" : "Pragma",
          "value" : "no-cache"
        }, {
          "name" : "Expires",
          "value" : "-1"
        }, {
          "name" : "#status#",
          "value" : "HTTP/1.1 200 OK"
        }, {
          "name" : "Content-Length",
          "value" : "1351"
        }, {
          "name" : "X-XSS-Protection",
          "value" : "1; mode=block"
        }, {
          "name" : "Date",
          "value" : "Thu, 07 Jan 2021 11:57:17 GMT"
        }, {
          "name" : "Content-Type",
          "value" : "application/json; charset=utf-8"
        } ],
        "content" : {
          "size" : 1351,
          "mimeType" : "application/json; charset=utf-8",
          "text" : "{\"status\":true,\"message\":\"OK\",\"data\":{\"TrIDCallOut\":2773152,\"CalloutDetailID\":[34849],\"MessagePopUp\":\"Rawat Inap atas nama <span style=\\\"color:blue\\\">BUNGA ASRI KENCANA</span> dari <span style=\\\"color:blue\\\">PT Bank Permata Tbk</span> telah diproses dan <b>masih menunggu konfirmasi.</b><br></br>\\r\\n<b>Latest Confirmation Result: </b><br></br><br><b>Validasi Diagnosa</b><br>PIC : Doctor <br>\\r\\nPIC Name : Yeyen Usman <br>\\r\\nDate Time Confirmation : 2020-11-18 13:49:00 <br>\\r\\nChannel : Call <br>\\r\\nConfirmation : Hold <br>\\r\\nReason : Permintaan Informasi Tambahan <br>\\r\\nRemarks : tsg <br>\\r\\nFU Time : 5 <br>\\r\\n\\r\\n\",\"IsProcess\":0,\"FollowUpStatus\":\"Follow Up\",\"IsNeedRejectionLetter\":0,\"BenefitCoverage\":\"\",\"IsDiagnosisNeedNextValidation\":0,\"IsAnnualLimitNeedNextValidation\":1,\"IsNewMemberNeedNextValidation\":1,\"IsExcessNeedNextValidation\":1,\"IsDocumentNeedNextValidation\":1,\"IsEligibilityNeedNextValidation\":1,\"IsMedicalTreatmentNeedNextValidation\":1,\"IsFamilyPlanningNeedNextValidation\":1,\"IsProductNeedNextValidation\":1,\"Remarks\":\"Hasil Follow Up Outbound Diagnosa\\r\\n==============================\\r\\nPIC : Doctor\\r\\nPIC Name : Yeyen Usman\\r\\nDate Time Confirmation : 2020-11-18 13:49:00\\r\\nChannel : Call\\r\\nConfirmation : Hold\\r\\nReason : Permintaan Informasi Tambahan\\r\\nRemarks : tsg\\r\\nFU Time : 5\\r\\n\\r\\n\",\"IsExcessCalculation\":0}}",
          "comment" : ""
        },
        "redirectURL" : "",
        "headersSize" : 535,
        "bodySize" : 1351,
        "comment" : ""
      },
      "cache" : { },
      "timings" : {
        "comment" : "",
        "ssl" : -1,
        "connect" : 908,
        "receive" : 0,
        "blocked" : -1,
        "send" : 0,
        "dns" : -1,
        "wait" : 0
      },
      "comment" : "",
      "_katalonRequestInformation" : {
        "name" : "43",
        "testObjectId" : "Object Repository/Follow Up/FollowUpTicketClaim",
        "harId" : "b776cc16-47b4-43cc-b9c7-2af2e2e3ba17",
        "reportFolder" : null
      },
      "time" : 908
    } ],
    "comment" : ""
  }
}