{
  "log" : {
    "version" : "1.2",
    "pages" : [ ],
    "entries" : [ {
      "startedDateTime" : "2021-01-07T11:58:15.795Z",
      "request" : {
        "method" : "POST",
        "url" : "https://gen5-qc.asuransiastra.com/GardaAkses/API/root/signin",
        "httpVersion" : "",
        "cookies" : [ ],
        "headers" : [ {
          "name" : "Content-Type",
          "value" : "application/x-www-form-urlencoded"
        } ],
        "queryString" : [ ],
        "postData" : {
          "mimeType" : "application/x-www-form-urlencoded",
          "params" : [ {
            "name" : "username",
            "value" : "DNP",
            "comment" : ""
          }, {
            "name" : "password",
            "value" : "ITG@nt1P455QC",
            "comment" : ""
          }, {
            "name" : "biztype",
            "value" : "12",
            "comment" : ""
          } ],
          "comment" : ""
        },
        "headersSize" : 0,
        "bodySize" : 0,
        "comment" : ""
      },
      "response" : {
        "status" : 200,
        "statusText" : "",
        "httpVersion" : "",
        "cookies" : [ ],
        "headers" : [ {
          "name" : "X-Frame-Options",
          "value" : "SAMEORIGIN"
        }, {
          "name" : "Strict-Transport-Security",
          "value" : "max-age=16070400"
        }, {
          "name" : "Cache-Control",
          "value" : "private"
        }, {
          "name" : "X-Content-Type-Options",
          "value" : "nosniff"
        }, {
          "name" : "Set-Cookie",
          "value" : "EGRUM_BTM=c381eb01-9e18-4655-9e59-15b45674c287#~#1||0; path=/"
        }, {
          "name" : "Set-Cookie",
          "value" : "EGRUM_BTM=36aaafce-c637-473e-a863-b6eb541a9fc1#~#1||0; path=/"
        }, {
          "name" : "Set-Cookie",
          "value" : "TS0125c461=015294299a15dc7590a273184b65e003fda146c21636331059a092536daabf39ca2a49dc502051c125656bf4de3a26bc5494018fa7b7d822e49a4a50bc0b5dc99e4aafcf371f28f1356848c813d7375e05fa8dc4af; Path=/; Domain=.gen5-qc.asuransiastra.com"
        }, {
          "name" : "Pragma",
          "value" : "no-cache"
        }, {
          "name" : "Expires",
          "value" : "-1"
        }, {
          "name" : "#status#",
          "value" : "HTTP/1.1 200 OK"
        }, {
          "name" : "Content-Length",
          "value" : "33108"
        }, {
          "name" : "X-XSS-Protection",
          "value" : "1; mode=block"
        }, {
          "name" : "Date",
          "value" : "Thu, 07 Jan 2021 11:57:25 GMT"
        }, {
          "name" : "Content-Type",
          "value" : "application/json; charset=utf-8"
        } ],
        "content" : {
          "size" : 33108,
          "mimeType" : "application/json; charset=utf-8",
          "text" : "{\"status\":true,\"errorCode\":0,\"token\":\"TCs+dhsYgntrKe8Oy1aYyHwVkn0UNJdDwSZa7iWaq3cbXxv4HLbRSuRlcX6PAjR0NxAsCqCFFOgasgbmOhSLN6ZU7fveLV1q59eHOc4RF86lqXZFuCbgg5upw67vF3fGZ2cPp8aCmmuLdKS+G8jfN93HtdQ6u2j511rEytrji3FIGgekImvjGNprKUIbS71FzST6tan7hY1jTAlbVhSORZWLoJQXAkByNuVb5VEscdnVUB91BRHhTu/UclIIVWjA\",\"validHours\":24,\"entryDate\":\"2017-04-03T15:40:15.037Z\",\"lastUpdatedTime\":\"2017-04-03T15:40:15.037Z\",\"userInfo\":{\"id\":\"DNP\",\"fullName\":\"Danny Indra Permana\",\"email\":null,\"passwordExpiry\":\"9999-12-31\",\"lastChangedPassword\":\"2020-08-19 07:20:12\"},\"menu\":[{\"id\":1000079,\"name\":\"GDHealth\",\"caption\":\"Health\",\"parentId\":0,\"seqNo\":0,\"roleCode\":\"CCOOUTBOUND\",\"roleName\":\"CCO Outbound\",\"info\":\"\",\"canAdd\":true,\"canEdit\":true,\"canView\":true,\"canDelete\":true,\"workflowId\":\"\",\"entryDate\":\"2017-04-03T15:40:15.037Z\",\"lastUpdatedTime\":\"2017-04-03T15:40:15.037Z\"},{\"id\":1000079,\"name\":\"GDHealth\",\"caption\":\"Health\",\"parentId\":0,\"seqNo\":0,\"roleCode\":\"GAINBOUND\",\"roleName\":\"Inbound\",\"info\":\"\",\"canAdd\":true,\"canEdit\":true,\"canView\":true,\"canDelete\":true,\"workflowId\":\"\",\"entryDate\":\"2017-04-03T15:40:15.037Z\",\"lastUpdatedTime\":\"2017-04-03T15:40:15.037Z\"},{\"id\":1000079,\"name\":\"GDHealth\",\"caption\":\"Health\",\"parentId\":0,\"seqNo\":0,\"roleCode\":\"INPVDHEALTH\",\"roleName\":\"Inbound Provider Health\",\"info\":\"\",\"canAdd\":true,\"canEdit\":true,\"canView\":true,\"canDelete\":true,\"workflowId\":\"\",\"entryDate\":\"2017-04-03T15:40:15.037Z\",\"lastUpdatedTime\":\"2017-04-03T15:40:15.037Z\"},{\"id\":1000079,\"name\":\"GDHealth\",\"caption\":\"Health\",\"parentId\":0,\"seqNo\":0,\"roleCode\":\"INPVDNONHEALTH\",\"roleName\":\"Inbound Provider Non Health\",\"info\":\"\",\"canAdd\":true,\"canEdit\":true,\"canView\":true,\"canDelete\":true,\"workflowId\":\"\",\"entryDate\":\"2017-04-03T15:40:15.037Z\",\"lastUpdatedTime\":\"2017-04-03T15:40:15.037Z\"},{\"id\":1000079,\"name\":\"GDHealth\",\"caption\":\"Health\",\"parentId\":0,\"seqNo\":0,\"roleCode\":\"INQUIRYTICKET\",\"roleName\":\"Inquiry Ticket Health\",\"info\":\"\",\"canAdd\":true,\"canEdit\":true,\"canView\":true,\"canDelete\":true,\"workflowId\":\"\",\"entryDate\":\"2017-04-03T15:40:15.037Z\",\"lastUpdatedTime\":\"2017-04-03T15:40:15.037Z\"},{\"id\":1000079,\"name\":\"GDHealth\",\"caption\":\"Health\",\"parentId\":0,\"seqNo\":0,\"roleCode\":\"OUTPVDHEALTH\",\"roleName\":\"Outbound Provider Health\",\"info\":\"\",\"canAdd\":true,\"canEdit\":true,\"canView\":true,\"canDelete\":true,\"workflowId\":\"\",\"entryDate\":\"2017-04-03T15:40:15.037Z\",\"lastUpdatedTime\":\"2017-04-03T15:40:15.037Z\"},{\"id\":1000079,\"name\":\"GDHealth\",\"caption\":\"Health\",\"parentId\":0,\"seqNo\":0,\"roleCode\":\"OUTPVDNONHEALTH\",\"roleName\":\"Outbound Provider Non Health\",\"info\":\"\",\"canAdd\":true,\"canEdit\":true,\"canView\":true,\"canDelete\":true,\"workflowId\":\"\",\"entryDate\":\"2017-04-03T15:40:15.037Z\",\"lastUpdatedTime\":\"2017-04-03T15:40:15.037Z\"},{\"id\":1201,\"name\":\"GENERAL\",\"caption\":\"General\",\"parentId\":0,\"seqNo\":1,\"roleCode\":\"CCOOUTBOUND\",\"roleName\":\"CCO Outbound\",\"info\":\"\",\"canAdd\":true,\"canEdit\":true,\"canView\":true,\"canDelete\":true,\"workflowId\":\"\",\"entryDate\":\"2017-04-03T15:40:15.037Z\",\"lastUpdatedTime\":\"2017-04-03T15:40:15.037Z\"},{\"id\":1201,\"name\":\"GENERAL\",\"caption\":\"General\",\"parentId\":0,\"seqNo\":1,\"roleCode\":\"GAINBOUND\",\"roleName\":\"Inbound\",\"info\":\"\",\"canAdd\":true,\"canEdit\":true,\"canView\":true,\"canDelete\":true,\"workflowId\":\"\",\"entryDate\":\"2017-04-03T15:40:15.037Z\",\"lastUpdatedTime\":\"2017-04-03T15:40:15.037Z\"},{\"id\":1201,\"name\":\"GENERAL\",\"caption\":\"General\",\"parentId\":0,\"seqNo\":1,\"roleCode\":\"GAINOUT\",\"roleName\":\"InOut\",\"info\":\"\",\"canAdd\":true,\"canEdit\":true,\"canView\":true,\"canDelete\":true,\"workflowId\":\"\",\"entryDate\":\"2017-04-03T15:40:15.037Z\",\"lastUpdatedTime\":\"2017-04-03T15:40:15.037Z\"},{\"id\":1201,\"name\":\"GENERAL\",\"caption\":\"General\",\"parentId\":0,\"seqNo\":1,\"roleCode\":\"INPVDHEALTH\",\"roleName\":\"Inbound Provider Health\",\"info\":\"\",\"canAdd\":true,\"canEdit\":true,\"canView\":true,\"canDelete\":true,\"workflowId\":\"\",\"entryDate\":\"2017-04-03T15:40:15.037Z\",\"lastUpdatedTime\":\"2017-04-03T15:40:15.037Z\"},{\"id\":1201,\"name\":\"GENERAL\",\"caption\":\"General\",\"parentId\":0,\"seqNo\":1,\"roleCode\":\"INPVDNONHEALTH\",\"roleName\":\"Inbound Provider Non Health\",\"info\":\"\",\"canAdd\":true,\"canEdit\":true,\"canView\":true,\"canDelete\":true,\"workflowId\":\"\",\"entryDate\":\"2017-04-03T15:40:15.037Z\",\"lastUpdatedTime\":\"2017-04-03T15:40:15.037Z\"},{\"id\":1201,\"name\":\"GENERAL\",\"caption\":\"General\",\"parentId\":0,\"seqNo\":1,\"roleCode\":\"OUTPVDHEALTH\",\"roleName\":\"Outbound Provider Health\",\"info\":\"\",\"canAdd\":true,\"canEdit\":true,\"canView\":true,\"canDelete\":true,\"workflowId\":\"\",\"entryDate\":\"2017-04-03T15:40:15.037Z\",\"lastUpdatedTime\":\"2017-04-03T15:40:15.037Z\"},{\"id\":1201,\"name\":\"GENERAL\",\"caption\":\"General\",\"parentId\":0,\"seqNo\":1,\"roleCode\":\"OUTPVDNONHEALTH\",\"roleName\":\"Outbound Provider Non Health\",\"info\":\"\",\"canAdd\":true,\"canEdit\":true,\"canView\":true,\"canDelete\":true,\"workflowId\":\"\",\"entryDate\":\"2017-04-03T15:40:15.037Z\",\"lastUpdatedTime\":\"2017-04-03T15:40:15.037Z\"},{\"id\":1217,\"name\":\"ChooseCustomerParent\",\"caption\":\"Choose Customer\",\"parentId\":0,\"seqNo\":2,\"roleCode\":\"GAINOUT\",\"roleName\":\"InOut\",\"info\":\"\",\"canAdd\":true,\"canEdit\":true,\"canView\":true,\"canDelete\":true,\"workflowId\":\"\",\"entryDate\":\"2017-04-03T15:40:15.037Z\",\"lastUpdatedTime\":\"2017-04-03T15:40:15.037Z\"},{\"id\":1217,\"name\":\"ChooseCustomerParent\",\"caption\":\"Choose Customer\",\"parentId\":0,\"seqNo\":2,\"roleCode\":\"INPVDHEALTH\",\"roleName\":\"Inbound Provider Health\",\"info\":\"\",\"canAdd\":true,\"canEdit\":true,\"canView\":true,\"canDelete\":true,\"workflowId\":\"\",\"entryDate\":\"2017-04-03T15:40:15.037Z\",\"lastUpdatedTime\":\"2017-04-03T15:40:15.037Z\"},{\"id\":1217,\"name\":\"ChooseCustomerParent\",\"caption\":\"Choose Customer\",\"parentId\":0,\"seqNo\":2,\"roleCode\":\"INPVDNONHEALTH\",\"roleName\":\"Inbound Provider Non Health\",\"info\":\"\",\"canAdd\":true,\"canEdit\":true,\"canView\":true,\"canDelete\":true,\"workflowId\":\"\",\"entryDate\":\"2017-04-03T15:40:15.037Z\",\"lastUpdatedTime\":\"2017-04-03T15:40:15.037Z\"},{\"id\":1217,\"name\":\"ChooseCustomerParent\",\"caption\":\"Choose Customer\",\"parentId\":0,\"seqNo\":2,\"roleCode\":\"OUTPVDHEALTH\",\"roleName\":\"Outbound Provider Health\",\"info\":\"\",\"canAdd\":true,\"canEdit\":true,\"canView\":true,\"canDelete\":true,\"workflowId\":\"\",\"entryDate\":\"2017-04-03T15:40:15.037Z\",\"lastUpdatedTime\":\"2017-04-03T15:40:15.037Z\"},{\"id\":1217,\"name\":\"ChooseCustomerParent\",\"caption\":\"Choose Customer\",\"parentId\":0,\"seqNo\":2,\"roleCode\":\"OUTPVDNONHEALTH\",\"roleName\":\"Outbound Provider Non Health\",\"info\":\"\",\"canAdd\":true,\"canEdit\":true,\"canView\":true,\"canDelete\":true,\"workflowId\":\"\",\"entryDate\":\"2017-04-03T15:40:15.037Z\",\"lastUpdatedTime\":\"2017-04-03T15:40:15.037Z\"},{\"id\":1205,\"name\":\"INBOUND\",\"caption\":\"Service Type\",\"parentId\":0,\"seqNo\":3,\"roleCode\":\"GAINBOUND\",\"roleName\":\"Inbound\",\"info\":\"\",\"canAdd\":true,\"canEdit\":true,\"canView\":true,\"canDelete\":true,\"workflowId\":\"\",\"entryDate\":\"2017-04-03T15:40:15.037Z\",\"lastUpdatedTime\":\"2017-04-03T15:40:15.037Z\"},{\"id\":1205,\"name\":\"INBOUND\",\"caption\":\"Service Type\",\"parentId\":0,\"seqNo\":3,\"roleCode\":\"GAINOUT\",\"roleName\":\"InOut\",\"info\":\"\",\"canAdd\":true,\"canEdit\":true,\"canView\":true,\"canDelete\":true,\"workflowId\":\"\",\"entryDate\":\"2017-04-03T15:40:15.037Z\",\"lastUpdatedTime\":\"2017-04-03T15:40:15.037Z\"},{\"id\":1205,\"name\":\"INBOUND\",\"caption\":\"Service Type\",\"parentId\":0,\"seqNo\":3,\"roleCode\":\"INPVDHEALTH\",\"roleName\":\"Inbound Provider Health\",\"info\":\"\",\"canAdd\":true,\"canEdit\":true,\"canView\":true,\"canDelete\":true,\"workflowId\":\"\",\"entryDate\":\"2017-04-03T15:40:15.037Z\",\"lastUpdatedTime\":\"2017-04-03T15:40:15.037Z\"},{\"id\":1205,\"name\":\"INBOUND\",\"caption\":\"Service Type\",\"parentId\":0,\"seqNo\":3,\"roleCode\":\"INPVDNONHEALTH\",\"roleName\":\"Inbound Provider Non Health\",\"info\":\"\",\"canAdd\":true,\"canEdit\":true,\"canView\":true,\"canDelete\":true,\"workflowId\":\"\",\"entryDate\":\"2017-04-03T15:40:15.037Z\",\"lastUpdatedTime\":\"2017-04-03T15:40:15.037Z\"},{\"id\":1205,\"name\":\"INBOUND\",\"caption\":\"Service Type\",\"parentId\":0,\"seqNo\":3,\"roleCode\":\"OUTPVDHEALTH\",\"roleName\":\"Outbound Provider Health\",\"info\":\"\",\"canAdd\":true,\"canEdit\":true,\"canView\":true,\"canDelete\":true,\"workflowId\":\"\",\"entryDate\":\"2017-04-03T15:40:15.037Z\",\"lastUpdatedTime\":\"2017-04-03T15:40:15.037Z\"},{\"id\":1205,\"name\":\"INBOUND\",\"caption\":\"Service Type\",\"parentId\":0,\"seqNo\":3,\"roleCode\":\"OUTPVDNONHEALTH\",\"roleName\":\"Outbound Provider Non Health\",\"info\":\"\",\"canAdd\":true,\"canEdit\":true,\"canView\":true,\"canDelete\":true,\"workflowId\":\"\",\"entryDate\":\"2017-04-03T15:40:15.037Z\",\"lastUpdatedTime\":\"2017-04-03T15:40:15.037Z\"},{\"id\":1000091,\"name\":\"COMPLAINT\",\"caption\":\"Complaint\",\"parentId\":0,\"seqNo\":3,\"roleCode\":\"INPVDHEALTH\",\"roleName\":\"Inbound Provider Health\",\"info\":\"\",\"canAdd\":true,\"canEdit\":true,\"canView\":true,\"canDelete\":true,\"workflowId\":\"\",\"entryDate\":\"2017-04-03T15:40:15.037Z\",\"lastUpdatedTime\":\"2017-04-03T15:40:15.037Z\"},{\"id\":1000091,\"name\":\"COMPLAINT\",\"caption\":\"Complaint\",\"parentId\":0,\"seqNo\":3,\"roleCode\":\"INPVDNONHEALTH\",\"roleName\":\"Inbound Provider Non Health\",\"info\":\"\",\"canAdd\":true,\"canEdit\":true,\"canView\":true,\"canDelete\":true,\"workflowId\":\"\",\"entryDate\":\"2017-04-03T15:40:15.037Z\",\"lastUpdatedTime\":\"2017-04-03T15:40:15.037Z\"},{\"id\":1000091,\"name\":\"COMPLAINT\",\"caption\":\"Complaint\",\"parentId\":0,\"seqNo\":3,\"roleCode\":\"OUTPVDHEALTH\",\"roleName\":\"Outbound Provider Health\",\"info\":\"\",\"canAdd\":true,\"canEdit\":true,\"canView\":true,\"canDelete\":true,\"workflowId\":\"\",\"entryDate\":\"2017-04-03T15:40:15.037Z\",\"lastUpdatedTime\":\"2017-04-03T15:40:15.037Z\"},{\"id\":1000091,\"name\":\"COMPLAINT\",\"caption\":\"Complaint\",\"parentId\":0,\"seqNo\":3,\"roleCode\":\"OUTPVDNONHEALTH\",\"roleName\":\"Outbound Provider Non Health\",\"info\":\"\",\"canAdd\":true,\"canEdit\":true,\"canView\":true,\"canDelete\":true,\"workflowId\":\"\",\"entryDate\":\"2017-04-03T15:40:15.037Z\",\"lastUpdatedTime\":\"2017-04-03T15:40:15.037Z\"},{\"id\":1222,\"name\":\"FollowUp\",\"caption\":\"Follow Up\",\"parentId\":1201,\"seqNo\":2,\"roleCode\":\"CCOOUTBOUND\",\"roleName\":\"CCO Outbound\",\"info\":\"CCOOutbound/Index\",\"canAdd\":true,\"canEdit\":true,\"canView\":true,\"canDelete\":true,\"workflowId\":\"\",\"entryDate\":\"2017-04-03T15:40:15.037Z\",\"lastUpdatedTime\":\"2017-04-03T15:40:15.037Z\"},{\"id\":1000098,\"name\":\"CreateTicket\",\"caption\":\"Create Ticket\",\"parentId\":1201,\"seqNo\":2,\"roleCode\":\"CCOOUTBOUND\",\"roleName\":\"CCO Outbound\",\"info\":\"CreateTicket/Index\",\"canAdd\":true,\"canEdit\":true,\"canView\":true,\"canDelete\":true,\"workflowId\":\"\",\"entryDate\":\"2017-04-03T15:40:15.037Z\",\"lastUpdatedTime\":\"2017-04-03T15:40:15.037Z\"},{\"id\":1000098,\"name\":\"CreateTicket\",\"caption\":\"Create Ticket\",\"parentId\":1201,\"seqNo\":2,\"roleCode\":\"INPVDHEALTH\",\"roleName\":\"Inbound Provider Health\",\"info\":\"CreateTicket/Index\",\"canAdd\":true,\"canEdit\":true,\"canView\":true,\"canDelete\":true,\"workflowId\":\"\",\"entryDate\":\"2017-04-03T15:40:15.037Z\",\"lastUpdatedTime\":\"2017-04-03T15:40:15.037Z\"},{\"id\":1000098,\"name\":\"CreateTicket\",\"caption\":\"Create Ticket\",\"parentId\":1201,\"seqNo\":2,\"roleCode\":\"INPVDNONHEALTH\",\"roleName\":\"Inbound Provider Non Health\",\"info\":\"CreateTicket/Index\",\"canAdd\":true,\"canEdit\":true,\"canView\":true,\"canDelete\":true,\"workflowId\":\"\",\"entryDate\":\"2017-04-03T15:40:15.037Z\",\"lastUpdatedTime\":\"2017-04-03T15:40:15.037Z\"},{\"id\":1000098,\"name\":\"CreateTicket\",\"caption\":\"Create Ticket\",\"parentId\":1201,\"seqNo\":2,\"roleCode\":\"OUTPVDHEALTH\",\"roleName\":\"Outbound Provider Health\",\"info\":\"CreateTicket/Index\",\"canAdd\":true,\"canEdit\":true,\"canView\":true,\"canDelete\":true,\"workflowId\":\"\",\"entryDate\":\"2017-04-03T15:40:15.037Z\",\"lastUpdatedTime\":\"2017-04-03T15:40:15.037Z\"},{\"id\":1000098,\"name\":\"CreateTicket\",\"caption\":\"Create Ticket\",\"parentId\":1201,\"seqNo\":2,\"roleCode\":\"OUTPVDNONHEALTH\",\"roleName\":\"Outbound Provider Non Health\",\"info\":\"CreateTicket/Index\",\"canAdd\":true,\"canEdit\":true,\"canView\":true,\"canDelete\":true,\"workflowId\":\"\",\"entryDate\":\"2017-04-03T15:40:15.037Z\",\"lastUpdatedTime\":\"2017-04-03T15:40:15.037Z\"},{\"id\":1203,\"name\":\"TicketFollowUp\",\"caption\":\"Ticket Follow-Up\",\"parentId\":1201,\"seqNo\":3,\"roleCode\":\"GAINBOUND\",\"roleName\":\"Inbound\",\"info\":\"TicketFollowUp/Index\",\"canAdd\":true,\"canEdit\":true,\"canView\":true,\"canDelete\":true,\"workflowId\":\"\",\"entryDate\":\"2017-04-03T15:40:15.037Z\",\"lastUpdatedTime\":\"2017-04-03T15:40:15.037Z\"},{\"id\":1203,\"name\":\"TicketFollowUp\",\"caption\":\"Ticket Follow-Up\",\"parentId\":1201,\"seqNo\":3,\"roleCode\":\"GAINOUT\",\"roleName\":\"InOut\",\"info\":\"TicketFollowUp/Index\",\"canAdd\":true,\"canEdit\":true,\"canView\":true,\"canDelete\":true,\"workflowId\":\"\",\"entryDate\":\"2017-04-03T15:40:15.037Z\",\"lastUpdatedTime\":\"2017-04-03T15:40:15.037Z\"},{\"id\":1203,\"name\":\"TicketFollowUp\",\"caption\":\"Ticket Follow-Up\",\"parentId\":1201,\"seqNo\":3,\"roleCode\":\"INPVDHEALTH\",\"roleName\":\"Inbound Provider Health\",\"info\":\"TicketFollowUp/Index\",\"canAdd\":true,\"canEdit\":true,\"canView\":true,\"canDelete\":true,\"workflowId\":\"\",\"entryDate\":\"2017-04-03T15:40:15.037Z\",\"lastUpdatedTime\":\"2017-04-03T15:40:15.037Z\"},{\"id\":1203,\"name\":\"TicketFollowUp\",\"caption\":\"Ticket Follow-Up\",\"parentId\":1201,\"seqNo\":3,\"roleCode\":\"INPVDNONHEALTH\",\"roleName\":\"Inbound Provider Non Health\",\"info\":\"TicketFollowUp/Index\",\"canAdd\":true,\"canEdit\":true,\"canView\":true,\"canDelete\":true,\"workflowId\":\"\",\"entryDate\":\"2017-04-03T15:40:15.037Z\",\"lastUpdatedTime\":\"2017-04-03T15:40:15.037Z\"},{\"id\":1203,\"name\":\"TicketFollowUp\",\"caption\":\"Ticket Follow-Up\",\"parentId\":1201,\"seqNo\":3,\"roleCode\":\"OUTPVDHEALTH\",\"roleName\":\"Outbound Provider Health\",\"info\":\"TicketFollowUp/Index\",\"canAdd\":true,\"canEdit\":true,\"canView\":true,\"canDelete\":true,\"workflowId\":\"\",\"entryDate\":\"2017-04-03T15:40:15.037Z\",\"lastUpdatedTime\":\"2017-04-03T15:40:15.037Z\"},{\"id\":1203,\"name\":\"TicketFollowUp\",\"caption\":\"Ticket Follow-Up\",\"parentId\":1201,\"seqNo\":3,\"roleCode\":\"OUTPVDNONHEALTH\",\"roleName\":\"Outbound Provider Non Health\",\"info\":\"TicketFollowUp/Index\",\"canAdd\":true,\"canEdit\":true,\"canView\":true,\"canDelete\":true,\"workflowId\":\"\",\"entryDate\":\"2017-04-03T15:40:15.037Z\",\"lastUpdatedTime\":\"2017-04-03T15:40:15.037Z\"},{\"id\":1206,\"name\":\"GardaSiaga\",\"caption\":\"Garda Siaga\",\"parentId\":1205,\"seqNo\":1,\"roleCode\":\"GAINBOUND\",\"roleName\":\"Inbound\",\"info\":\"GardaSiaga/Index\",\"canAdd\":true,\"canEdit\":true,\"canView\":true,\"canDelete\":true,\"workflowId\":\"\",\"entryDate\":\"2017-04-03T15:40:15.037Z\",\"lastUpdatedTime\":\"2017-04-03T15:40:15.037Z\"},{\"id\":1206,\"name\":\"GardaSiaga\",\"caption\":\"Garda Siaga\",\"parentId\":1205,\"seqNo\":1,\"roleCode\":\"GAINOUT\",\"roleName\":\"InOut\",\"info\":\"GardaSiaga/Index\",\"canAdd\":true,\"canEdit\":true,\"canView\":true,\"canDelete\":true,\"workflowId\":\"\",\"entryDate\":\"2017-04-03T15:40:15.037Z\",\"lastUpdatedTime\":\"2017-04-03T15:40:15.037Z\"},{\"id\":1206,\"name\":\"GardaSiaga\",\"caption\":\"Garda Siaga\",\"parentId\":1205,\"seqNo\":1,\"roleCode\":\"INPVDHEALTH\",\"roleName\":\"Inbound Provider Health\",\"info\":\"GardaSiaga/Index\",\"canAdd\":true,\"canEdit\":true,\"canView\":true,\"canDelete\":true,\"workflowId\":\"\",\"entryDate\":\"2017-04-03T15:40:15.037Z\",\"lastUpdatedTime\":\"2017-04-03T15:40:15.037Z\"},{\"id\":1206,\"name\":\"GardaSiaga\",\"caption\":\"Garda Siaga\",\"parentId\":1205,\"seqNo\":1,\"roleCode\":\"INPVDNONHEALTH\",\"roleName\":\"Inbound Provider Non Health\",\"info\":\"GardaSiaga/Index\",\"canAdd\":true,\"canEdit\":true,\"canView\":true,\"canDelete\":true,\"workflowId\":\"\",\"entryDate\":\"2017-04-03T15:40:15.037Z\",\"lastUpdatedTime\":\"2017-04-03T15:40:15.037Z\"},{\"id\":1206,\"name\":\"GardaSiaga\",\"caption\":\"Garda Siaga\",\"parentId\":1205,\"seqNo\":1,\"roleCode\":\"OUTPVDHEALTH\",\"roleName\":\"Outbound Provider Health\",\"info\":\"GardaSiaga/Index\",\"canAdd\":true,\"canEdit\":true,\"canView\":true,\"canDelete\":true,\"workflowId\":\"\",\"entryDate\":\"2017-04-03T15:40:15.037Z\",\"lastUpdatedTime\":\"2017-04-03T15:40:15.037Z\"},{\"id\":1206,\"name\":\"GardaSiaga\",\"caption\":\"Garda Siaga\",\"parentId\":1205,\"seqNo\":1,\"roleCode\":\"OUTPVDNONHEALTH\",\"roleName\":\"Outbound Provider Non Health\",\"info\":\"GardaSiaga/Index\",\"canAdd\":true,\"canEdit\":true,\"canView\":true,\"canDelete\":true,\"workflowId\":\"\",\"entryDate\":\"2017-04-03T15:40:15.037Z\",\"lastUpdatedTime\":\"2017-04-03T15:40:15.037Z\"},{\"id\":1207,\"name\":\"ClaimMV\",\"caption\":\"Claim MV\",\"parentId\":1205,\"seqNo\":2,\"roleCode\":\"GAINBOUND\",\"roleName\":\"Inbound\",\"info\":\"ClaimMV/Index\",\"canAdd\":true,\"canEdit\":true,\"canView\":true,\"canDelete\":true,\"workflowId\":\"\",\"entryDate\":\"2017-04-03T15:40:15.037Z\",\"lastUpdatedTime\":\"2017-04-03T15:40:15.037Z\"},{\"id\":1207,\"name\":\"ClaimMV\",\"caption\":\"Claim MV\",\"parentId\":1205,\"seqNo\":2,\"roleCode\":\"GAINOUT\",\"roleName\":\"InOut\",\"info\":\"ClaimMV/Index\",\"canAdd\":true,\"canEdit\":true,\"canView\":true,\"canDelete\":true,\"workflowId\":\"\",\"entryDate\":\"2017-04-03T15:40:15.037Z\",\"lastUpdatedTime\":\"2017-04-03T15:40:15.037Z\"},{\"id\":1207,\"name\":\"ClaimMV\",\"caption\":\"Claim MV\",\"parentId\":1205,\"seqNo\":2,\"roleCode\":\"INPVDHEALTH\",\"roleName\":\"Inbound Provider Health\",\"info\":\"ClaimMV/Index\",\"canAdd\":true,\"canEdit\":true,\"canView\":true,\"canDelete\":true,\"workflowId\":\"\",\"entryDate\":\"2017-04-03T15:40:15.037Z\",\"lastUpdatedTime\":\"2017-04-03T15:40:15.037Z\"},{\"id\":1207,\"name\":\"ClaimMV\",\"caption\":\"Claim MV\",\"parentId\":1205,\"seqNo\":2,\"roleCode\":\"INPVDNONHEALTH\",\"roleName\":\"Inbound Provider Non Health\",\"info\":\"ClaimMV/Index\",\"canAdd\":true,\"canEdit\":true,\"canView\":true,\"canDelete\":true,\"workflowId\":\"\",\"entryDate\":\"2017-04-03T15:40:15.037Z\",\"lastUpdatedTime\":\"2017-04-03T15:40:15.037Z\"},{\"id\":1207,\"name\":\"ClaimMV\",\"caption\":\"Claim MV\",\"parentId\":1205,\"seqNo\":2,\"roleCode\":\"OUTPVDHEALTH\",\"roleName\":\"Outbound Provider Health\",\"info\":\"ClaimMV/Index\",\"canAdd\":true,\"canEdit\":true,\"canView\":true,\"canDelete\":true,\"workflowId\":\"\",\"entryDate\":\"2017-04-03T15:40:15.037Z\",\"lastUpdatedTime\":\"2017-04-03T15:40:15.037Z\"},{\"id\":1207,\"name\":\"ClaimMV\",\"caption\":\"Claim MV\",\"parentId\":1205,\"seqNo\":2,\"roleCode\":\"OUTPVDNONHEALTH\",\"roleName\":\"Outbound Provider Non Health\",\"info\":\"ClaimMV/Index\",\"canAdd\":true,\"canEdit\":true,\"canView\":true,\"canDelete\":true,\"workflowId\":\"\",\"entryDate\":\"2017-04-03T15:40:15.037Z\",\"lastUpdatedTime\":\"2017-04-03T15:40:15.037Z\"},{\"id\":1208,\"name\":\"Quotation\",\"caption\":\"Quotation\",\"parentId\":1205,\"seqNo\":3,\"roleCode\":\"GAINBOUND\",\"roleName\":\"Inbound\",\"info\":\"Quotation/Index\",\"canAdd\":true,\"canEdit\":true,\"canView\":true,\"canDelete\":true,\"workflowId\":\"\",\"entryDate\":\"2017-04-03T15:40:15.037Z\",\"lastUpdatedTime\":\"2017-04-03T15:40:15.037Z\"},{\"id\":1208,\"name\":\"Quotation\",\"caption\":\"Quotation\",\"parentId\":1205,\"seqNo\":3,\"roleCode\":\"GAINOUT\",\"roleName\":\"InOut\",\"info\":\"Quotation/Index\",\"canAdd\":true,\"canEdit\":true,\"canView\":true,\"canDelete\":true,\"workflowId\":\"\",\"entryDate\":\"2017-04-03T15:40:15.037Z\",\"lastUpdatedTime\":\"2017-04-03T15:40:15.037Z\"},{\"id\":1208,\"name\":\"Quotation\",\"caption\":\"Quotation\",\"parentId\":1205,\"seqNo\":3,\"roleCode\":\"INPVDHEALTH\",\"roleName\":\"Inbound Provider Health\",\"info\":\"Quotation/Index\",\"canAdd\":true,\"canEdit\":true,\"canView\":true,\"canDelete\":true,\"workflowId\":\"\",\"entryDate\":\"2017-04-03T15:40:15.037Z\",\"lastUpdatedTime\":\"2017-04-03T15:40:15.037Z\"},{\"id\":1208,\"name\":\"Quotation\",\"caption\":\"Quotation\",\"parentId\":1205,\"seqNo\":3,\"roleCode\":\"INPVDNONHEALTH\",\"roleName\":\"Inbound Provider Non Health\",\"info\":\"Quotation/Index\",\"canAdd\":true,\"canEdit\":true,\"canView\":true,\"canDelete\":true,\"workflowId\":\"\",\"entryDate\":\"2017-04-03T15:40:15.037Z\",\"lastUpdatedTime\":\"2017-04-03T15:40:15.037Z\"},{\"id\":1208,\"name\":\"Quotation\",\"caption\":\"Quotation\",\"parentId\":1205,\"seqNo\":3,\"roleCode\":\"OUTPVDHEALTH\",\"roleName\":\"Outbound Provider Health\",\"info\":\"Quotation/Index\",\"canAdd\":true,\"canEdit\":true,\"canView\":true,\"canDelete\":true,\"workflowId\":\"\",\"entryDate\":\"2017-04-03T15:40:15.037Z\",\"lastUpdatedTime\":\"2017-04-03T15:40:15.037Z\"},{\"id\":1208,\"name\":\"Quotation\",\"caption\":\"Quotation\",\"parentId\":1205,\"seqNo\":3,\"roleCode\":\"OUTPVDNONHEALTH\",\"roleName\":\"Outbound Provider Non Health\",\"info\":\"Quotation/Index\",\"canAdd\":true,\"canEdit\":true,\"canView\":true,\"canDelete\":true,\"workflowId\":\"\",\"entryDate\":\"2017-04-03T15:40:15.037Z\",\"lastUpdatedTime\":\"2017-04-03T15:40:15.037Z\"},{\"id\":1209,\"name\":\"Inquiry\",\"caption\":\"Inquiry\",\"parentId\":1205,\"seqNo\":4,\"roleCode\":\"GAINBOUND\",\"roleName\":\"Inbound\",\"info\":\"Inquiry/Index\",\"canAdd\":true,\"canEdit\":true,\"canView\":true,\"canDelete\":true,\"workflowId\":\"\",\"entryDate\":\"2017-04-03T15:40:15.037Z\",\"lastUpdatedTime\":\"2017-04-03T15:40:15.037Z\"},{\"id\":1209,\"name\":\"Inquiry\",\"caption\":\"Inquiry\",\"parentId\":1205,\"seqNo\":4,\"roleCode\":\"GAINOUT\",\"roleName\":\"InOut\",\"info\":\"Inquiry/Index\",\"canAdd\":true,\"canEdit\":true,\"canView\":true,\"canDelete\":true,\"workflowId\":\"\",\"entryDate\":\"2017-04-03T15:40:15.037Z\",\"lastUpdatedTime\":\"2017-04-03T15:40:15.037Z\"},{\"id\":1209,\"name\":\"Inquiry\",\"caption\":\"Inquiry\",\"parentId\":1205,\"seqNo\":4,\"roleCode\":\"INPVDHEALTH\",\"roleName\":\"Inbound Provider Health\",\"info\":\"Inquiry/Index\",\"canAdd\":true,\"canEdit\":true,\"canView\":true,\"canDelete\":true,\"workflowId\":\"\",\"entryDate\":\"2017-04-03T15:40:15.037Z\",\"lastUpdatedTime\":\"2017-04-03T15:40:15.037Z\"},{\"id\":1209,\"name\":\"Inquiry\",\"caption\":\"Inquiry\",\"parentId\":1205,\"seqNo\":4,\"roleCode\":\"INPVDNONHEALTH\",\"roleName\":\"Inbound Provider Non Health\",\"info\":\"Inquiry/Index\",\"canAdd\":true,\"canEdit\":true,\"canView\":true,\"canDelete\":true,\"workflowId\":\"\",\"entryDate\":\"2017-04-03T15:40:15.037Z\",\"lastUpdatedTime\":\"2017-04-03T15:40:15.037Z\"},{\"id\":1209,\"name\":\"Inquiry\",\"caption\":\"Inquiry\",\"parentId\":1205,\"seqNo\":4,\"roleCode\":\"OUTPVDHEALTH\",\"roleName\":\"Outbound Provider Health\",\"info\":\"Inquiry/Index\",\"canAdd\":true,\"canEdit\":true,\"canView\":true,\"canDelete\":true,\"workflowId\":\"\",\"entryDate\":\"2017-04-03T15:40:15.037Z\",\"lastUpdatedTime\":\"2017-04-03T15:40:15.037Z\"},{\"id\":1209,\"name\":\"Inquiry\",\"caption\":\"Inquiry\",\"parentId\":1205,\"seqNo\":4,\"roleCode\":\"OUTPVDNONHEALTH\",\"roleName\":\"Outbound Provider Non Health\",\"info\":\"Inquiry/Index\",\"canAdd\":true,\"canEdit\":true,\"canView\":true,\"canDelete\":true,\"workflowId\":\"\",\"entryDate\":\"2017-04-03T15:40:15.037Z\",\"lastUpdatedTime\":\"2017-04-03T15:40:15.037Z\"},{\"id\":1210,\"name\":\"Complaint\",\"caption\":\"Complaint\",\"parentId\":1205,\"seqNo\":5,\"roleCode\":\"GAINBOUND\",\"roleName\":\"Inbound\",\"info\":\"Complaint/Index\",\"canAdd\":true,\"canEdit\":true,\"canView\":true,\"canDelete\":true,\"workflowId\":\"\",\"entryDate\":\"2017-04-03T15:40:15.037Z\",\"lastUpdatedTime\":\"2017-04-03T15:40:15.037Z\"},{\"id\":1210,\"name\":\"Complaint\",\"caption\":\"Complaint\",\"parentId\":1205,\"seqNo\":5,\"roleCode\":\"GAINOUT\",\"roleName\":\"InOut\",\"info\":\"Complaint/Index\",\"canAdd\":true,\"canEdit\":true,\"canView\":true,\"canDelete\":true,\"workflowId\":\"\",\"entryDate\":\"2017-04-03T15:40:15.037Z\",\"lastUpdatedTime\":\"2017-04-03T15:40:15.037Z\"},{\"id\":1210,\"name\":\"Complaint\",\"caption\":\"Complaint\",\"parentId\":1205,\"seqNo\":5,\"roleCode\":\"INPVDHEALTH\",\"roleName\":\"Inbound Provider Health\",\"info\":\"Complaint/Index\",\"canAdd\":true,\"canEdit\":true,\"canView\":true,\"canDelete\":true,\"workflowId\":\"\",\"entryDate\":\"2017-04-03T15:40:15.037Z\",\"lastUpdatedTime\":\"2017-04-03T15:40:15.037Z\"},{\"id\":1210,\"name\":\"Complaint\",\"caption\":\"Complaint\",\"parentId\":1205,\"seqNo\":5,\"roleCode\":\"INPVDNONHEALTH\",\"roleName\":\"Inbound Provider Non Health\",\"info\":\"Complaint/Index\",\"canAdd\":true,\"canEdit\":true,\"canView\":true,\"canDelete\":true,\"workflowId\":\"\",\"entryDate\":\"2017-04-03T15:40:15.037Z\",\"lastUpdatedTime\":\"2017-04-03T15:40:15.037Z\"},{\"id\":1210,\"name\":\"Complaint\",\"caption\":\"Complaint\",\"parentId\":1205,\"seqNo\":5,\"roleCode\":\"OUTPVDHEALTH\",\"roleName\":\"Outbound Provider Health\",\"info\":\"Complaint/Index\",\"canAdd\":true,\"canEdit\":true,\"canView\":true,\"canDelete\":true,\"workflowId\":\"\",\"entryDate\":\"2017-04-03T15:40:15.037Z\",\"lastUpdatedTime\":\"2017-04-03T15:40:15.037Z\"},{\"id\":1210,\"name\":\"Complaint\",\"caption\":\"Complaint\",\"parentId\":1205,\"seqNo\":5,\"roleCode\":\"OUTPVDNONHEALTH\",\"roleName\":\"Outbound Provider Non Health\",\"info\":\"Complaint/Index\",\"canAdd\":true,\"canEdit\":true,\"canView\":true,\"canDelete\":true,\"workflowId\":\"\",\"entryDate\":\"2017-04-03T15:40:15.037Z\",\"lastUpdatedTime\":\"2017-04-03T15:40:15.037Z\"},{\"id\":1212,\"name\":\"ScheduleSurvey\",\"caption\":\"Schedule Survey\",\"parentId\":1205,\"seqNo\":5,\"roleCode\":\"GAINBOUND\",\"roleName\":\"Inbound\",\"info\":\"ScheduleSurvey/Index\",\"canAdd\":true,\"canEdit\":true,\"canView\":true,\"canDelete\":true,\"workflowId\":\"\",\"entryDate\":\"2017-04-03T15:40:15.037Z\",\"lastUpdatedTime\":\"2017-04-03T15:40:15.037Z\"},{\"id\":1212,\"name\":\"ScheduleSurvey\",\"caption\":\"Schedule Survey\",\"parentId\":1205,\"seqNo\":5,\"roleCode\":\"GAINOUT\",\"roleName\":\"InOut\",\"info\":\"ScheduleSurvey/Index\",\"canAdd\":true,\"canEdit\":true,\"canView\":true,\"canDelete\":true,\"workflowId\":\"\",\"entryDate\":\"2017-04-03T15:40:15.037Z\",\"lastUpdatedTime\":\"2017-04-03T15:40:15.037Z\"},{\"id\":1212,\"name\":\"ScheduleSurvey\",\"caption\":\"Schedule Survey\",\"parentId\":1205,\"seqNo\":5,\"roleCode\":\"INPVDHEALTH\",\"roleName\":\"Inbound Provider Health\",\"info\":\"ScheduleSurvey/Index\",\"canAdd\":true,\"canEdit\":true,\"canView\":true,\"canDelete\":true,\"workflowId\":\"\",\"entryDate\":\"2017-04-03T15:40:15.037Z\",\"lastUpdatedTime\":\"2017-04-03T15:40:15.037Z\"},{\"id\":1212,\"name\":\"ScheduleSurvey\",\"caption\":\"Schedule Survey\",\"parentId\":1205,\"seqNo\":5,\"roleCode\":\"INPVDNONHEALTH\",\"roleName\":\"Inbound Provider Non Health\",\"info\":\"ScheduleSurvey/Index\",\"canAdd\":true,\"canEdit\":true,\"canView\":true,\"canDelete\":true,\"workflowId\":\"\",\"entryDate\":\"2017-04-03T15:40:15.037Z\",\"lastUpdatedTime\":\"2017-04-03T15:40:15.037Z\"},{\"id\":1212,\"name\":\"ScheduleSurvey\",\"caption\":\"Schedule Survey\",\"parentId\":1205,\"seqNo\":5,\"roleCode\":\"OUTPVDHEALTH\",\"roleName\":\"Outbound Provider Health\",\"info\":\"ScheduleSurvey/Index\",\"canAdd\":true,\"canEdit\":true,\"canView\":true,\"canDelete\":true,\"workflowId\":\"\",\"entryDate\":\"2017-04-03T15:40:15.037Z\",\"lastUpdatedTime\":\"2017-04-03T15:40:15.037Z\"},{\"id\":1212,\"name\":\"ScheduleSurvey\",\"caption\":\"Schedule Survey\",\"parentId\":1205,\"seqNo\":5,\"roleCode\":\"OUTPVDNONHEALTH\",\"roleName\":\"Outbound Provider Non Health\",\"info\":\"ScheduleSurvey/Index\",\"canAdd\":true,\"canEdit\":true,\"canView\":true,\"canDelete\":true,\"workflowId\":\"\",\"entryDate\":\"2017-04-03T15:40:15.037Z\",\"lastUpdatedTime\":\"2017-04-03T15:40:15.037Z\"},{\"id\":1211,\"name\":\"PaymentCC\",\"caption\":\"Payment CC\",\"parentId\":1205,\"seqNo\":6,\"roleCode\":\"GAINBOUND\",\"roleName\":\"Inbound\",\"info\":\"PaymentCC/Index\",\"canAdd\":true,\"canEdit\":true,\"canView\":true,\"canDelete\":true,\"workflowId\":\"\",\"entryDate\":\"2017-04-03T15:40:15.037Z\",\"lastUpdatedTime\":\"2017-04-03T15:40:15.037Z\"},{\"id\":1211,\"name\":\"PaymentCC\",\"caption\":\"Payment CC\",\"parentId\":1205,\"seqNo\":6,\"roleCode\":\"GAINOUT\",\"roleName\":\"InOut\",\"info\":\"PaymentCC/Index\",\"canAdd\":true,\"canEdit\":true,\"canView\":true,\"canDelete\":true,\"workflowId\":\"\",\"entryDate\":\"2017-04-03T15:40:15.037Z\",\"lastUpdatedTime\":\"2017-04-03T15:40:15.037Z\"},{\"id\":1211,\"name\":\"PaymentCC\",\"caption\":\"Payment CC\",\"parentId\":1205,\"seqNo\":6,\"roleCode\":\"INPVDHEALTH\",\"roleName\":\"Inbound Provider Health\",\"info\":\"PaymentCC/Index\",\"canAdd\":true,\"canEdit\":true,\"canView\":true,\"canDelete\":true,\"workflowId\":\"\",\"entryDate\":\"2017-04-03T15:40:15.037Z\",\"lastUpdatedTime\":\"2017-04-03T15:40:15.037Z\"},{\"id\":1211,\"name\":\"PaymentCC\",\"caption\":\"Payment CC\",\"parentId\":1205,\"seqNo\":6,\"roleCode\":\"INPVDNONHEALTH\",\"roleName\":\"Inbound Provider Non Health\",\"info\":\"PaymentCC/Index\",\"canAdd\":true,\"canEdit\":true,\"canView\":true,\"canDelete\":true,\"workflowId\":\"\",\"entryDate\":\"2017-04-03T15:40:15.037Z\",\"lastUpdatedTime\":\"2017-04-03T15:40:15.037Z\"},{\"id\":1211,\"name\":\"PaymentCC\",\"caption\":\"Payment CC\",\"parentId\":1205,\"seqNo\":6,\"roleCode\":\"OUTPVDHEALTH\",\"roleName\":\"Outbound Provider Health\",\"info\":\"PaymentCC/Index\",\"canAdd\":true,\"canEdit\":true,\"canView\":true,\"canDelete\":true,\"workflowId\":\"\",\"entryDate\":\"2017-04-03T15:40:15.037Z\",\"lastUpdatedTime\":\"2017-04-03T15:40:15.037Z\"},{\"id\":1211,\"name\":\"PaymentCC\",\"caption\":\"Payment CC\",\"parentId\":1205,\"seqNo\":6,\"roleCode\":\"OUTPVDNONHEALTH\",\"roleName\":\"Outbound Provider Non Health\",\"info\":\"PaymentCC/Index\",\"canAdd\":true,\"canEdit\":true,\"canView\":true,\"canDelete\":true,\"workflowId\":\"\",\"entryDate\":\"2017-04-03T15:40:15.037Z\",\"lastUpdatedTime\":\"2017-04-03T15:40:15.037Z\"},{\"id\":1204,\"name\":\"ChooseCustomer\",\"caption\":\"Choose Customer\",\"parentId\":1217,\"seqNo\":4,\"roleCode\":\"GAINBOUND\",\"roleName\":\"Inbound\",\"info\":\"ChooseCustomer/Index\",\"canAdd\":true,\"canEdit\":true,\"canView\":true,\"canDelete\":true,\"workflowId\":\"\",\"entryDate\":\"2017-04-03T15:40:15.037Z\",\"lastUpdatedTime\":\"2017-04-03T15:40:15.037Z\"},{\"id\":1204,\"name\":\"ChooseCustomer\",\"caption\":\"Choose Customer\",\"parentId\":1217,\"seqNo\":4,\"roleCode\":\"GAINOUT\",\"roleName\":\"InOut\",\"info\":\"ChooseCustomer/Index\",\"canAdd\":true,\"canEdit\":true,\"canView\":true,\"canDelete\":true,\"workflowId\":\"\",\"entryDate\":\"2017-04-03T15:40:15.037Z\",\"lastUpdatedTime\":\"2017-04-03T15:40:15.037Z\"},{\"id\":1204,\"name\":\"ChooseCustomer\",\"caption\":\"Choose Customer\",\"parentId\":1217,\"seqNo\":4,\"roleCode\":\"INPVDHEALTH\",\"roleName\":\"Inbound Provider Health\",\"info\":\"ChooseCustomer/Index\",\"canAdd\":true,\"canEdit\":true,\"canView\":true,\"canDelete\":true,\"workflowId\":\"\",\"entryDate\":\"2017-04-03T15:40:15.037Z\",\"lastUpdatedTime\":\"2017-04-03T15:40:15.037Z\"},{\"id\":1204,\"name\":\"ChooseCustomer\",\"caption\":\"Choose Customer\",\"parentId\":1217,\"seqNo\":4,\"roleCode\":\"INPVDNONHEALTH\",\"roleName\":\"Inbound Provider Non Health\",\"info\":\"ChooseCustomer/Index\",\"canAdd\":true,\"canEdit\":true,\"canView\":true,\"canDelete\":true,\"workflowId\":\"\",\"entryDate\":\"2017-04-03T15:40:15.037Z\",\"lastUpdatedTime\":\"2017-04-03T15:40:15.037Z\"},{\"id\":1204,\"name\":\"ChooseCustomer\",\"caption\":\"Choose Customer\",\"parentId\":1217,\"seqNo\":4,\"roleCode\":\"OUTPVDHEALTH\",\"roleName\":\"Outbound Provider Health\",\"info\":\"ChooseCustomer/Index\",\"canAdd\":true,\"canEdit\":true,\"canView\":true,\"canDelete\":true,\"workflowId\":\"\",\"entryDate\":\"2017-04-03T15:40:15.037Z\",\"lastUpdatedTime\":\"2017-04-03T15:40:15.037Z\"},{\"id\":1204,\"name\":\"ChooseCustomer\",\"caption\":\"Choose Customer\",\"parentId\":1217,\"seqNo\":4,\"roleCode\":\"OUTPVDNONHEALTH\",\"roleName\":\"Outbound Provider Non Health\",\"info\":\"ChooseCustomer/Index\",\"canAdd\":true,\"canEdit\":true,\"canView\":true,\"canDelete\":true,\"workflowId\":\"\",\"entryDate\":\"2017-04-03T15:40:15.037Z\",\"lastUpdatedTime\":\"2017-04-03T15:40:15.037Z\"},{\"id\":1000081,\"name\":\"CREATETREATMENTGL\",\"caption\":\"Create E-GL\",\"parentId\":1000079,\"seqNo\":1,\"roleCode\":\"CCOOUTBOUND\",\"roleName\":\"CCO Outbound\",\"info\":\"CreateTreatmentGL/Index\",\"canAdd\":true,\"canEdit\":true,\"canView\":true,\"canDelete\":true,\"workflowId\":\"\",\"entryDate\":\"2017-04-03T15:40:15.037Z\",\"lastUpdatedTime\":\"2017-04-03T15:40:15.037Z\"},{\"id\":1000081,\"name\":\"CREATETREATMENTGL\",\"caption\":\"Create E-GL\",\"parentId\":1000079,\"seqNo\":1,\"roleCode\":\"GAINBOUND\",\"roleName\":\"Inbound\",\"info\":\"CreateTreatmentGL/Index\",\"canAdd\":true,\"canEdit\":true,\"canView\":true,\"canDelete\":true,\"workflowId\":\"\",\"entryDate\":\"2017-04-03T15:40:15.037Z\",\"lastUpdatedTime\":\"2017-04-03T15:40:15.037Z\"},{\"id\":1000081,\"name\":\"CREATETREATMENTGL\",\"caption\":\"Create E-GL\",\"parentId\":1000079,\"seqNo\":1,\"roleCode\":\"INPVDHEALTH\",\"roleName\":\"Inbound Provider Health\",\"info\":\"CreateTreatmentGL/Index\",\"canAdd\":true,\"canEdit\":true,\"canView\":true,\"canDelete\":true,\"workflowId\":\"\",\"entryDate\":\"2017-04-03T15:40:15.037Z\",\"lastUpdatedTime\":\"2017-04-03T15:40:15.037Z\"},{\"id\":1000081,\"name\":\"CREATETREATMENTGL\",\"caption\":\"Create E-GL\",\"parentId\":1000079,\"seqNo\":1,\"roleCode\":\"INPVDNONHEALTH\",\"roleName\":\"Inbound Provider Non Health\",\"info\":\"CreateTreatmentGL/Index\",\"canAdd\":true,\"canEdit\":true,\"canView\":true,\"canDelete\":true,\"workflowId\":\"\",\"entryDate\":\"2017-04-03T15:40:15.037Z\",\"lastUpdatedTime\":\"2017-04-03T15:40:15.037Z\"},{\"id\":1000081,\"name\":\"CREATETREATMENTGL\",\"caption\":\"Create E-GL\",\"parentId\":1000079,\"seqNo\":1,\"roleCode\":\"OUTPVDHEALTH\",\"roleName\":\"Outbound Provider Health\",\"info\":\"CreateTreatmentGL/Index\",\"canAdd\":true,\"canEdit\":true,\"canView\":true,\"canDelete\":true,\"workflowId\":\"\",\"entryDate\":\"2017-04-03T15:40:15.037Z\",\"lastUpdatedTime\":\"2017-04-03T15:40:15.037Z\"},{\"id\":1000081,\"name\":\"CREATETREATMENTGL\",\"caption\":\"Create E-GL\",\"parentId\":1000079,\"seqNo\":1,\"roleCode\":\"OUTPVDNONHEALTH\",\"roleName\":\"Outbound Provider Non Health\",\"info\":\"CreateTreatmentGL/Index\",\"canAdd\":true,\"canEdit\":true,\"canView\":true,\"canDelete\":true,\"workflowId\":\"\",\"entryDate\":\"2017-04-03T15:40:15.037Z\",\"lastUpdatedTime\":\"2017-04-03T15:40:15.037Z\"},{\"id\":1000157,\"name\":\"GENERATEEGL\",\"caption\":\"Generate E-GL\",\"parentId\":1000079,\"seqNo\":1,\"roleCode\":\"INCUSTHEALTH\",\"roleName\":\"Inbound Customer Health\",\"info\":\"GenerateEGL/Index\",\"canAdd\":true,\"canEdit\":true,\"canView\":true,\"canDelete\":true,\"workflowId\":\"\",\"entryDate\":\"2017-04-03T15:40:15.037Z\",\"lastUpdatedTime\":\"2017-04-03T15:40:15.037Z\"},{\"id\":1000157,\"name\":\"GENERATEEGL\",\"caption\":\"Generate E-GL\",\"parentId\":1000079,\"seqNo\":1,\"roleCode\":\"INPVDHEALTH\",\"roleName\":\"Inbound Provider Health\",\"info\":\"GenerateEGL/Index\",\"canAdd\":true,\"canEdit\":true,\"canView\":true,\"canDelete\":true,\"workflowId\":\"\",\"entryDate\":\"2017-04-03T15:40:15.037Z\",\"lastUpdatedTime\":\"2017-04-03T15:40:15.037Z\"},{\"id\":1000157,\"name\":\"GENERATEEGL\",\"caption\":\"Generate E-GL\",\"parentId\":1000079,\"seqNo\":1,\"roleCode\":\"OUTCUSTHEALTH\",\"roleName\":\"Outbound Customer Health\",\"info\":\"GenerateEGL/Index\",\"canAdd\":true,\"canEdit\":true,\"canView\":true,\"canDelete\":true,\"workflowId\":\"\",\"entryDate\":\"2017-04-03T15:40:15.037Z\",\"lastUpdatedTime\":\"2017-04-03T15:40:15.037Z\"},{\"id\":1000157,\"name\":\"GENERATEEGL\",\"caption\":\"Generate E-GL\",\"parentId\":1000079,\"seqNo\":1,\"roleCode\":\"OUTPVDHEALTH\",\"roleName\":\"Outbound Provider Health\",\"info\":\"GenerateEGL/Index\",\"canAdd\":true,\"canEdit\":true,\"canView\":true,\"canDelete\":true,\"workflowId\":\"\",\"entryDate\":\"2017-04-03T15:40:15.037Z\",\"lastUpdatedTime\":\"2017-04-03T15:40:15.037Z\"},{\"id\":1001008,\"name\":\"INQUIRYTICKET\",\"caption\":\"Inquiry Ticket Health\",\"parentId\":1000079,\"seqNo\":2,\"roleCode\":\"INQUIRYTICKET\",\"roleName\":\"Inquiry Ticket Health\",\"info\":\"HealthInquiryTicket/Index\",\"canAdd\":true,\"canEdit\":true,\"canView\":true,\"canDelete\":true,\"workflowId\":\"\",\"entryDate\":\"2017-04-03T15:40:15.037Z\",\"lastUpdatedTime\":\"2017-04-03T15:40:15.037Z\"}],\"parameters\":{}}",
          "comment" : ""
        },
        "redirectURL" : "",
        "headersSize" : 638,
        "bodySize" : 33108,
        "comment" : ""
      },
      "cache" : { },
      "timings" : {
        "comment" : "",
        "ssl" : -1,
        "connect" : 449,
        "receive" : 0,
        "blocked" : -1,
        "send" : 0,
        "dns" : -1,
        "wait" : 0
      },
      "comment" : "",
      "_katalonRequestInformation" : {
        "name" : "52",
        "testObjectId" : "Object Repository/Login/signin",
        "harId" : "1c2bfee7-42c8-41a3-9e30-d30c740029e6",
        "reportFolder" : null
      },
      "time" : 449
    } ],
    "comment" : ""
  }
}