{
  "log" : {
    "version" : "1.2",
    "pages" : [ ],
    "entries" : [ {
      "startedDateTime" : "2021-01-07T11:57:22.485Z",
      "request" : {
        "method" : "POST",
        "url" : "https://gen5-qc.asuransiastra.com/GardaAkses/API/CCOOutbound/FollowUpTicketClaim",
        "httpVersion" : "",
        "cookies" : [ ],
        "headers" : [ {
          "name" : "Content-Type",
          "value" : "application/x-www-form-urlencoded"
        }, {
          "name" : "Authorization",
          "value" : "Bearer zLeR5pYGNquB/YvS8KeKqu8MDrviCO5p1AE2/KrZWzSqF4hvB7o8sxR+TUMZtKuuhhUjqPesTsiC7HlKrsZYU8rt5pAB2y17wd6L/T2BV4Il38+H1YULkQblhpephqgqhWieRK2Fd/YL2rhl7LBSomGp9IEFEqbZCpxDFq0RmQ+AgEKtiZXoNCoHUqI6N/2D4CngIVJyHa3XArn7iwo9+dTSBU3qz3UBn3A77rPVbxgaGJhrdSPHo3wKgPUJYuzp"
        } ],
        "queryString" : [ ],
        "postData" : {
          "mimeType" : "application/x-www-form-urlencoded",
          "params" : [ {
            "name" : "ServiceType",
            "value" : "PRI",
            "comment" : ""
          }, {
            "name" : "MemberNo",
            "value" : "B/00017507",
            "comment" : ""
          }, {
            "name" : "MemberName",
            "value" : "BUNGA ASRI KENCANA",
            "comment" : ""
          }, {
            "name" : "ClientID",
            "value" : "CJKPP0009",
            "comment" : ""
          }, {
            "name" : "ProviderID",
            "value" : "TJKRP0146",
            "comment" : ""
          }, {
            "name" : "PreviousTrID",
            "value" : "2744046",
            "comment" : ""
          }, {
            "name" : "GLType",
            "value" : "GL Awal",
            "comment" : ""
          }, {
            "name" : "StartFollowUp",
            "value" : "2020-11-17 15:56:47",
            "comment" : ""
          }, {
            "name" : "Guid",
            "value" : "5edfafca1a324db0bdb8a833d63481110595b500e630f3ea2b359de4b3edae92",
            "comment" : ""
          }, {
            "name" : "ConfirmationItem",
            "value" : "[{\"ConfirmationType\":\"AM\",\"PICDesc\":\"Account Manager\",\"PICName\":\"AIB\",\"NameDesc\":\"Arrio Probo Wibowo\",\"ConfirmationDate\":\"17/11/2020 15:57\",\"Confirmation\":\"COV\",\"ConfirmationDesc\":\"Covered\",\"Remarks\":\"\",\"FollowUpTime\":\"0\",\"Channel\":\"CALL\",\"PreviousLimit\":null,\"CurrentLimit\":null,\"BenefitCoverage\":\"BC003\",\"Reason\":\"\",\"ConfirmationCategory\":\"Diagnosis\",\"DateTimeConfirmation\":null,\"DocumentGLNeeded\":null,\"fileCLByte\":null,\"fileNames\":null,\"isPrevious\":0,\"FollowUpTicketDocuments\":[],\"FollowUpTicketDocumentsNeeded\":[],\"Payer\":\"\",\"ClientHR\":\"\",\"IsFromTicketBefore\":0}]",
            "comment" : ""
          }, {
            "name" : "diagnosisConfirmationItem",
            "value" : "[{\"DiagnosisID\":\"B20\",\"Diagnosis\":\"HIV DISEASE RESULTING IN INFECTIOUS AND PARASITIC DISEASE\",\"DiagnosisPayer\":\"Employee\",\"DiagnosisCategory\":\"HIV, AIDS, ARDS\",\"DiagnosisCoverage\":\"Covered\"}]",
            "comment" : ""
          }, {
            "name" : "FamilyPlanningItemConfirmation",
            "value" : "[]",
            "comment" : ""
          }, {
            "name" : "email",
            "value" : "ehu@beyond.asuransi.astra.co.id",
            "comment" : ""
          }, {
            "name" : "hp",
            "value" : "081808623854",
            "comment" : ""
          }, {
            "name" : "providerconfirmationitem",
            "value" : "[]",
            "comment" : ""
          }, {
            "name" : "IsFUWaved",
            "value" : "0",
            "comment" : ""
          }, {
            "name" : "WavedReasonCode",
            "value" : "",
            "comment" : ""
          }, {
            "name" : "ProductType",
            "value" : "IP",
            "comment" : ""
          }, {
            "name" : "NonMedicalItem",
            "value" : "[]",
            "comment" : ""
          }, {
            "name" : "claimdetails",
            "value" : "[]",
            "comment" : ""
          }, {
            "name" : "ReferenceClaimLimitRecovery",
            "value" : "",
            "comment" : ""
          } ],
          "comment" : ""
        },
        "headersSize" : 0,
        "bodySize" : 0,
        "comment" : ""
      },
      "response" : {
        "status" : 200,
        "statusText" : "",
        "httpVersion" : "",
        "cookies" : [ ],
        "headers" : [ {
          "name" : "X-Frame-Options",
          "value" : "SAMEORIGIN"
        }, {
          "name" : "Strict-Transport-Security",
          "value" : "max-age=16070400"
        }, {
          "name" : "Cache-Control",
          "value" : "no-cache"
        }, {
          "name" : "X-Content-Type-Options",
          "value" : "nosniff"
        }, {
          "name" : "Set-Cookie",
          "value" : "EGRUM_BTM=18a23f84-857d-4393-87be-277277e4f557#~#1||0; path=/"
        }, {
          "name" : "Set-Cookie",
          "value" : "TS0125c461=015294299a1e1f3f15d87ffefe2570f7b2fd3e164931af667fe04214aa3ae67f6be0ffea9ce094a5daa69842255de31f855e1c5a17c3cbd0afe4c5b63f67fea81d7e45d998; Path=/; Domain=.gen5-qc.asuransiastra.com"
        }, {
          "name" : "Pragma",
          "value" : "no-cache"
        }, {
          "name" : "Expires",
          "value" : "-1"
        }, {
          "name" : "#status#",
          "value" : "HTTP/1.1 200 OK"
        }, {
          "name" : "Content-Length",
          "value" : "1062"
        }, {
          "name" : "X-XSS-Protection",
          "value" : "1; mode=block"
        }, {
          "name" : "Date",
          "value" : "Thu, 07 Jan 2021 11:56:34 GMT"
        }, {
          "name" : "Content-Type",
          "value" : "application/json; charset=utf-8"
        } ],
        "content" : {
          "size" : 1062,
          "mimeType" : "application/json; charset=utf-8",
          "text" : "{\"status\":true,\"message\":\"OK\",\"data\":{\"TrIDCallOut\":2773130,\"CalloutDetailID\":[34830],\"MessagePopUp\":\"<br><b>Validasi Diagnosa</b><br>PIC : AM <br>\\r\\nPIC Name : Arrio Probo Wibowo <br>\\r\\nDate Time Confirmation : 2020-11-17 15:57:00 <br>\\r\\nChannel : Call <br>\\r\\nConfirmation : Covered <br>\\r\\nBenefit Coverage : MA <br>\\r\\nRemarks : - <br>\\r\\n\\r\\n\",\"IsProcess\":1,\"FollowUpStatus\":\"Not Need Follow Up\",\"IsNeedRejectionLetter\":0,\"BenefitCoverage\":\"BC003\",\"IsDiagnosisNeedNextValidation\":0,\"IsAnnualLimitNeedNextValidation\":1,\"IsNewMemberNeedNextValidation\":1,\"IsExcessNeedNextValidation\":1,\"IsDocumentNeedNextValidation\":1,\"IsEligibilityNeedNextValidation\":1,\"IsMedicalTreatmentNeedNextValidation\":1,\"IsFamilyPlanningNeedNextValidation\":1,\"IsProductNeedNextValidation\":1,\"Remarks\":\"Hasil Follow Up Outbound Diagnosa\\r\\n==============================\\r\\nPIC : AM\\r\\nPIC Name : Arrio Probo Wibowo\\r\\nDate Time Confirmation : 2020-11-17 15:57:00\\r\\nChannel : Call\\r\\nConfirmation : Covered\\r\\nBenefit Coverage : MA\\r\\nRemarks : -\\r\\n\\r\\n\",\"IsExcessCalculation\":0}}",
          "comment" : ""
        },
        "redirectURL" : "",
        "headersSize" : 535,
        "bodySize" : 1062,
        "comment" : ""
      },
      "cache" : { },
      "timings" : {
        "comment" : "",
        "ssl" : -1,
        "connect" : 2520,
        "receive" : 0,
        "blocked" : -1,
        "send" : 0,
        "dns" : -1,
        "wait" : 0
      },
      "comment" : "",
      "_katalonRequestInformation" : {
        "name" : "7",
        "testObjectId" : "Object Repository/Follow Up/FollowUpTicketClaim",
        "harId" : "9804527d-a92c-421c-b7a1-85e8e74ffbcf",
        "reportFolder" : null
      },
      "time" : 2520
    } ],
    "comment" : ""
  }
}