{
  "log" : {
    "version" : "1.2",
    "pages" : [ ],
    "entries" : [ {
      "startedDateTime" : "2021-01-07T12:16:29.092Z",
      "request" : {
        "method" : "POST",
        "url" : "https://gen5-qc.asuransiastra.com/GardaAkses/API/root/signin",
        "httpVersion" : "",
        "cookies" : [ ],
        "headers" : [ {
          "name" : "Content-Type",
          "value" : "application/x-www-form-urlencoded"
        } ],
        "queryString" : [ ],
        "postData" : {
          "mimeType" : "application/x-www-form-urlencoded",
          "params" : [ {
            "name" : "username",
            "value" : "DFY",
            "comment" : ""
          }, {
            "name" : "password",
            "value" : "ITG@nt1P455QC",
            "comment" : ""
          }, {
            "name" : "biztype",
            "value" : "12",
            "comment" : ""
          } ],
          "comment" : ""
        },
        "headersSize" : 0,
        "bodySize" : 0,
        "comment" : ""
      },
      "response" : {
        "status" : 200,
        "statusText" : "",
        "httpVersion" : "",
        "cookies" : [ ],
        "headers" : [ {
          "name" : "X-Frame-Options",
          "value" : "SAMEORIGIN"
        }, {
          "name" : "Strict-Transport-Security",
          "value" : "max-age=16070400"
        }, {
          "name" : "Cache-Control",
          "value" : "private"
        }, {
          "name" : "X-Content-Type-Options",
          "value" : "nosniff"
        }, {
          "name" : "Set-Cookie",
          "value" : "EGRUM_BTM=2fcb536f-2712-475e-986e-c8f7ece28132#~#1||0; path=/"
        }, {
          "name" : "Set-Cookie",
          "value" : "EGRUM_BTM=aa004f41-dc35-4d13-bff3-f20cca2b4100#~#1||0; path=/"
        }, {
          "name" : "Set-Cookie",
          "value" : "TS0125c461=015294299a120a1d23f03260b11facb465af4908a31809121f089b0c84e1051dcb5a504c11b4ec4dc62a5154f513c308255e810328e7605ce47817f2655b73e370f3f45368f8fe901e4269773a29405cb96dea59d9; Path=/; Domain=.gen5-qc.asuransiastra.com"
        }, {
          "name" : "Pragma",
          "value" : "no-cache"
        }, {
          "name" : "Expires",
          "value" : "-1"
        }, {
          "name" : "#status#",
          "value" : "HTTP/1.1 200 OK"
        }, {
          "name" : "Content-Length",
          "value" : "28947"
        }, {
          "name" : "X-XSS-Protection",
          "value" : "1; mode=block"
        }, {
          "name" : "Date",
          "value" : "Thu, 07 Jan 2021 12:15:52 GMT"
        }, {
          "name" : "Content-Type",
          "value" : "application/json; charset=utf-8"
        } ],
        "content" : {
          "size" : 28947,
          "mimeType" : "application/json; charset=utf-8",
          "text" : "{\"status\":true,\"errorCode\":0,\"token\":\"QetSKL9CzvBYMIzEUgORoGVR4Cx/ONRwb0RfXmEmXmsGPVjcxJ2rotYACvnl1Te1Ch8btgd0sP2hzim4cB181pOdyirZSpKW8cUDE/VYfSIezQrMjMvUPvdkY6QeGmD/pbW+cneuw+4fRh1/WJiFd687LDVxrJ5IFYlt1FZcJUnRtAYZLoGRbX047HETX1GL0gRmaJl+HePLx8mIVq3FZ5qPnyqEsafjofIc9j+LCmX2ek64/371JIp9bU9YTJeP\",\"validHours\":24,\"entryDate\":\"2017-05-16T18:21:19.08Z\",\"lastUpdatedTime\":\"2017-05-16T18:21:19.08Z\",\"userInfo\":{\"id\":\"DFY\",\"fullName\":\"Dwi Sefiyani\",\"email\":null,\"passwordExpiry\":\"9999-12-31\",\"lastChangedPassword\":\"2020-08-19 18:11:11\"},\"menu\":[{\"id\":1000079,\"name\":\"GDHealth\",\"caption\":\"Health\",\"parentId\":0,\"seqNo\":0,\"roleCode\":\"CCOOUTBOUND\",\"roleName\":\"CCO Outbound\",\"info\":\"\",\"canAdd\":true,\"canEdit\":true,\"canView\":true,\"canDelete\":true,\"workflowId\":\"\",\"entryDate\":\"2017-05-16T18:21:19.08Z\",\"lastUpdatedTime\":\"2017-05-16T18:21:19.08Z\"},{\"id\":1000079,\"name\":\"GDHealth\",\"caption\":\"Health\",\"parentId\":0,\"seqNo\":0,\"roleCode\":\"INPVDHEALTH\",\"roleName\":\"Inbound Provider Health\",\"info\":\"\",\"canAdd\":true,\"canEdit\":true,\"canView\":true,\"canDelete\":true,\"workflowId\":\"\",\"entryDate\":\"2017-05-16T18:21:19.08Z\",\"lastUpdatedTime\":\"2017-05-16T18:21:19.08Z\"},{\"id\":1000079,\"name\":\"GDHealth\",\"caption\":\"Health\",\"parentId\":0,\"seqNo\":0,\"roleCode\":\"INPVDNONHEALTH\",\"roleName\":\"Inbound Provider Non Health\",\"info\":\"\",\"canAdd\":true,\"canEdit\":true,\"canView\":true,\"canDelete\":true,\"workflowId\":\"\",\"entryDate\":\"2017-05-16T18:21:19.08Z\",\"lastUpdatedTime\":\"2017-05-16T18:21:19.08Z\"},{\"id\":1000079,\"name\":\"GDHealth\",\"caption\":\"Health\",\"parentId\":0,\"seqNo\":0,\"roleCode\":\"INQUIRYTICKET\",\"roleName\":\"Inquiry Ticket Health\",\"info\":\"\",\"canAdd\":true,\"canEdit\":true,\"canView\":true,\"canDelete\":true,\"workflowId\":\"\",\"entryDate\":\"2017-05-16T18:21:19.08Z\",\"lastUpdatedTime\":\"2017-05-16T18:21:19.08Z\"},{\"id\":1000079,\"name\":\"GDHealth\",\"caption\":\"Health\",\"parentId\":0,\"seqNo\":0,\"roleCode\":\"OUTPVDHEALTH\",\"roleName\":\"Outbound Provider Health\",\"info\":\"\",\"canAdd\":true,\"canEdit\":true,\"canView\":true,\"canDelete\":true,\"workflowId\":\"\",\"entryDate\":\"2017-05-16T18:21:19.08Z\",\"lastUpdatedTime\":\"2017-05-16T18:21:19.08Z\"},{\"id\":1000079,\"name\":\"GDHealth\",\"caption\":\"Health\",\"parentId\":0,\"seqNo\":0,\"roleCode\":\"OUTPVDNONHEALTH\",\"roleName\":\"Outbound Provider Non Health\",\"info\":\"\",\"canAdd\":true,\"canEdit\":true,\"canView\":true,\"canDelete\":true,\"workflowId\":\"\",\"entryDate\":\"2017-05-16T18:21:19.08Z\",\"lastUpdatedTime\":\"2017-05-16T18:21:19.08Z\"},{\"id\":1201,\"name\":\"GENERAL\",\"caption\":\"General\",\"parentId\":0,\"seqNo\":1,\"roleCode\":\"CCOOUTBOUND\",\"roleName\":\"CCO Outbound\",\"info\":\"\",\"canAdd\":true,\"canEdit\":true,\"canView\":true,\"canDelete\":true,\"workflowId\":\"\",\"entryDate\":\"2017-05-16T18:21:19.08Z\",\"lastUpdatedTime\":\"2017-05-16T18:21:19.08Z\"},{\"id\":1201,\"name\":\"GENERAL\",\"caption\":\"General\",\"parentId\":0,\"seqNo\":1,\"roleCode\":\"GAINBOUND\",\"roleName\":\"Inbound\",\"info\":\"\",\"canAdd\":true,\"canEdit\":true,\"canView\":true,\"canDelete\":true,\"workflowId\":\"\",\"entryDate\":\"2017-05-16T18:21:19.08Z\",\"lastUpdatedTime\":\"2017-05-16T18:21:19.08Z\"},{\"id\":1201,\"name\":\"GENERAL\",\"caption\":\"General\",\"parentId\":0,\"seqNo\":1,\"roleCode\":\"INPVDHEALTH\",\"roleName\":\"Inbound Provider Health\",\"info\":\"\",\"canAdd\":true,\"canEdit\":true,\"canView\":true,\"canDelete\":true,\"workflowId\":\"\",\"entryDate\":\"2017-05-16T18:21:19.08Z\",\"lastUpdatedTime\":\"2017-05-16T18:21:19.08Z\"},{\"id\":1201,\"name\":\"GENERAL\",\"caption\":\"General\",\"parentId\":0,\"seqNo\":1,\"roleCode\":\"INPVDNONHEALTH\",\"roleName\":\"Inbound Provider Non Health\",\"info\":\"\",\"canAdd\":true,\"canEdit\":true,\"canView\":true,\"canDelete\":true,\"workflowId\":\"\",\"entryDate\":\"2017-05-16T18:21:19.08Z\",\"lastUpdatedTime\":\"2017-05-16T18:21:19.08Z\"},{\"id\":1201,\"name\":\"GENERAL\",\"caption\":\"General\",\"parentId\":0,\"seqNo\":1,\"roleCode\":\"OUTPVDHEALTH\",\"roleName\":\"Outbound Provider Health\",\"info\":\"\",\"canAdd\":true,\"canEdit\":true,\"canView\":true,\"canDelete\":true,\"workflowId\":\"\",\"entryDate\":\"2017-05-16T18:21:19.08Z\",\"lastUpdatedTime\":\"2017-05-16T18:21:19.08Z\"},{\"id\":1201,\"name\":\"GENERAL\",\"caption\":\"General\",\"parentId\":0,\"seqNo\":1,\"roleCode\":\"OUTPVDNONHEALTH\",\"roleName\":\"Outbound Provider Non Health\",\"info\":\"\",\"canAdd\":true,\"canEdit\":true,\"canView\":true,\"canDelete\":true,\"workflowId\":\"\",\"entryDate\":\"2017-05-16T18:21:19.08Z\",\"lastUpdatedTime\":\"2017-05-16T18:21:19.08Z\"},{\"id\":1217,\"name\":\"ChooseCustomerParent\",\"caption\":\"Choose Customer\",\"parentId\":0,\"seqNo\":2,\"roleCode\":\"GAINBOUND\",\"roleName\":\"Inbound\",\"info\":\"\",\"canAdd\":true,\"canEdit\":true,\"canView\":true,\"canDelete\":true,\"workflowId\":\"\",\"entryDate\":\"2017-05-16T18:21:19.08Z\",\"lastUpdatedTime\":\"2017-05-16T18:21:19.08Z\"},{\"id\":1217,\"name\":\"ChooseCustomerParent\",\"caption\":\"Choose Customer\",\"parentId\":0,\"seqNo\":2,\"roleCode\":\"INPVDHEALTH\",\"roleName\":\"Inbound Provider Health\",\"info\":\"\",\"canAdd\":true,\"canEdit\":true,\"canView\":true,\"canDelete\":true,\"workflowId\":\"\",\"entryDate\":\"2017-05-16T18:21:19.08Z\",\"lastUpdatedTime\":\"2017-05-16T18:21:19.08Z\"},{\"id\":1217,\"name\":\"ChooseCustomerParent\",\"caption\":\"Choose Customer\",\"parentId\":0,\"seqNo\":2,\"roleCode\":\"INPVDNONHEALTH\",\"roleName\":\"Inbound Provider Non Health\",\"info\":\"\",\"canAdd\":true,\"canEdit\":true,\"canView\":true,\"canDelete\":true,\"workflowId\":\"\",\"entryDate\":\"2017-05-16T18:21:19.08Z\",\"lastUpdatedTime\":\"2017-05-16T18:21:19.08Z\"},{\"id\":1217,\"name\":\"ChooseCustomerParent\",\"caption\":\"Choose Customer\",\"parentId\":0,\"seqNo\":2,\"roleCode\":\"OUTPVDHEALTH\",\"roleName\":\"Outbound Provider Health\",\"info\":\"\",\"canAdd\":true,\"canEdit\":true,\"canView\":true,\"canDelete\":true,\"workflowId\":\"\",\"entryDate\":\"2017-05-16T18:21:19.08Z\",\"lastUpdatedTime\":\"2017-05-16T18:21:19.08Z\"},{\"id\":1217,\"name\":\"ChooseCustomerParent\",\"caption\":\"Choose Customer\",\"parentId\":0,\"seqNo\":2,\"roleCode\":\"OUTPVDNONHEALTH\",\"roleName\":\"Outbound Provider Non Health\",\"info\":\"\",\"canAdd\":true,\"canEdit\":true,\"canView\":true,\"canDelete\":true,\"workflowId\":\"\",\"entryDate\":\"2017-05-16T18:21:19.08Z\",\"lastUpdatedTime\":\"2017-05-16T18:21:19.08Z\"},{\"id\":1205,\"name\":\"INBOUND\",\"caption\":\"Service Type\",\"parentId\":0,\"seqNo\":3,\"roleCode\":\"GAINBOUND\",\"roleName\":\"Inbound\",\"info\":\"\",\"canAdd\":true,\"canEdit\":true,\"canView\":true,\"canDelete\":true,\"workflowId\":\"\",\"entryDate\":\"2017-05-16T18:21:19.08Z\",\"lastUpdatedTime\":\"2017-05-16T18:21:19.08Z\"},{\"id\":1205,\"name\":\"INBOUND\",\"caption\":\"Service Type\",\"parentId\":0,\"seqNo\":3,\"roleCode\":\"INPVDHEALTH\",\"roleName\":\"Inbound Provider Health\",\"info\":\"\",\"canAdd\":true,\"canEdit\":true,\"canView\":true,\"canDelete\":true,\"workflowId\":\"\",\"entryDate\":\"2017-05-16T18:21:19.08Z\",\"lastUpdatedTime\":\"2017-05-16T18:21:19.08Z\"},{\"id\":1205,\"name\":\"INBOUND\",\"caption\":\"Service Type\",\"parentId\":0,\"seqNo\":3,\"roleCode\":\"INPVDNONHEALTH\",\"roleName\":\"Inbound Provider Non Health\",\"info\":\"\",\"canAdd\":true,\"canEdit\":true,\"canView\":true,\"canDelete\":true,\"workflowId\":\"\",\"entryDate\":\"2017-05-16T18:21:19.08Z\",\"lastUpdatedTime\":\"2017-05-16T18:21:19.08Z\"},{\"id\":1205,\"name\":\"INBOUND\",\"caption\":\"Service Type\",\"parentId\":0,\"seqNo\":3,\"roleCode\":\"OUTPVDHEALTH\",\"roleName\":\"Outbound Provider Health\",\"info\":\"\",\"canAdd\":true,\"canEdit\":true,\"canView\":true,\"canDelete\":true,\"workflowId\":\"\",\"entryDate\":\"2017-05-16T18:21:19.08Z\",\"lastUpdatedTime\":\"2017-05-16T18:21:19.08Z\"},{\"id\":1205,\"name\":\"INBOUND\",\"caption\":\"Service Type\",\"parentId\":0,\"seqNo\":3,\"roleCode\":\"OUTPVDNONHEALTH\",\"roleName\":\"Outbound Provider Non Health\",\"info\":\"\",\"canAdd\":true,\"canEdit\":true,\"canView\":true,\"canDelete\":true,\"workflowId\":\"\",\"entryDate\":\"2017-05-16T18:21:19.08Z\",\"lastUpdatedTime\":\"2017-05-16T18:21:19.08Z\"},{\"id\":1000091,\"name\":\"COMPLAINT\",\"caption\":\"Complaint\",\"parentId\":0,\"seqNo\":3,\"roleCode\":\"INPVDHEALTH\",\"roleName\":\"Inbound Provider Health\",\"info\":\"\",\"canAdd\":true,\"canEdit\":true,\"canView\":true,\"canDelete\":true,\"workflowId\":\"\",\"entryDate\":\"2017-05-16T18:21:19.08Z\",\"lastUpdatedTime\":\"2017-05-16T18:21:19.08Z\"},{\"id\":1000091,\"name\":\"COMPLAINT\",\"caption\":\"Complaint\",\"parentId\":0,\"seqNo\":3,\"roleCode\":\"INPVDNONHEALTH\",\"roleName\":\"Inbound Provider Non Health\",\"info\":\"\",\"canAdd\":true,\"canEdit\":true,\"canView\":true,\"canDelete\":true,\"workflowId\":\"\",\"entryDate\":\"2017-05-16T18:21:19.08Z\",\"lastUpdatedTime\":\"2017-05-16T18:21:19.08Z\"},{\"id\":1000091,\"name\":\"COMPLAINT\",\"caption\":\"Complaint\",\"parentId\":0,\"seqNo\":3,\"roleCode\":\"OUTPVDHEALTH\",\"roleName\":\"Outbound Provider Health\",\"info\":\"\",\"canAdd\":true,\"canEdit\":true,\"canView\":true,\"canDelete\":true,\"workflowId\":\"\",\"entryDate\":\"2017-05-16T18:21:19.08Z\",\"lastUpdatedTime\":\"2017-05-16T18:21:19.08Z\"},{\"id\":1000091,\"name\":\"COMPLAINT\",\"caption\":\"Complaint\",\"parentId\":0,\"seqNo\":3,\"roleCode\":\"OUTPVDNONHEALTH\",\"roleName\":\"Outbound Provider Non Health\",\"info\":\"\",\"canAdd\":true,\"canEdit\":true,\"canView\":true,\"canDelete\":true,\"workflowId\":\"\",\"entryDate\":\"2017-05-16T18:21:19.08Z\",\"lastUpdatedTime\":\"2017-05-16T18:21:19.08Z\"},{\"id\":1222,\"name\":\"FollowUp\",\"caption\":\"Follow Up\",\"parentId\":1201,\"seqNo\":2,\"roleCode\":\"CCOOUTBOUND\",\"roleName\":\"CCO Outbound\",\"info\":\"CCOOutbound/Index\",\"canAdd\":true,\"canEdit\":true,\"canView\":true,\"canDelete\":true,\"workflowId\":\"\",\"entryDate\":\"2017-05-16T18:21:19.08Z\",\"lastUpdatedTime\":\"2017-05-16T18:21:19.08Z\"},{\"id\":1000098,\"name\":\"CreateTicket\",\"caption\":\"Create Ticket\",\"parentId\":1201,\"seqNo\":2,\"roleCode\":\"CCOOUTBOUND\",\"roleName\":\"CCO Outbound\",\"info\":\"CreateTicket/Index\",\"canAdd\":true,\"canEdit\":true,\"canView\":true,\"canDelete\":true,\"workflowId\":\"\",\"entryDate\":\"2017-05-16T18:21:19.08Z\",\"lastUpdatedTime\":\"2017-05-16T18:21:19.08Z\"},{\"id\":1000098,\"name\":\"CreateTicket\",\"caption\":\"Create Ticket\",\"parentId\":1201,\"seqNo\":2,\"roleCode\":\"INPVDHEALTH\",\"roleName\":\"Inbound Provider Health\",\"info\":\"CreateTicket/Index\",\"canAdd\":true,\"canEdit\":true,\"canView\":true,\"canDelete\":true,\"workflowId\":\"\",\"entryDate\":\"2017-05-16T18:21:19.08Z\",\"lastUpdatedTime\":\"2017-05-16T18:21:19.08Z\"},{\"id\":1000098,\"name\":\"CreateTicket\",\"caption\":\"Create Ticket\",\"parentId\":1201,\"seqNo\":2,\"roleCode\":\"INPVDNONHEALTH\",\"roleName\":\"Inbound Provider Non Health\",\"info\":\"CreateTicket/Index\",\"canAdd\":true,\"canEdit\":true,\"canView\":true,\"canDelete\":true,\"workflowId\":\"\",\"entryDate\":\"2017-05-16T18:21:19.08Z\",\"lastUpdatedTime\":\"2017-05-16T18:21:19.08Z\"},{\"id\":1000098,\"name\":\"CreateTicket\",\"caption\":\"Create Ticket\",\"parentId\":1201,\"seqNo\":2,\"roleCode\":\"OUTPVDHEALTH\",\"roleName\":\"Outbound Provider Health\",\"info\":\"CreateTicket/Index\",\"canAdd\":true,\"canEdit\":true,\"canView\":true,\"canDelete\":true,\"workflowId\":\"\",\"entryDate\":\"2017-05-16T18:21:19.08Z\",\"lastUpdatedTime\":\"2017-05-16T18:21:19.08Z\"},{\"id\":1000098,\"name\":\"CreateTicket\",\"caption\":\"Create Ticket\",\"parentId\":1201,\"seqNo\":2,\"roleCode\":\"OUTPVDNONHEALTH\",\"roleName\":\"Outbound Provider Non Health\",\"info\":\"CreateTicket/Index\",\"canAdd\":true,\"canEdit\":true,\"canView\":true,\"canDelete\":true,\"workflowId\":\"\",\"entryDate\":\"2017-05-16T18:21:19.08Z\",\"lastUpdatedTime\":\"2017-05-16T18:21:19.08Z\"},{\"id\":1203,\"name\":\"TicketFollowUp\",\"caption\":\"Ticket Follow-Up\",\"parentId\":1201,\"seqNo\":3,\"roleCode\":\"GAINBOUND\",\"roleName\":\"Inbound\",\"info\":\"TicketFollowUp/Index\",\"canAdd\":true,\"canEdit\":true,\"canView\":true,\"canDelete\":true,\"workflowId\":\"\",\"entryDate\":\"2017-05-16T18:21:19.08Z\",\"lastUpdatedTime\":\"2017-05-16T18:21:19.08Z\"},{\"id\":1203,\"name\":\"TicketFollowUp\",\"caption\":\"Ticket Follow-Up\",\"parentId\":1201,\"seqNo\":3,\"roleCode\":\"INPVDHEALTH\",\"roleName\":\"Inbound Provider Health\",\"info\":\"TicketFollowUp/Index\",\"canAdd\":true,\"canEdit\":true,\"canView\":true,\"canDelete\":true,\"workflowId\":\"\",\"entryDate\":\"2017-05-16T18:21:19.08Z\",\"lastUpdatedTime\":\"2017-05-16T18:21:19.08Z\"},{\"id\":1203,\"name\":\"TicketFollowUp\",\"caption\":\"Ticket Follow-Up\",\"parentId\":1201,\"seqNo\":3,\"roleCode\":\"INPVDNONHEALTH\",\"roleName\":\"Inbound Provider Non Health\",\"info\":\"TicketFollowUp/Index\",\"canAdd\":true,\"canEdit\":true,\"canView\":true,\"canDelete\":true,\"workflowId\":\"\",\"entryDate\":\"2017-05-16T18:21:19.08Z\",\"lastUpdatedTime\":\"2017-05-16T18:21:19.08Z\"},{\"id\":1203,\"name\":\"TicketFollowUp\",\"caption\":\"Ticket Follow-Up\",\"parentId\":1201,\"seqNo\":3,\"roleCode\":\"OUTPVDHEALTH\",\"roleName\":\"Outbound Provider Health\",\"info\":\"TicketFollowUp/Index\",\"canAdd\":true,\"canEdit\":true,\"canView\":true,\"canDelete\":true,\"workflowId\":\"\",\"entryDate\":\"2017-05-16T18:21:19.08Z\",\"lastUpdatedTime\":\"2017-05-16T18:21:19.08Z\"},{\"id\":1203,\"name\":\"TicketFollowUp\",\"caption\":\"Ticket Follow-Up\",\"parentId\":1201,\"seqNo\":3,\"roleCode\":\"OUTPVDNONHEALTH\",\"roleName\":\"Outbound Provider Non Health\",\"info\":\"TicketFollowUp/Index\",\"canAdd\":true,\"canEdit\":true,\"canView\":true,\"canDelete\":true,\"workflowId\":\"\",\"entryDate\":\"2017-05-16T18:21:19.08Z\",\"lastUpdatedTime\":\"2017-05-16T18:21:19.08Z\"},{\"id\":1206,\"name\":\"GardaSiaga\",\"caption\":\"Garda Siaga\",\"parentId\":1205,\"seqNo\":1,\"roleCode\":\"GAINBOUND\",\"roleName\":\"Inbound\",\"info\":\"GardaSiaga/Index\",\"canAdd\":true,\"canEdit\":true,\"canView\":true,\"canDelete\":true,\"workflowId\":\"\",\"entryDate\":\"2017-05-16T18:21:19.08Z\",\"lastUpdatedTime\":\"2017-05-16T18:21:19.08Z\"},{\"id\":1206,\"name\":\"GardaSiaga\",\"caption\":\"Garda Siaga\",\"parentId\":1205,\"seqNo\":1,\"roleCode\":\"INPVDHEALTH\",\"roleName\":\"Inbound Provider Health\",\"info\":\"GardaSiaga/Index\",\"canAdd\":true,\"canEdit\":true,\"canView\":true,\"canDelete\":true,\"workflowId\":\"\",\"entryDate\":\"2017-05-16T18:21:19.08Z\",\"lastUpdatedTime\":\"2017-05-16T18:21:19.08Z\"},{\"id\":1206,\"name\":\"GardaSiaga\",\"caption\":\"Garda Siaga\",\"parentId\":1205,\"seqNo\":1,\"roleCode\":\"INPVDNONHEALTH\",\"roleName\":\"Inbound Provider Non Health\",\"info\":\"GardaSiaga/Index\",\"canAdd\":true,\"canEdit\":true,\"canView\":true,\"canDelete\":true,\"workflowId\":\"\",\"entryDate\":\"2017-05-16T18:21:19.08Z\",\"lastUpdatedTime\":\"2017-05-16T18:21:19.08Z\"},{\"id\":1206,\"name\":\"GardaSiaga\",\"caption\":\"Garda Siaga\",\"parentId\":1205,\"seqNo\":1,\"roleCode\":\"OUTPVDHEALTH\",\"roleName\":\"Outbound Provider Health\",\"info\":\"GardaSiaga/Index\",\"canAdd\":true,\"canEdit\":true,\"canView\":true,\"canDelete\":true,\"workflowId\":\"\",\"entryDate\":\"2017-05-16T18:21:19.08Z\",\"lastUpdatedTime\":\"2017-05-16T18:21:19.08Z\"},{\"id\":1206,\"name\":\"GardaSiaga\",\"caption\":\"Garda Siaga\",\"parentId\":1205,\"seqNo\":1,\"roleCode\":\"OUTPVDNONHEALTH\",\"roleName\":\"Outbound Provider Non Health\",\"info\":\"GardaSiaga/Index\",\"canAdd\":true,\"canEdit\":true,\"canView\":true,\"canDelete\":true,\"workflowId\":\"\",\"entryDate\":\"2017-05-16T18:21:19.08Z\",\"lastUpdatedTime\":\"2017-05-16T18:21:19.08Z\"},{\"id\":1207,\"name\":\"ClaimMV\",\"caption\":\"Claim MV\",\"parentId\":1205,\"seqNo\":2,\"roleCode\":\"GAINBOUND\",\"roleName\":\"Inbound\",\"info\":\"ClaimMV/Index\",\"canAdd\":true,\"canEdit\":true,\"canView\":true,\"canDelete\":true,\"workflowId\":\"\",\"entryDate\":\"2017-05-16T18:21:19.08Z\",\"lastUpdatedTime\":\"2017-05-16T18:21:19.08Z\"},{\"id\":1207,\"name\":\"ClaimMV\",\"caption\":\"Claim MV\",\"parentId\":1205,\"seqNo\":2,\"roleCode\":\"INPVDHEALTH\",\"roleName\":\"Inbound Provider Health\",\"info\":\"ClaimMV/Index\",\"canAdd\":true,\"canEdit\":true,\"canView\":true,\"canDelete\":true,\"workflowId\":\"\",\"entryDate\":\"2017-05-16T18:21:19.08Z\",\"lastUpdatedTime\":\"2017-05-16T18:21:19.08Z\"},{\"id\":1207,\"name\":\"ClaimMV\",\"caption\":\"Claim MV\",\"parentId\":1205,\"seqNo\":2,\"roleCode\":\"INPVDNONHEALTH\",\"roleName\":\"Inbound Provider Non Health\",\"info\":\"ClaimMV/Index\",\"canAdd\":true,\"canEdit\":true,\"canView\":true,\"canDelete\":true,\"workflowId\":\"\",\"entryDate\":\"2017-05-16T18:21:19.08Z\",\"lastUpdatedTime\":\"2017-05-16T18:21:19.08Z\"},{\"id\":1207,\"name\":\"ClaimMV\",\"caption\":\"Claim MV\",\"parentId\":1205,\"seqNo\":2,\"roleCode\":\"OUTPVDHEALTH\",\"roleName\":\"Outbound Provider Health\",\"info\":\"ClaimMV/Index\",\"canAdd\":true,\"canEdit\":true,\"canView\":true,\"canDelete\":true,\"workflowId\":\"\",\"entryDate\":\"2017-05-16T18:21:19.08Z\",\"lastUpdatedTime\":\"2017-05-16T18:21:19.08Z\"},{\"id\":1207,\"name\":\"ClaimMV\",\"caption\":\"Claim MV\",\"parentId\":1205,\"seqNo\":2,\"roleCode\":\"OUTPVDNONHEALTH\",\"roleName\":\"Outbound Provider Non Health\",\"info\":\"ClaimMV/Index\",\"canAdd\":true,\"canEdit\":true,\"canView\":true,\"canDelete\":true,\"workflowId\":\"\",\"entryDate\":\"2017-05-16T18:21:19.08Z\",\"lastUpdatedTime\":\"2017-05-16T18:21:19.08Z\"},{\"id\":1208,\"name\":\"Quotation\",\"caption\":\"Quotation\",\"parentId\":1205,\"seqNo\":3,\"roleCode\":\"GAINBOUND\",\"roleName\":\"Inbound\",\"info\":\"Quotation/Index\",\"canAdd\":true,\"canEdit\":true,\"canView\":true,\"canDelete\":true,\"workflowId\":\"\",\"entryDate\":\"2017-05-16T18:21:19.08Z\",\"lastUpdatedTime\":\"2017-05-16T18:21:19.08Z\"},{\"id\":1208,\"name\":\"Quotation\",\"caption\":\"Quotation\",\"parentId\":1205,\"seqNo\":3,\"roleCode\":\"INPVDHEALTH\",\"roleName\":\"Inbound Provider Health\",\"info\":\"Quotation/Index\",\"canAdd\":true,\"canEdit\":true,\"canView\":true,\"canDelete\":true,\"workflowId\":\"\",\"entryDate\":\"2017-05-16T18:21:19.08Z\",\"lastUpdatedTime\":\"2017-05-16T18:21:19.08Z\"},{\"id\":1208,\"name\":\"Quotation\",\"caption\":\"Quotation\",\"parentId\":1205,\"seqNo\":3,\"roleCode\":\"INPVDNONHEALTH\",\"roleName\":\"Inbound Provider Non Health\",\"info\":\"Quotation/Index\",\"canAdd\":true,\"canEdit\":true,\"canView\":true,\"canDelete\":true,\"workflowId\":\"\",\"entryDate\":\"2017-05-16T18:21:19.08Z\",\"lastUpdatedTime\":\"2017-05-16T18:21:19.08Z\"},{\"id\":1208,\"name\":\"Quotation\",\"caption\":\"Quotation\",\"parentId\":1205,\"seqNo\":3,\"roleCode\":\"OUTPVDHEALTH\",\"roleName\":\"Outbound Provider Health\",\"info\":\"Quotation/Index\",\"canAdd\":true,\"canEdit\":true,\"canView\":true,\"canDelete\":true,\"workflowId\":\"\",\"entryDate\":\"2017-05-16T18:21:19.08Z\",\"lastUpdatedTime\":\"2017-05-16T18:21:19.08Z\"},{\"id\":1208,\"name\":\"Quotation\",\"caption\":\"Quotation\",\"parentId\":1205,\"seqNo\":3,\"roleCode\":\"OUTPVDNONHEALTH\",\"roleName\":\"Outbound Provider Non Health\",\"info\":\"Quotation/Index\",\"canAdd\":true,\"canEdit\":true,\"canView\":true,\"canDelete\":true,\"workflowId\":\"\",\"entryDate\":\"2017-05-16T18:21:19.08Z\",\"lastUpdatedTime\":\"2017-05-16T18:21:19.08Z\"},{\"id\":1209,\"name\":\"Inquiry\",\"caption\":\"Inquiry\",\"parentId\":1205,\"seqNo\":4,\"roleCode\":\"GAINBOUND\",\"roleName\":\"Inbound\",\"info\":\"Inquiry/Index\",\"canAdd\":true,\"canEdit\":true,\"canView\":true,\"canDelete\":true,\"workflowId\":\"\",\"entryDate\":\"2017-05-16T18:21:19.08Z\",\"lastUpdatedTime\":\"2017-05-16T18:21:19.08Z\"},{\"id\":1209,\"name\":\"Inquiry\",\"caption\":\"Inquiry\",\"parentId\":1205,\"seqNo\":4,\"roleCode\":\"INPVDHEALTH\",\"roleName\":\"Inbound Provider Health\",\"info\":\"Inquiry/Index\",\"canAdd\":true,\"canEdit\":true,\"canView\":true,\"canDelete\":true,\"workflowId\":\"\",\"entryDate\":\"2017-05-16T18:21:19.08Z\",\"lastUpdatedTime\":\"2017-05-16T18:21:19.08Z\"},{\"id\":1209,\"name\":\"Inquiry\",\"caption\":\"Inquiry\",\"parentId\":1205,\"seqNo\":4,\"roleCode\":\"INPVDNONHEALTH\",\"roleName\":\"Inbound Provider Non Health\",\"info\":\"Inquiry/Index\",\"canAdd\":true,\"canEdit\":true,\"canView\":true,\"canDelete\":true,\"workflowId\":\"\",\"entryDate\":\"2017-05-16T18:21:19.08Z\",\"lastUpdatedTime\":\"2017-05-16T18:21:19.08Z\"},{\"id\":1209,\"name\":\"Inquiry\",\"caption\":\"Inquiry\",\"parentId\":1205,\"seqNo\":4,\"roleCode\":\"OUTPVDHEALTH\",\"roleName\":\"Outbound Provider Health\",\"info\":\"Inquiry/Index\",\"canAdd\":true,\"canEdit\":true,\"canView\":true,\"canDelete\":true,\"workflowId\":\"\",\"entryDate\":\"2017-05-16T18:21:19.08Z\",\"lastUpdatedTime\":\"2017-05-16T18:21:19.08Z\"},{\"id\":1209,\"name\":\"Inquiry\",\"caption\":\"Inquiry\",\"parentId\":1205,\"seqNo\":4,\"roleCode\":\"OUTPVDNONHEALTH\",\"roleName\":\"Outbound Provider Non Health\",\"info\":\"Inquiry/Index\",\"canAdd\":true,\"canEdit\":true,\"canView\":true,\"canDelete\":true,\"workflowId\":\"\",\"entryDate\":\"2017-05-16T18:21:19.08Z\",\"lastUpdatedTime\":\"2017-05-16T18:21:19.08Z\"},{\"id\":1210,\"name\":\"Complaint\",\"caption\":\"Complaint\",\"parentId\":1205,\"seqNo\":5,\"roleCode\":\"GAINBOUND\",\"roleName\":\"Inbound\",\"info\":\"Complaint/Index\",\"canAdd\":true,\"canEdit\":true,\"canView\":true,\"canDelete\":true,\"workflowId\":\"\",\"entryDate\":\"2017-05-16T18:21:19.08Z\",\"lastUpdatedTime\":\"2017-05-16T18:21:19.08Z\"},{\"id\":1210,\"name\":\"Complaint\",\"caption\":\"Complaint\",\"parentId\":1205,\"seqNo\":5,\"roleCode\":\"INPVDHEALTH\",\"roleName\":\"Inbound Provider Health\",\"info\":\"Complaint/Index\",\"canAdd\":true,\"canEdit\":true,\"canView\":true,\"canDelete\":true,\"workflowId\":\"\",\"entryDate\":\"2017-05-16T18:21:19.08Z\",\"lastUpdatedTime\":\"2017-05-16T18:21:19.08Z\"},{\"id\":1210,\"name\":\"Complaint\",\"caption\":\"Complaint\",\"parentId\":1205,\"seqNo\":5,\"roleCode\":\"INPVDNONHEALTH\",\"roleName\":\"Inbound Provider Non Health\",\"info\":\"Complaint/Index\",\"canAdd\":true,\"canEdit\":true,\"canView\":true,\"canDelete\":true,\"workflowId\":\"\",\"entryDate\":\"2017-05-16T18:21:19.08Z\",\"lastUpdatedTime\":\"2017-05-16T18:21:19.08Z\"},{\"id\":1210,\"name\":\"Complaint\",\"caption\":\"Complaint\",\"parentId\":1205,\"seqNo\":5,\"roleCode\":\"OUTPVDHEALTH\",\"roleName\":\"Outbound Provider Health\",\"info\":\"Complaint/Index\",\"canAdd\":true,\"canEdit\":true,\"canView\":true,\"canDelete\":true,\"workflowId\":\"\",\"entryDate\":\"2017-05-16T18:21:19.08Z\",\"lastUpdatedTime\":\"2017-05-16T18:21:19.08Z\"},{\"id\":1210,\"name\":\"Complaint\",\"caption\":\"Complaint\",\"parentId\":1205,\"seqNo\":5,\"roleCode\":\"OUTPVDNONHEALTH\",\"roleName\":\"Outbound Provider Non Health\",\"info\":\"Complaint/Index\",\"canAdd\":true,\"canEdit\":true,\"canView\":true,\"canDelete\":true,\"workflowId\":\"\",\"entryDate\":\"2017-05-16T18:21:19.08Z\",\"lastUpdatedTime\":\"2017-05-16T18:21:19.08Z\"},{\"id\":1212,\"name\":\"ScheduleSurvey\",\"caption\":\"Schedule Survey\",\"parentId\":1205,\"seqNo\":5,\"roleCode\":\"GAINBOUND\",\"roleName\":\"Inbound\",\"info\":\"ScheduleSurvey/Index\",\"canAdd\":true,\"canEdit\":true,\"canView\":true,\"canDelete\":true,\"workflowId\":\"\",\"entryDate\":\"2017-05-16T18:21:19.08Z\",\"lastUpdatedTime\":\"2017-05-16T18:21:19.08Z\"},{\"id\":1212,\"name\":\"ScheduleSurvey\",\"caption\":\"Schedule Survey\",\"parentId\":1205,\"seqNo\":5,\"roleCode\":\"INPVDHEALTH\",\"roleName\":\"Inbound Provider Health\",\"info\":\"ScheduleSurvey/Index\",\"canAdd\":true,\"canEdit\":true,\"canView\":true,\"canDelete\":true,\"workflowId\":\"\",\"entryDate\":\"2017-05-16T18:21:19.08Z\",\"lastUpdatedTime\":\"2017-05-16T18:21:19.08Z\"},{\"id\":1212,\"name\":\"ScheduleSurvey\",\"caption\":\"Schedule Survey\",\"parentId\":1205,\"seqNo\":5,\"roleCode\":\"INPVDNONHEALTH\",\"roleName\":\"Inbound Provider Non Health\",\"info\":\"ScheduleSurvey/Index\",\"canAdd\":true,\"canEdit\":true,\"canView\":true,\"canDelete\":true,\"workflowId\":\"\",\"entryDate\":\"2017-05-16T18:21:19.08Z\",\"lastUpdatedTime\":\"2017-05-16T18:21:19.08Z\"},{\"id\":1212,\"name\":\"ScheduleSurvey\",\"caption\":\"Schedule Survey\",\"parentId\":1205,\"seqNo\":5,\"roleCode\":\"OUTPVDHEALTH\",\"roleName\":\"Outbound Provider Health\",\"info\":\"ScheduleSurvey/Index\",\"canAdd\":true,\"canEdit\":true,\"canView\":true,\"canDelete\":true,\"workflowId\":\"\",\"entryDate\":\"2017-05-16T18:21:19.08Z\",\"lastUpdatedTime\":\"2017-05-16T18:21:19.08Z\"},{\"id\":1212,\"name\":\"ScheduleSurvey\",\"caption\":\"Schedule Survey\",\"parentId\":1205,\"seqNo\":5,\"roleCode\":\"OUTPVDNONHEALTH\",\"roleName\":\"Outbound Provider Non Health\",\"info\":\"ScheduleSurvey/Index\",\"canAdd\":true,\"canEdit\":true,\"canView\":true,\"canDelete\":true,\"workflowId\":\"\",\"entryDate\":\"2017-05-16T18:21:19.08Z\",\"lastUpdatedTime\":\"2017-05-16T18:21:19.08Z\"},{\"id\":1211,\"name\":\"PaymentCC\",\"caption\":\"Payment CC\",\"parentId\":1205,\"seqNo\":6,\"roleCode\":\"GAINBOUND\",\"roleName\":\"Inbound\",\"info\":\"PaymentCC/Index\",\"canAdd\":true,\"canEdit\":true,\"canView\":true,\"canDelete\":true,\"workflowId\":\"\",\"entryDate\":\"2017-05-16T18:21:19.08Z\",\"lastUpdatedTime\":\"2017-05-16T18:21:19.08Z\"},{\"id\":1211,\"name\":\"PaymentCC\",\"caption\":\"Payment CC\",\"parentId\":1205,\"seqNo\":6,\"roleCode\":\"INPVDHEALTH\",\"roleName\":\"Inbound Provider Health\",\"info\":\"PaymentCC/Index\",\"canAdd\":true,\"canEdit\":true,\"canView\":true,\"canDelete\":true,\"workflowId\":\"\",\"entryDate\":\"2017-05-16T18:21:19.08Z\",\"lastUpdatedTime\":\"2017-05-16T18:21:19.08Z\"},{\"id\":1211,\"name\":\"PaymentCC\",\"caption\":\"Payment CC\",\"parentId\":1205,\"seqNo\":6,\"roleCode\":\"INPVDNONHEALTH\",\"roleName\":\"Inbound Provider Non Health\",\"info\":\"PaymentCC/Index\",\"canAdd\":true,\"canEdit\":true,\"canView\":true,\"canDelete\":true,\"workflowId\":\"\",\"entryDate\":\"2017-05-16T18:21:19.08Z\",\"lastUpdatedTime\":\"2017-05-16T18:21:19.08Z\"},{\"id\":1211,\"name\":\"PaymentCC\",\"caption\":\"Payment CC\",\"parentId\":1205,\"seqNo\":6,\"roleCode\":\"OUTPVDHEALTH\",\"roleName\":\"Outbound Provider Health\",\"info\":\"PaymentCC/Index\",\"canAdd\":true,\"canEdit\":true,\"canView\":true,\"canDelete\":true,\"workflowId\":\"\",\"entryDate\":\"2017-05-16T18:21:19.08Z\",\"lastUpdatedTime\":\"2017-05-16T18:21:19.08Z\"},{\"id\":1211,\"name\":\"PaymentCC\",\"caption\":\"Payment CC\",\"parentId\":1205,\"seqNo\":6,\"roleCode\":\"OUTPVDNONHEALTH\",\"roleName\":\"Outbound Provider Non Health\",\"info\":\"PaymentCC/Index\",\"canAdd\":true,\"canEdit\":true,\"canView\":true,\"canDelete\":true,\"workflowId\":\"\",\"entryDate\":\"2017-05-16T18:21:19.08Z\",\"lastUpdatedTime\":\"2017-05-16T18:21:19.08Z\"},{\"id\":1204,\"name\":\"ChooseCustomer\",\"caption\":\"Choose Customer\",\"parentId\":1217,\"seqNo\":4,\"roleCode\":\"GAINBOUND\",\"roleName\":\"Inbound\",\"info\":\"ChooseCustomer/Index\",\"canAdd\":true,\"canEdit\":true,\"canView\":true,\"canDelete\":true,\"workflowId\":\"\",\"entryDate\":\"2017-05-16T18:21:19.08Z\",\"lastUpdatedTime\":\"2017-05-16T18:21:19.08Z\"},{\"id\":1204,\"name\":\"ChooseCustomer\",\"caption\":\"Choose Customer\",\"parentId\":1217,\"seqNo\":4,\"roleCode\":\"INPVDHEALTH\",\"roleName\":\"Inbound Provider Health\",\"info\":\"ChooseCustomer/Index\",\"canAdd\":true,\"canEdit\":true,\"canView\":true,\"canDelete\":true,\"workflowId\":\"\",\"entryDate\":\"2017-05-16T18:21:19.08Z\",\"lastUpdatedTime\":\"2017-05-16T18:21:19.08Z\"},{\"id\":1204,\"name\":\"ChooseCustomer\",\"caption\":\"Choose Customer\",\"parentId\":1217,\"seqNo\":4,\"roleCode\":\"INPVDNONHEALTH\",\"roleName\":\"Inbound Provider Non Health\",\"info\":\"ChooseCustomer/Index\",\"canAdd\":true,\"canEdit\":true,\"canView\":true,\"canDelete\":true,\"workflowId\":\"\",\"entryDate\":\"2017-05-16T18:21:19.08Z\",\"lastUpdatedTime\":\"2017-05-16T18:21:19.08Z\"},{\"id\":1204,\"name\":\"ChooseCustomer\",\"caption\":\"Choose Customer\",\"parentId\":1217,\"seqNo\":4,\"roleCode\":\"OUTPVDHEALTH\",\"roleName\":\"Outbound Provider Health\",\"info\":\"ChooseCustomer/Index\",\"canAdd\":true,\"canEdit\":true,\"canView\":true,\"canDelete\":true,\"workflowId\":\"\",\"entryDate\":\"2017-05-16T18:21:19.08Z\",\"lastUpdatedTime\":\"2017-05-16T18:21:19.08Z\"},{\"id\":1204,\"name\":\"ChooseCustomer\",\"caption\":\"Choose Customer\",\"parentId\":1217,\"seqNo\":4,\"roleCode\":\"OUTPVDNONHEALTH\",\"roleName\":\"Outbound Provider Non Health\",\"info\":\"ChooseCustomer/Index\",\"canAdd\":true,\"canEdit\":true,\"canView\":true,\"canDelete\":true,\"workflowId\":\"\",\"entryDate\":\"2017-05-16T18:21:19.08Z\",\"lastUpdatedTime\":\"2017-05-16T18:21:19.08Z\"},{\"id\":1000081,\"name\":\"CREATETREATMENTGL\",\"caption\":\"Create E-GL\",\"parentId\":1000079,\"seqNo\":1,\"roleCode\":\"CCOOUTBOUND\",\"roleName\":\"CCO Outbound\",\"info\":\"CreateTreatmentGL/Index\",\"canAdd\":true,\"canEdit\":true,\"canView\":true,\"canDelete\":true,\"workflowId\":\"\",\"entryDate\":\"2017-05-16T18:21:19.08Z\",\"lastUpdatedTime\":\"2017-05-16T18:21:19.08Z\"},{\"id\":1000081,\"name\":\"CREATETREATMENTGL\",\"caption\":\"Create E-GL\",\"parentId\":1000079,\"seqNo\":1,\"roleCode\":\"INPVDHEALTH\",\"roleName\":\"Inbound Provider Health\",\"info\":\"CreateTreatmentGL/Index\",\"canAdd\":true,\"canEdit\":true,\"canView\":true,\"canDelete\":true,\"workflowId\":\"\",\"entryDate\":\"2017-05-16T18:21:19.08Z\",\"lastUpdatedTime\":\"2017-05-16T18:21:19.08Z\"},{\"id\":1000081,\"name\":\"CREATETREATMENTGL\",\"caption\":\"Create E-GL\",\"parentId\":1000079,\"seqNo\":1,\"roleCode\":\"INPVDNONHEALTH\",\"roleName\":\"Inbound Provider Non Health\",\"info\":\"CreateTreatmentGL/Index\",\"canAdd\":true,\"canEdit\":true,\"canView\":true,\"canDelete\":true,\"workflowId\":\"\",\"entryDate\":\"2017-05-16T18:21:19.08Z\",\"lastUpdatedTime\":\"2017-05-16T18:21:19.08Z\"},{\"id\":1000081,\"name\":\"CREATETREATMENTGL\",\"caption\":\"Create E-GL\",\"parentId\":1000079,\"seqNo\":1,\"roleCode\":\"OUTPVDHEALTH\",\"roleName\":\"Outbound Provider Health\",\"info\":\"CreateTreatmentGL/Index\",\"canAdd\":true,\"canEdit\":true,\"canView\":true,\"canDelete\":true,\"workflowId\":\"\",\"entryDate\":\"2017-05-16T18:21:19.08Z\",\"lastUpdatedTime\":\"2017-05-16T18:21:19.08Z\"},{\"id\":1000081,\"name\":\"CREATETREATMENTGL\",\"caption\":\"Create E-GL\",\"parentId\":1000079,\"seqNo\":1,\"roleCode\":\"OUTPVDNONHEALTH\",\"roleName\":\"Outbound Provider Non Health\",\"info\":\"CreateTreatmentGL/Index\",\"canAdd\":true,\"canEdit\":true,\"canView\":true,\"canDelete\":true,\"workflowId\":\"\",\"entryDate\":\"2017-05-16T18:21:19.08Z\",\"lastUpdatedTime\":\"2017-05-16T18:21:19.08Z\"},{\"id\":1000157,\"name\":\"GENERATEEGL\",\"caption\":\"Generate E-GL\",\"parentId\":1000079,\"seqNo\":1,\"roleCode\":\"INCUSTHEALTH\",\"roleName\":\"Inbound Customer Health\",\"info\":\"GenerateEGL/Index\",\"canAdd\":true,\"canEdit\":true,\"canView\":true,\"canDelete\":true,\"workflowId\":\"\",\"entryDate\":\"2017-05-16T18:21:19.08Z\",\"lastUpdatedTime\":\"2017-05-16T18:21:19.08Z\"},{\"id\":1000157,\"name\":\"GENERATEEGL\",\"caption\":\"Generate E-GL\",\"parentId\":1000079,\"seqNo\":1,\"roleCode\":\"INPVDHEALTH\",\"roleName\":\"Inbound Provider Health\",\"info\":\"GenerateEGL/Index\",\"canAdd\":true,\"canEdit\":true,\"canView\":true,\"canDelete\":true,\"workflowId\":\"\",\"entryDate\":\"2017-05-16T18:21:19.08Z\",\"lastUpdatedTime\":\"2017-05-16T18:21:19.08Z\"},{\"id\":1000157,\"name\":\"GENERATEEGL\",\"caption\":\"Generate E-GL\",\"parentId\":1000079,\"seqNo\":1,\"roleCode\":\"OUTCUSTHEALTH\",\"roleName\":\"Outbound Customer Health\",\"info\":\"GenerateEGL/Index\",\"canAdd\":true,\"canEdit\":true,\"canView\":true,\"canDelete\":true,\"workflowId\":\"\",\"entryDate\":\"2017-05-16T18:21:19.08Z\",\"lastUpdatedTime\":\"2017-05-16T18:21:19.08Z\"},{\"id\":1000157,\"name\":\"GENERATEEGL\",\"caption\":\"Generate E-GL\",\"parentId\":1000079,\"seqNo\":1,\"roleCode\":\"OUTPVDHEALTH\",\"roleName\":\"Outbound Provider Health\",\"info\":\"GenerateEGL/Index\",\"canAdd\":true,\"canEdit\":true,\"canView\":true,\"canDelete\":true,\"workflowId\":\"\",\"entryDate\":\"2017-05-16T18:21:19.08Z\",\"lastUpdatedTime\":\"2017-05-16T18:21:19.08Z\"},{\"id\":1001008,\"name\":\"INQUIRYTICKET\",\"caption\":\"Inquiry Ticket Health\",\"parentId\":1000079,\"seqNo\":2,\"roleCode\":\"INQUIRYTICKET\",\"roleName\":\"Inquiry Ticket Health\",\"info\":\"HealthInquiryTicket/Index\",\"canAdd\":true,\"canEdit\":true,\"canView\":true,\"canDelete\":true,\"workflowId\":\"\",\"entryDate\":\"2017-05-16T18:21:19.08Z\",\"lastUpdatedTime\":\"2017-05-16T18:21:19.08Z\"}],\"parameters\":{}}",
          "comment" : ""
        },
        "redirectURL" : "",
        "headersSize" : 638,
        "bodySize" : 28947,
        "comment" : ""
      },
      "cache" : { },
      "timings" : {
        "comment" : "",
        "ssl" : -1,
        "connect" : 13821,
        "dns" : -1,
        "receive" : 0,
        "wait" : 0,
        "send" : 0,
        "blocked" : -1
      },
      "comment" : "",
      "_katalonRequestInformation" : {
        "name" : "0",
        "testObjectId" : "Object Repository/Login/signin",
        "harId" : "f5be46ba-d6a7-44aa-8c50-84dd23c65833",
        "reportFolder" : null
      },
      "time" : 13821
    } ],
    "comment" : ""
  }
}