{
  "log" : {
    "version" : "1.2",
    "pages" : [ ],
    "entries" : [ {
      "startedDateTime" : "2021-03-16T02:28:27.051Z",
      "request" : {
        "method" : "POST",
        "url" : "https://gen5-qc.asuransiastra.com/health/API/MembershipTaskList/GA_ClaimFinalValidation",
        "httpVersion" : "",
        "cookies" : [ ],
        "headers" : [ {
          "name" : "Content-Type",
          "value" : "application/x-www-form-urlencoded"
        }, {
          "name" : "Authorization",
          "value" : "Bearer H4sh0qFXzvvsNHrVXBHnKPKdqb9DPRuKkx/YHG/9MSzCZGMDUOiRjoy3P4idRjfQvJp6jBcvjTtjEkYR7RMujOB9lNLNHF7XwCsFR4ykYJC0XAgoAhcx7X/+t08Y0A0G+w1xILvTwiC4RiDfACEOA64nPyEjz8d6zR52tuGmLPQMHiguF9fsEW+xbd4901O9imF0vdUHS3WlspPCSXNlqVJOMJt5JjiBqZXYpQMrO+0OSMNVRuLqw/wnYRRUeuZL"
        }, {
          "name" : "Connection",
          "value" : "keep-alive"
        } ],
        "queryString" : [ ],
        "postData" : {
          "mimeType" : "application/x-www-form-urlencoded",
          "params" : [ {
            "name" : "MemberNo",
            "value" : "P/00016483",
            "comment" : ""
          }, {
            "name" : "PreviousTrID",
            "value" : "2824930",
            "comment" : ""
          }, {
            "name" : "TreatmentDate",
            "value" : "2021-03-13",
            "comment" : ""
          }, {
            "name" : "ProductType",
            "value" : "MA",
            "comment" : ""
          }, {
            "name" : "DiagnosisCode",
            "value" : "O80",
            "comment" : ""
          }, {
            "name" : "DiagnosisAdditionalInfo",
            "value" : "[]",
            "comment" : ""
          }, {
            "name" : "ProviderID",
            "value" : "TJKRH00013",
            "comment" : ""
          }, {
            "name" : "PatientPhone",
            "value" : "0987654321",
            "comment" : ""
          }, {
            "name" : "CallerName",
            "value" : "Dele - Dokter",
            "comment" : ""
          }, {
            "name" : "TreatmentRoom",
            "value" : "KELAS II",
            "comment" : ""
          }, {
            "name" : "DoctorName",
            "value" : "Dele",
            "comment" : ""
          }, {
            "name" : "RoomOption",
            "value" : "On Plan",
            "comment" : ""
          }, {
            "name" : "RoomAvailability",
            "value" : "NONE",
            "comment" : ""
          }, {
            "name" : "UpgradeClass",
            "value" : "NONE",
            "comment" : ""
          }, {
            "name" : "TreatmentRoomAmount",
            "value" : "487000",
            "comment" : ""
          }, {
            "name" : "BenefitAmount",
            "value" : "0",
            "comment" : ""
          }, {
            "name" : "ProviderEmail",
            "value" : "ehu@beyond.asuransi.astra.co.id",
            "comment" : ""
          }, {
            "name" : "ProviderFax",
            "value" : "0218560601",
            "comment" : ""
          }, {
            "name" : "ProviderPhone",
            "value" : "081806221986",
            "comment" : ""
          }, {
            "name" : "ProviderExt",
            "value" : "121",
            "comment" : ""
          }, {
            "name" : "IsTiri",
            "value" : "0",
            "comment" : ""
          }, {
            "name" : "DefaultProviderID",
            "value" : "",
            "comment" : ""
          }, {
            "name" : "Remarks",
            "value" : "",
            "comment" : ""
          }, {
            "name" : "PreviousGLNo",
            "value" : "",
            "comment" : ""
          }, {
            "name" : "Guid",
            "value" : "21c5cca072b740f2a42b379ebc89d6562fda2e3596959ffd09641c28f4b30434",
            "comment" : ""
          }, {
            "name" : "TicketNo",
            "value" : "",
            "comment" : ""
          }, {
            "name" : "GLType",
            "value" : "GL Akhir",
            "comment" : ""
          }, {
            "name" : "AccountManager",
            "value" : "",
            "comment" : ""
          }, {
            "name" : "TotalBilled",
            "value" : "123456",
            "comment" : ""
          }, {
            "name" : "ClientID",
            "value" : "CJKPA18",
            "comment" : ""
          }, {
            "name" : "ClassNo",
            "value" : "2",
            "comment" : ""
          }, {
            "name" : "MembershipType",
            "value" : "2. SPO",
            "comment" : ""
          }, {
            "name" : "AllDiagnosis",
            "value" : "[[1,\"O80\",\"SINGLE SPONTANEOUS DELIVERY/NORMAL DELIVERY\",\"Initial Primary\",\"\",\"\",\"\",\"1\",\"1\",\"1\",\"1\",\"\",\"Covered\",\"\",\"\",\"\",\"\",\"Covered\",0,\"0\",\"0\"],[2,\"W06\",\"Fall involving bed\",\"Initial Secondary\",\"\",\"\",\"\",\"\",\"\",\"\",\"\",\"\",\"Uncovered\",\"\",\"\",\"\",\"\",\"\",0,\"1\",\"0\"],[3,\"W03\",\"Other fall on same level due to collision with, or pushing by,another person\",\"Initial Secondary\",\"\",\"\",\"\",\"\",\"\",\"\",\"\",\"\",\"Uncovered\",\"\",\"\",\"\",\"\",\"\",0,\"1\",\"0\"]]",
            "comment" : ""
          }, {
            "name" : "AllDiagnosisAdditionalInfo",
            "value" : "[[],[]]",
            "comment" : ""
          }, {
            "name" : "AllDoctors",
            "value" : "Dele",
            "comment" : ""
          }, {
            "name" : "Gender",
            "value" : "F",
            "comment" : ""
          }, {
            "name" : "DOB",
            "value" : "1990-09-10",
            "comment" : ""
          }, {
            "name" : "IsClient",
            "value" : "0",
            "comment" : ""
          }, {
            "name" : "TreatmentEnd",
            "value" : "2021-03-15",
            "comment" : ""
          }, {
            "name" : "IsReferral",
            "value" : "0",
            "comment" : ""
          }, {
            "name" : "ReferralReasonCode",
            "value" : "",
            "comment" : ""
          }, {
            "name" : "AppropriateRBClass",
            "value" : "KELAS II",
            "comment" : ""
          }, {
            "name" : "AppropriateRBRate",
            "value" : "487000",
            "comment" : ""
          }, {
            "name" : "AppropriateRBClassChoosen",
            "value" : "KELAS II",
            "comment" : ""
          }, {
            "name" : "AppropriateRBRateChoosen",
            "value" : "487000",
            "comment" : ""
          }, {
            "name" : "TreatmentRoomChoosen",
            "value" : "KELAS II",
            "comment" : ""
          }, {
            "name" : "TreatmentRoomAmountChoosen",
            "value" : "487000",
            "comment" : ""
          }, {
            "name" : "IsSpecialCondition",
            "value" : "0",
            "comment" : ""
          }, {
            "name" : "ClientClassNo",
            "value" : "1",
            "comment" : ""
          }, {
            "name" : "SecondaryDiagnosisCode",
            "value" : "[[1,\"O80\",\"SINGLE SPONTANEOUS DELIVERY/NORMAL DELIVERY\",\"Initial Primary\",\"\",\"\",\"\",\"1\",\"1\",\"1\",\"1\",\"\",\"Covered\",\"\",\"\",\"\",\"\",\"Covered\",0,\"0\",\"0\"],[2,\"W06\",\"Fall involving bed\",\"Initial Secondary\",\"\",\"\",\"\",\"\",\"\",\"\",\"\",\"\",\"Uncovered\",\"\",\"\",\"\",\"\",\"\",0,\"1\",\"0\"],[3,\"W03\",\"Other fall on same level due to collision with, or pushing by,another person\",\"Initial Secondary\",\"\",\"\",\"\",\"\",\"\",\"\",\"\",\"\",\"Uncovered\",\"\",\"\",\"\",\"\",\"\",0,\"1\",\"0\"]]",
            "comment" : ""
          }, {
            "name" : "MaternityMedicalTreatment",
            "value" : "",
            "comment" : ""
          }, {
            "name" : "MaternityFamilyPlanningItem",
            "value" : "",
            "comment" : ""
          }, {
            "name" : "TreatmentCode",
            "value" : "MAT001",
            "comment" : ""
          }, {
            "name" : "TreatmentDuration",
            "value" : "3",
            "comment" : ""
          }, {
            "name" : "IsODS",
            "value" : "0",
            "comment" : ""
          }, {
            "name" : "IsODC",
            "value" : "0",
            "comment" : ""
          }, {
            "name" : "CallStatusID",
            "value" : "Not Need Follow Up",
            "comment" : ""
          }, {
            "name" : "EmpMemberNo",
            "value" : "P/00016483",
            "comment" : ""
          } ],
          "comment" : ""
        },
        "headersSize" : 0,
        "bodySize" : 0,
        "comment" : ""
      },
      "response" : {
        "status" : 200,
        "statusText" : "",
        "httpVersion" : "",
        "cookies" : [ ],
        "headers" : [ {
          "name" : "X-Frame-Options",
          "value" : "SAMEORIGIN"
        }, {
          "name" : "Strict-Transport-Security",
          "value" : "max-age=16070400"
        }, {
          "name" : "Cache-Control",
          "value" : "no-cache"
        }, {
          "name" : "X-Content-Type-Options",
          "value" : "nosniff"
        }, {
          "name" : "Set-Cookie",
          "value" : "TS0125c461=015294299ae5d212afe27ad9688dd32659eb06f241d39a8281dbd2a90fa2e518e0911e62b9326b99838df368e7de7a1657c43ea3a1; Path=/; Domain=.gen5-qc.asuransiastra.com"
        }, {
          "name" : "Pragma",
          "value" : "no-cache"
        }, {
          "name" : "Expires",
          "value" : "-1"
        }, {
          "name" : "#status#",
          "value" : "HTTP/1.1 200 OK"
        }, {
          "name" : "Content-Length",
          "value" : "635"
        }, {
          "name" : "X-XSS-Protection",
          "value" : "1; mode=block"
        }, {
          "name" : "Date",
          "value" : "Tue, 16 Mar 2021 02:28:01 GMT"
        }, {
          "name" : "Content-Type",
          "value" : "application/json; charset=utf-8"
        } ],
        "content" : {
          "size" : 635,
          "mimeType" : "application/json; charset=utf-8",
          "text" : "{\"Status\":true,\"Data\":{\"ClaimValidationResult\":\"COVER\",\"ClaimValidationMessage\":\"\",\"ClaimCallInStatus\":\"Not Need Follow Up\",\"ClaimGLGenerationF\":true,\"ClaimValidationNonCoverReason\":null,\"ClaimValidationAdditionalRemarks\":null,\"ClaimValidationFinalResult\":\"\",\"AllClaimValidationNonCoverReason\":null,\"ClaimValidationDiagnosis\":\"W06;W03\",\"ClaimValidationRemainingLimit\":-1.0,\"ClaimValidationDocumentMandatory\":null,\"ExcessOnSiteFValidation\":false,\"ClaimProductType\":\"\",\"ClaimProductTypeCode\":\"MA\",\"ClaimDiagnosisDocuments\":[]},\"ErrorCode\":\"\",\"ErrorMessage\":\"\",\"NewGuid\":\"6567f454f8684001827f58bbd32fea83c981fdf79a3aed20f4b35e8786325056\"}",
          "comment" : ""
        },
        "redirectURL" : "",
        "headersSize" : 431,
        "bodySize" : 635,
        "comment" : ""
      },
      "cache" : { },
      "timings" : {
        "comment" : "",
        "ssl" : -1,
        "connect" : 1973,
        "blocked" : -1,
        "wait" : 0,
        "receive" : 0,
        "send" : 0,
        "dns" : -1
      },
      "comment" : "",
      "_katalonRequestInformation" : {
        "name" : "11",
        "testObjectId" : "Object Repository/Health/MembershipTasklist/GA_ClaimFinalValidation",
        "harId" : "282daab3-4b2f-4f63-a7fe-fb1fcce2edd0",
        "reportFolder" : null
      },
      "time" : 1973
    } ],
    "comment" : ""
  }
}