{
  "log" : {
    "version" : "1.2",
    "pages" : [ ],
    "entries" : [ {
      "startedDateTime" : "2021-03-16T02:28:04.193Z",
      "request" : {
        "method" : "POST",
        "url" : "https://gen5-qc.asuransiastra.com/health/API/root/signin",
        "httpVersion" : "",
        "cookies" : [ ],
        "headers" : [ {
          "name" : "Content-Type",
          "value" : "application/x-www-form-urlencoded"
        } ],
        "queryString" : [ ],
        "postData" : {
          "mimeType" : "application/x-www-form-urlencoded",
          "params" : [ {
            "name" : "username",
            "value" : "MSI",
            "comment" : ""
          }, {
            "name" : "password",
            "value" : "ITG@nt1P455QC",
            "comment" : ""
          }, {
            "name" : "biztype",
            "value" : "13",
            "comment" : ""
          } ],
          "comment" : ""
        },
        "headersSize" : 0,
        "bodySize" : 0,
        "comment" : ""
      },
      "response" : {
        "status" : 200,
        "statusText" : "",
        "httpVersion" : "",
        "cookies" : [ ],
        "headers" : [ {
          "name" : "X-Frame-Options",
          "value" : "SAMEORIGIN"
        }, {
          "name" : "Strict-Transport-Security",
          "value" : "max-age=16070400"
        }, {
          "name" : "Cache-Control",
          "value" : "no-cache"
        }, {
          "name" : "X-Content-Type-Options",
          "value" : "nosniff"
        }, {
          "name" : "Set-Cookie",
          "value" : "TS0125c461=015294299a13b49a65de4a5089bd4ba106a85886e25dac2930ede004c38af1a075000cdefc882ab30d4de4f0b6589b0fe665bd9437; Path=/; Domain=.gen5-qc.asuransiastra.com"
        }, {
          "name" : "Pragma",
          "value" : "no-cache"
        }, {
          "name" : "Expires",
          "value" : "-1"
        }, {
          "name" : "#status#",
          "value" : "HTTP/1.1 200 OK"
        }, {
          "name" : "Content-Length",
          "value" : "21718"
        }, {
          "name" : "X-XSS-Protection",
          "value" : "1; mode=block"
        }, {
          "name" : "Date",
          "value" : "Tue, 16 Mar 2021 02:27:35 GMT"
        }, {
          "name" : "Content-Type",
          "value" : "application/json; charset=utf-8"
        } ],
        "content" : {
          "size" : 21718,
          "mimeType" : "application/json; charset=utf-8",
          "text" : "{\"status\":true,\"errorCode\":0,\"token\":\"nAvokoQuMbYl/Mk+2M3EvOyBDn7wfsoVrxUVbVH8fwLglJ8jyk6WxQGJTFAmx+ZEtCWXJm/dq6pFmTrBnO9kM9BoH2hdl6JFpurvQRkTPDm21cF93nxfuomfnz4I8Ra32UZYAQp+PE4vriNk9byP1GamSIVyZb1ajWKQfbn6COT1IZ+TxEYNK0BdDMyXi+XEkxEXafs1JB51DEbev6ec2LJIPrKecK32g9s7nKNONllaFHg8tw2RVuRjBvFCIYO/\",\"validHours\":24,\"entryDate\":\"2017-05-16T18:21:19.087Z\",\"lastUpdatedTime\":\"2017-05-16T18:21:19.087Z\",\"userInfo\":{\"id\":\"MSI\",\"fullName\":\"Mulia K B Siregar\",\"email\":\"msi@beyond.asuransi.astra.co.id\",\"passwordExpiry\":\"9999-12-31\",\"lastChangedPassword\":\"2020-08-21 07:12:01\"},\"menu\":[{\"id\":1361,\"name\":\"Product\",\"caption\":\"Product\",\"parentId\":0,\"seqNo\":1,\"roleCode\":\"HLTSPV\",\"roleName\":\"SUPERVISOR\",\"info\":\"\",\"canAdd\":true,\"canEdit\":true,\"canView\":true,\"canDelete\":true,\"workflowId\":\"\",\"entryDate\":\"2017-05-16T18:21:19.087Z\",\"lastUpdatedTime\":\"2017-05-16T18:21:19.087Z\"},{\"id\":1000023,\"name\":\"Policy\",\"caption\":\"Policy\",\"parentId\":0,\"seqNo\":2,\"roleCode\":\"HLTSPV\",\"roleName\":\"SUPERVISOR\",\"info\":\"\",\"canAdd\":true,\"canEdit\":true,\"canView\":true,\"canDelete\":true,\"workflowId\":\"\",\"entryDate\":\"2017-05-16T18:21:19.087Z\",\"lastUpdatedTime\":\"2017-05-16T18:21:19.087Z\"},{\"id\":1301,\"name\":\"Membership\",\"caption\":\"Membership\",\"parentId\":0,\"seqNo\":3,\"roleCode\":\"HEALTHALL\",\"roleName\":\"ALL\",\"info\":\"\",\"canAdd\":true,\"canEdit\":true,\"canView\":true,\"canDelete\":true,\"workflowId\":\"\",\"entryDate\":\"2017-05-16T18:21:19.087Z\",\"lastUpdatedTime\":\"2017-05-16T18:21:19.087Z\"},{\"id\":1301,\"name\":\"Membership\",\"caption\":\"Membership\",\"parentId\":0,\"seqNo\":3,\"roleCode\":\"HLTSPV\",\"roleName\":\"SUPERVISOR\",\"info\":\"\",\"canAdd\":true,\"canEdit\":true,\"canView\":true,\"canDelete\":true,\"workflowId\":\"\",\"entryDate\":\"2017-05-16T18:21:19.087Z\",\"lastUpdatedTime\":\"2017-05-16T18:21:19.087Z\"},{\"id\":1310,\"name\":\"Claim\",\"caption\":\"Claim\",\"parentId\":0,\"seqNo\":4,\"roleCode\":\"HEALTHALL\",\"roleName\":\"ALL\",\"info\":\"\",\"canAdd\":true,\"canEdit\":true,\"canView\":true,\"canDelete\":true,\"workflowId\":\"\",\"entryDate\":\"2017-05-16T18:21:19.087Z\",\"lastUpdatedTime\":\"2017-05-16T18:21:19.087Z\"},{\"id\":1310,\"name\":\"Claim\",\"caption\":\"Claim\",\"parentId\":0,\"seqNo\":4,\"roleCode\":\"HLTSPV\",\"roleName\":\"SUPERVISOR\",\"info\":\"\",\"canAdd\":true,\"canEdit\":true,\"canView\":true,\"canDelete\":true,\"workflowId\":\"\",\"entryDate\":\"2017-05-16T18:21:19.087Z\",\"lastUpdatedTime\":\"2017-05-16T18:21:19.087Z\"},{\"id\":1318,\"name\":\"Settlement\",\"caption\":\"Settlement\",\"parentId\":0,\"seqNo\":5,\"roleCode\":\"HLTSPV\",\"roleName\":\"SUPERVISOR\",\"info\":\"\",\"canAdd\":true,\"canEdit\":true,\"canView\":true,\"canDelete\":true,\"workflowId\":\"\",\"entryDate\":\"2017-05-16T18:21:19.087Z\",\"lastUpdatedTime\":\"2017-05-16T18:21:19.087Z\"},{\"id\":1351,\"name\":\"Maintenance\",\"caption\":\"Maintenance\",\"parentId\":0,\"seqNo\":6,\"roleCode\":\"HLTSPV\",\"roleName\":\"SUPERVISOR\",\"info\":\"\",\"canAdd\":true,\"canEdit\":true,\"canView\":true,\"canDelete\":true,\"workflowId\":\"\",\"entryDate\":\"2017-05-16T18:21:19.087Z\",\"lastUpdatedTime\":\"2017-05-16T18:21:19.087Z\"},{\"id\":1371,\"name\":\"Monitoring\",\"caption\":\"Monitoring\",\"parentId\":0,\"seqNo\":7,\"roleCode\":\"HLTSPV\",\"roleName\":\"SUPERVISOR\",\"info\":\"\",\"canAdd\":true,\"canEdit\":true,\"canView\":true,\"canDelete\":true,\"workflowId\":\"\",\"entryDate\":\"2017-05-16T18:21:19.087Z\",\"lastUpdatedTime\":\"2017-05-16T18:21:19.087Z\"},{\"id\":1401,\"name\":\"Export\",\"caption\":\"Export\",\"parentId\":0,\"seqNo\":8,\"roleCode\":\"HEALTHALL\",\"roleName\":\"ALL\",\"info\":\"\",\"canAdd\":true,\"canEdit\":true,\"canView\":true,\"canDelete\":true,\"workflowId\":\"\",\"entryDate\":\"2017-05-16T18:21:19.087Z\",\"lastUpdatedTime\":\"2017-05-16T18:21:19.087Z\"},{\"id\":1401,\"name\":\"Export\",\"caption\":\"Export\",\"parentId\":0,\"seqNo\":8,\"roleCode\":\"HLTSPV\",\"roleName\":\"SUPERVISOR\",\"info\":\"\",\"canAdd\":true,\"canEdit\":true,\"canView\":true,\"canDelete\":true,\"workflowId\":\"\",\"entryDate\":\"2017-05-16T18:21:19.087Z\",\"lastUpdatedTime\":\"2017-05-16T18:21:19.087Z\"},{\"id\":1302,\"name\":\"Inquiry\",\"caption\":\"Inquiry\",\"parentId\":1301,\"seqNo\":1,\"roleCode\":\"HEALTHALL\",\"roleName\":\"ALL\",\"info\":\"InquiryMembership/Index\",\"canAdd\":true,\"canEdit\":true,\"canView\":true,\"canDelete\":true,\"workflowId\":\"\",\"entryDate\":\"2017-05-16T18:21:19.087Z\",\"lastUpdatedTime\":\"2017-05-16T18:21:19.087Z\"},{\"id\":1302,\"name\":\"Inquiry\",\"caption\":\"Inquiry\",\"parentId\":1301,\"seqNo\":1,\"roleCode\":\"HLTSPV\",\"roleName\":\"SUPERVISOR\",\"info\":\"InquiryMembership/Index\",\"canAdd\":true,\"canEdit\":true,\"canView\":true,\"canDelete\":true,\"workflowId\":\"\",\"entryDate\":\"2017-05-16T18:21:19.087Z\",\"lastUpdatedTime\":\"2017-05-16T18:21:19.087Z\"},{\"id\":1303,\"name\":\"Task List\",\"caption\":\"Task List\",\"parentId\":1301,\"seqNo\":2,\"roleCode\":\"HEALTHALL\",\"roleName\":\"ALL\",\"info\":\"MembershipTaskList/Index\",\"canAdd\":true,\"canEdit\":true,\"canView\":true,\"canDelete\":true,\"workflowId\":\"\",\"entryDate\":\"2017-05-16T18:21:19.087Z\",\"lastUpdatedTime\":\"2017-05-16T18:21:19.087Z\"},{\"id\":1303,\"name\":\"Task List\",\"caption\":\"Task List\",\"parentId\":1301,\"seqNo\":2,\"roleCode\":\"HLTSPV\",\"roleName\":\"SUPERVISOR\",\"info\":\"MembershipTaskList/Index\",\"canAdd\":true,\"canEdit\":true,\"canView\":true,\"canDelete\":true,\"workflowId\":\"\",\"entryDate\":\"2017-05-16T18:21:19.087Z\",\"lastUpdatedTime\":\"2017-05-16T18:21:19.087Z\"},{\"id\":1000101,\"name\":\"AccountAndCard\",\"caption\":\"Member's Account & Card\",\"parentId\":1301,\"seqNo\":3,\"roleCode\":\"HEALTHALL\",\"roleName\":\"ALL\",\"info\":\"MemberAccountAndCard/Index\",\"canAdd\":true,\"canEdit\":true,\"canView\":true,\"canDelete\":true,\"workflowId\":\"\",\"entryDate\":\"2017-05-16T18:21:19.087Z\",\"lastUpdatedTime\":\"2017-05-16T18:21:19.087Z\"},{\"id\":1000101,\"name\":\"AccountAndCard\",\"caption\":\"Member's Account & Card\",\"parentId\":1301,\"seqNo\":3,\"roleCode\":\"HLTSPV\",\"roleName\":\"SUPERVISOR\",\"info\":\"MemberAccountAndCard/Index\",\"canAdd\":true,\"canEdit\":true,\"canView\":true,\"canDelete\":true,\"workflowId\":\"\",\"entryDate\":\"2017-05-16T18:21:19.087Z\",\"lastUpdatedTime\":\"2017-05-16T18:21:19.087Z\"},{\"id\":1001011,\"name\":\"MembershipArchived\",\"caption\":\"Membership - Archived\",\"parentId\":1301,\"seqNo\":4,\"roleCode\":\"HEALTHALL\",\"roleName\":\"ALL\",\"info\":\"MembershipArchived/Index\",\"canAdd\":true,\"canEdit\":true,\"canView\":true,\"canDelete\":true,\"workflowId\":\"\",\"entryDate\":\"2017-05-16T18:21:19.087Z\",\"lastUpdatedTime\":\"2017-05-16T18:21:19.087Z\"},{\"id\":1001011,\"name\":\"MembershipArchived\",\"caption\":\"Membership - Archived\",\"parentId\":1301,\"seqNo\":4,\"roleCode\":\"HLTSPV\",\"roleName\":\"SUPERVISOR\",\"info\":\"MembershipArchived/Index\",\"canAdd\":true,\"canEdit\":true,\"canView\":true,\"canDelete\":true,\"workflowId\":\"\",\"entryDate\":\"2017-05-16T18:21:19.087Z\",\"lastUpdatedTime\":\"2017-05-16T18:21:19.087Z\"},{\"id\":1311,\"name\":\"DocumentRegistration\",\"caption\":\"Document Registration\",\"parentId\":1310,\"seqNo\":1,\"roleCode\":\"HEALTHALL\",\"roleName\":\"ALL\",\"info\":\"DocumentRegistration/Index\",\"canAdd\":true,\"canEdit\":true,\"canView\":true,\"canDelete\":true,\"workflowId\":\"\",\"entryDate\":\"2017-05-16T18:21:19.087Z\",\"lastUpdatedTime\":\"2017-05-16T18:21:19.087Z\"},{\"id\":1311,\"name\":\"DocumentRegistration\",\"caption\":\"Document Registration\",\"parentId\":1310,\"seqNo\":1,\"roleCode\":\"HLTSPV\",\"roleName\":\"SUPERVISOR\",\"info\":\"DocumentRegistration/Index\",\"canAdd\":true,\"canEdit\":true,\"canView\":true,\"canDelete\":true,\"workflowId\":\"\",\"entryDate\":\"2017-05-16T18:21:19.087Z\",\"lastUpdatedTime\":\"2017-05-16T18:21:19.087Z\"},{\"id\":7772702,\"name\":\"ClaimRegistration\",\"caption\":\"Claim Registration\",\"parentId\":1310,\"seqNo\":2,\"roleCode\":\"HEALTHALL\",\"roleName\":\"ALL\",\"info\":\"ClaimRegistration/Index\",\"canAdd\":true,\"canEdit\":true,\"canView\":true,\"canDelete\":true,\"workflowId\":\"\",\"entryDate\":\"2017-05-16T18:21:19.087Z\",\"lastUpdatedTime\":\"2017-05-16T18:21:19.087Z\"},{\"id\":7772702,\"name\":\"ClaimRegistration\",\"caption\":\"Claim Registration\",\"parentId\":1310,\"seqNo\":2,\"roleCode\":\"HLTSPV\",\"roleName\":\"SUPERVISOR\",\"info\":\"ClaimRegistration/Index\",\"canAdd\":true,\"canEdit\":true,\"canView\":true,\"canDelete\":true,\"workflowId\":\"\",\"entryDate\":\"2017-05-16T18:21:19.087Z\",\"lastUpdatedTime\":\"2017-05-16T18:21:19.087Z\"},{\"id\":9210004,\"name\":\"GMAOP\",\"caption\":\"Garda Medika Akses OP\",\"parentId\":1310,\"seqNo\":3,\"roleCode\":\"HLTSPV\",\"roleName\":\"SUPERVISOR\",\"info\":\"GMAOP/Index\",\"canAdd\":true,\"canEdit\":true,\"canView\":true,\"canDelete\":true,\"workflowId\":\"\",\"entryDate\":\"2017-05-16T18:21:19.087Z\",\"lastUpdatedTime\":\"2017-05-16T18:21:19.087Z\"},{\"id\":1316,\"name\":\"ClaimProcessing\",\"caption\":\"Claim Processing\",\"parentId\":1310,\"seqNo\":4,\"roleCode\":\"HLTSPV\",\"roleName\":\"SUPERVISOR\",\"info\":\"ClaimProcessing/Index\",\"canAdd\":true,\"canEdit\":true,\"canView\":true,\"canDelete\":true,\"workflowId\":\"\",\"entryDate\":\"2017-05-16T18:21:19.087Z\",\"lastUpdatedTime\":\"2017-05-16T18:21:19.087Z\"},{\"id\":1312,\"name\":\"ClaimInquiry\",\"caption\":\"Inquiry\",\"parentId\":1310,\"seqNo\":5,\"roleCode\":\"HEALTHALL\",\"roleName\":\"ALL\",\"info\":\"ClaimInquiry/Index\",\"canAdd\":true,\"canEdit\":true,\"canView\":true,\"canDelete\":true,\"workflowId\":\"\",\"entryDate\":\"2017-05-16T18:21:19.087Z\",\"lastUpdatedTime\":\"2017-05-16T18:21:19.087Z\"},{\"id\":1312,\"name\":\"ClaimInquiry\",\"caption\":\"Inquiry\",\"parentId\":1310,\"seqNo\":5,\"roleCode\":\"HLTSPV\",\"roleName\":\"SUPERVISOR\",\"info\":\"ClaimInquiry/Index\",\"canAdd\":true,\"canEdit\":true,\"canView\":true,\"canDelete\":true,\"workflowId\":\"\",\"entryDate\":\"2017-05-16T18:21:19.087Z\",\"lastUpdatedTime\":\"2017-05-16T18:21:19.087Z\"},{\"id\":1000114,\"name\":\"ClaimBatch\",\"caption\":\"Batch\",\"parentId\":1310,\"seqNo\":6,\"roleCode\":\"HLTSPV\",\"roleName\":\"SUPERVISOR\",\"info\":\"ClaimBatch/Index\",\"canAdd\":true,\"canEdit\":true,\"canView\":true,\"canDelete\":true,\"workflowId\":\"\",\"entryDate\":\"2017-05-16T18:21:19.087Z\",\"lastUpdatedTime\":\"2017-05-16T18:21:19.087Z\"},{\"id\":1000147,\"name\":\"MovePrePost\",\"caption\":\"Move PrePost Claims\",\"parentId\":1310,\"seqNo\":7,\"roleCode\":\"HLTSPV\",\"roleName\":\"SUPERVISOR\",\"info\":\"MovePrePost/Index\",\"canAdd\":true,\"canEdit\":true,\"canView\":true,\"canDelete\":true,\"workflowId\":\"\",\"entryDate\":\"2017-05-16T18:21:19.087Z\",\"lastUpdatedTime\":\"2017-05-16T18:21:19.087Z\"},{\"id\":1313,\"name\":\"ExportAdMedInv\",\"caption\":\"Export AdMedika Invoice List\",\"parentId\":1310,\"seqNo\":8,\"roleCode\":\"HLTSPV\",\"roleName\":\"SUPERVISOR\",\"info\":\"ExportAdMedInv/Index\",\"canAdd\":true,\"canEdit\":true,\"canView\":true,\"canDelete\":true,\"workflowId\":\"\",\"entryDate\":\"2017-05-16T18:21:19.087Z\",\"lastUpdatedTime\":\"2017-05-16T18:21:19.087Z\"},{\"id\":1314,\"name\":\"FollowUp\",\"caption\":\"Follow Up\",\"parentId\":1310,\"seqNo\":9,\"roleCode\":\"HEALTHALL\",\"roleName\":\"ALL\",\"info\":\"FollowUp/Index\",\"canAdd\":true,\"canEdit\":true,\"canView\":true,\"canDelete\":true,\"workflowId\":\"\",\"entryDate\":\"2017-05-16T18:21:19.087Z\",\"lastUpdatedTime\":\"2017-05-16T18:21:19.087Z\"},{\"id\":1314,\"name\":\"FollowUp\",\"caption\":\"Follow Up\",\"parentId\":1310,\"seqNo\":9,\"roleCode\":\"HLTSPV\",\"roleName\":\"SUPERVISOR\",\"info\":\"FollowUp/Index\",\"canAdd\":true,\"canEdit\":true,\"canView\":true,\"canDelete\":true,\"workflowId\":\"\",\"entryDate\":\"2017-05-16T18:21:19.087Z\",\"lastUpdatedTime\":\"2017-05-16T18:21:19.087Z\"},{\"id\":1315,\"name\":\"ExportClaimDocList\",\"caption\":\"Export Claim Document List\",\"parentId\":1310,\"seqNo\":10,\"roleCode\":\"HEALTHALL\",\"roleName\":\"ALL\",\"info\":\"ExportClaimDocList/Index\",\"canAdd\":true,\"canEdit\":true,\"canView\":true,\"canDelete\":true,\"workflowId\":\"\",\"entryDate\":\"2017-05-16T18:21:19.087Z\",\"lastUpdatedTime\":\"2017-05-16T18:21:19.087Z\"},{\"id\":1315,\"name\":\"ExportClaimDocList\",\"caption\":\"Export Claim Document List\",\"parentId\":1310,\"seqNo\":10,\"roleCode\":\"HLTSPV\",\"roleName\":\"SUPERVISOR\",\"info\":\"ExportClaimDocList/Index\",\"canAdd\":true,\"canEdit\":true,\"canView\":true,\"canDelete\":true,\"workflowId\":\"\",\"entryDate\":\"2017-05-16T18:21:19.087Z\",\"lastUpdatedTime\":\"2017-05-16T18:21:19.087Z\"},{\"id\":1001010,\"name\":\"WriteOffClaim\",\"caption\":\"Write Off Claim\",\"parentId\":1310,\"seqNo\":12,\"roleCode\":\"HLTSPV\",\"roleName\":\"SUPERVISOR\",\"info\":\"WriteOffClaim/Index\",\"canAdd\":true,\"canEdit\":true,\"canView\":true,\"canDelete\":true,\"workflowId\":\"\",\"entryDate\":\"2017-05-16T18:21:19.087Z\",\"lastUpdatedTime\":\"2017-05-16T18:21:19.087Z\"},{\"id\":1319,\"name\":\"CreateClaimVoucher\",\"caption\":\"Create Claim Voucher\",\"parentId\":1318,\"seqNo\":1,\"roleCode\":\"HLTSPV\",\"roleName\":\"SUPERVISOR\",\"info\":\"CreateClaimVoucher/Index\",\"canAdd\":true,\"canEdit\":true,\"canView\":true,\"canDelete\":true,\"workflowId\":\"\",\"entryDate\":\"2017-05-16T18:21:19.087Z\",\"lastUpdatedTime\":\"2017-05-16T18:21:19.087Z\"},{\"id\":1000021,\"name\":\"CreateExcessGrouping\",\"caption\":\"Create Excess Grouping\",\"parentId\":1318,\"seqNo\":2,\"roleCode\":\"HLTSPV\",\"roleName\":\"SUPERVISOR\",\"info\":\"CreateExcessGrouping/Index\",\"canAdd\":true,\"canEdit\":true,\"canView\":true,\"canDelete\":true,\"workflowId\":\"\",\"entryDate\":\"2017-05-16T18:21:19.087Z\",\"lastUpdatedTime\":\"2017-05-16T18:21:19.087Z\"},{\"id\":1000189,\"name\":\"PremiumGrouping\",\"caption\":\"Create Premium Grouping\",\"parentId\":1318,\"seqNo\":3,\"roleCode\":\"HLTSPV\",\"roleName\":\"SUPERVISOR\",\"info\":\"CreatePremiumGrouping/Index\",\"canAdd\":true,\"canEdit\":true,\"canView\":true,\"canDelete\":true,\"workflowId\":\"\",\"entryDate\":\"2017-05-16T18:21:19.087Z\",\"lastUpdatedTime\":\"2017-05-16T18:21:19.087Z\"},{\"id\":1000190,\"name\":\"GroupingInquiry\",\"caption\":\"Grouping Inquiry\",\"parentId\":1318,\"seqNo\":4,\"roleCode\":\"HLTSPV\",\"roleName\":\"SUPERVISOR\",\"info\":\"GroupingInquiry/Index\",\"canAdd\":true,\"canEdit\":true,\"canView\":true,\"canDelete\":true,\"workflowId\":\"\",\"entryDate\":\"2017-05-16T18:21:19.087Z\",\"lastUpdatedTime\":\"2017-05-16T18:21:19.087Z\"},{\"id\":1000193,\"name\":\"NoteInquiry\",\"caption\":\"Note Inquiry\",\"parentId\":1318,\"seqNo\":5,\"roleCode\":\"HLTSPV\",\"roleName\":\"SUPERVISOR\",\"info\":\"NoteInquiry/Index\",\"canAdd\":true,\"canEdit\":true,\"canView\":true,\"canDelete\":true,\"workflowId\":\"\",\"entryDate\":\"2017-05-16T18:21:19.087Z\",\"lastUpdatedTime\":\"2017-05-16T18:21:19.087Z\"},{\"id\":9210003,\"name\":\"ARCollection\",\"caption\":\"A/R Collection\",\"parentId\":1318,\"seqNo\":6,\"roleCode\":\"HLTSPV\",\"roleName\":\"SUPERVISOR\",\"info\":\"ARCollection/Index\",\"canAdd\":true,\"canEdit\":true,\"canView\":true,\"canDelete\":true,\"workflowId\":\"\",\"entryDate\":\"2017-05-16T18:21:19.087Z\",\"lastUpdatedTime\":\"2017-05-16T18:21:19.087Z\"},{\"id\":1000191,\"name\":\"PrintNote\",\"caption\":\"Print Debit/Credit Note\",\"parentId\":1318,\"seqNo\":7,\"roleCode\":\"HLTSPV\",\"roleName\":\"SUPERVISOR\",\"info\":\"PrintNote/Index\",\"canAdd\":true,\"canEdit\":true,\"canView\":true,\"canDelete\":true,\"workflowId\":\"\",\"entryDate\":\"2017-05-16T18:21:19.087Z\",\"lastUpdatedTime\":\"2017-05-16T18:21:19.087Z\"},{\"id\":1000192,\"name\":\"UserMaintenance\",\"caption\":\"User\",\"parentId\":1351,\"seqNo\":1,\"roleCode\":\"HLTSPV\",\"roleName\":\"SUPERVISOR\",\"info\":\"UserMaintenance/Index\",\"canAdd\":true,\"canEdit\":true,\"canView\":true,\"canDelete\":true,\"workflowId\":\"\",\"entryDate\":\"2017-05-16T18:21:19.087Z\",\"lastUpdatedTime\":\"2017-05-16T18:21:19.087Z\"},{\"id\":1352,\"name\":\"UserClient\",\"caption\":\"User & Client\",\"parentId\":1351,\"seqNo\":2,\"roleCode\":\"HLTSPV\",\"roleName\":\"SUPERVISOR\",\"info\":\"UserBranchMaintenance/Index\",\"canAdd\":true,\"canEdit\":true,\"canView\":true,\"canDelete\":true,\"workflowId\":\"\",\"entryDate\":\"2017-05-16T18:21:19.087Z\",\"lastUpdatedTime\":\"2017-05-16T18:21:19.087Z\"},{\"id\":1353,\"name\":\"MDiagnosis\",\"caption\":\"Diagnosis\",\"parentId\":1351,\"seqNo\":2,\"roleCode\":\"HEALTHALL\",\"roleName\":\"ALL\",\"info\":\"MasterDiagnosis/Index\",\"canAdd\":true,\"canEdit\":true,\"canView\":true,\"canDelete\":true,\"workflowId\":\"\",\"entryDate\":\"2017-05-16T18:21:19.087Z\",\"lastUpdatedTime\":\"2017-05-16T18:21:19.087Z\"},{\"id\":1353,\"name\":\"MDiagnosis\",\"caption\":\"Diagnosis\",\"parentId\":1351,\"seqNo\":2,\"roleCode\":\"HLTSPV\",\"roleName\":\"SUPERVISOR\",\"info\":\"MasterDiagnosis/Index\",\"canAdd\":true,\"canEdit\":true,\"canView\":true,\"canDelete\":true,\"workflowId\":\"\",\"entryDate\":\"2017-05-16T18:21:19.087Z\",\"lastUpdatedTime\":\"2017-05-16T18:21:19.087Z\"},{\"id\":1000135,\"name\":\"DiagnosisCategory\",\"caption\":\"Diagnosis Category\",\"parentId\":1351,\"seqNo\":2,\"roleCode\":\"HEALTHALL\",\"roleName\":\"ALL\",\"info\":\"DiagnosisCategory/Index\",\"canAdd\":true,\"canEdit\":true,\"canView\":true,\"canDelete\":true,\"workflowId\":\"\",\"entryDate\":\"2017-05-16T18:21:19.087Z\",\"lastUpdatedTime\":\"2017-05-16T18:21:19.087Z\"},{\"id\":1000135,\"name\":\"DiagnosisCategory\",\"caption\":\"Diagnosis Category\",\"parentId\":1351,\"seqNo\":2,\"roleCode\":\"HLTSPV\",\"roleName\":\"SUPERVISOR\",\"info\":\"DiagnosisCategory/Index\",\"canAdd\":true,\"canEdit\":true,\"canView\":true,\"canDelete\":true,\"workflowId\":\"\",\"entryDate\":\"2017-05-16T18:21:19.087Z\",\"lastUpdatedTime\":\"2017-05-16T18:21:19.087Z\"},{\"id\":1000188,\"name\":\"DiagnosisQuestion\",\"caption\":\"Diagnosis Question\",\"parentId\":1351,\"seqNo\":3,\"roleCode\":\"HLTSPV\",\"roleName\":\"SUPERVISOR\",\"info\":\"DiagnosisQuestion/Index\",\"canAdd\":true,\"canEdit\":true,\"canView\":true,\"canDelete\":true,\"workflowId\":\"\",\"entryDate\":\"2017-05-16T18:21:19.087Z\",\"lastUpdatedTime\":\"2017-05-16T18:21:19.087Z\"},{\"id\":1001002,\"name\":\"MedicalTreatment\",\"caption\":\"Medical Treatment\",\"parentId\":1351,\"seqNo\":4,\"roleCode\":\"HLTSPV\",\"roleName\":\"SUPERVISOR\",\"info\":\"MedicalTreatment/Index\",\"canAdd\":true,\"canEdit\":true,\"canView\":true,\"canDelete\":true,\"workflowId\":\"\",\"entryDate\":\"2017-05-16T18:21:19.087Z\",\"lastUpdatedTime\":\"2017-05-16T18:21:19.087Z\"},{\"id\":1354,\"name\":\"ClientArea\",\"caption\":\"Client Area\",\"parentId\":1351,\"seqNo\":5,\"roleCode\":\"HLTSPV\",\"roleName\":\"SUPERVISOR\",\"info\":\"ClientArea/Index\",\"canAdd\":true,\"canEdit\":true,\"canView\":true,\"canDelete\":true,\"workflowId\":\"\",\"entryDate\":\"2017-05-16T18:21:19.087Z\",\"lastUpdatedTime\":\"2017-05-16T18:21:19.087Z\"},{\"id\":1355,\"name\":\"Terms&Conditions\",\"caption\":\"Terms & Conditions\",\"parentId\":1351,\"seqNo\":7,\"roleCode\":\"HLTSPV\",\"roleName\":\"SUPERVISOR\",\"info\":\"TermsConditions/Index\",\"canAdd\":true,\"canEdit\":true,\"canView\":true,\"canDelete\":true,\"workflowId\":\"\",\"entryDate\":\"2017-05-16T18:21:19.087Z\",\"lastUpdatedTime\":\"2017-05-16T18:21:19.087Z\"},{\"id\":1356,\"name\":\"Provider\",\"caption\":\"Provider\",\"parentId\":1351,\"seqNo\":8,\"roleCode\":\"HLTSPV\",\"roleName\":\"SUPERVISOR\",\"info\":\"ProviderMaintenance/Index\",\"canAdd\":true,\"canEdit\":true,\"canView\":true,\"canDelete\":true,\"workflowId\":\"\",\"entryDate\":\"2017-05-16T18:21:19.087Z\",\"lastUpdatedTime\":\"2017-05-16T18:21:19.087Z\"},{\"id\":1357,\"name\":\"Doctor\",\"caption\":\"Doctor\",\"parentId\":1351,\"seqNo\":9,\"roleCode\":\"HLTSPV\",\"roleName\":\"SUPERVISOR\",\"info\":\"DoctorMaintenance/Index\",\"canAdd\":true,\"canEdit\":true,\"canView\":true,\"canDelete\":true,\"workflowId\":\"\",\"entryDate\":\"2017-05-16T18:21:19.087Z\",\"lastUpdatedTime\":\"2017-05-16T18:21:19.087Z\"},{\"id\":1000040,\"name\":\"ProfileMaintenance\",\"caption\":\"Profile\",\"parentId\":1351,\"seqNo\":10,\"roleCode\":\"HLTSPV\",\"roleName\":\"SUPERVISOR\",\"info\":\"ProfileMaintenance/Index\",\"canAdd\":true,\"canEdit\":true,\"canView\":true,\"canDelete\":true,\"workflowId\":\"\",\"entryDate\":\"2017-05-16T18:21:19.087Z\",\"lastUpdatedTime\":\"2017-05-16T18:21:19.087Z\"},{\"id\":1000063,\"name\":\"AdmedikaCovCode\",\"caption\":\"AdMedika Coverage Code\",\"parentId\":1351,\"seqNo\":11,\"roleCode\":\"HLTSPV\",\"roleName\":\"SUPERVISOR\",\"info\":\"AdmedikaCovCode/Index\",\"canAdd\":true,\"canEdit\":true,\"canView\":true,\"canDelete\":true,\"workflowId\":\"\",\"entryDate\":\"2017-05-16T18:21:19.087Z\",\"lastUpdatedTime\":\"2017-05-16T18:21:19.087Z\"},{\"id\":1000145,\"name\":\"UCRMaintenance\",\"caption\":\"Usual, Customary and Reasonable\",\"parentId\":1351,\"seqNo\":12,\"roleCode\":\"HEALTHALL\",\"roleName\":\"ALL\",\"info\":\"UCRMaintenance/Index\",\"canAdd\":true,\"canEdit\":true,\"canView\":true,\"canDelete\":true,\"workflowId\":\"\",\"entryDate\":\"2017-05-16T18:21:19.087Z\",\"lastUpdatedTime\":\"2017-05-16T18:21:19.087Z\"},{\"id\":1000145,\"name\":\"UCRMaintenance\",\"caption\":\"Usual, Customary and Reasonable\",\"parentId\":1351,\"seqNo\":12,\"roleCode\":\"HLTSPV\",\"roleName\":\"SUPERVISOR\",\"info\":\"UCRMaintenance/Index\",\"canAdd\":true,\"canEdit\":true,\"canView\":true,\"canDelete\":true,\"workflowId\":\"\",\"entryDate\":\"2017-05-16T18:21:19.087Z\",\"lastUpdatedTime\":\"2017-05-16T18:21:19.087Z\"},{\"id\":1000185,\"name\":\"ClaimAssignment\",\"caption\":\"Claim Assignment\",\"parentId\":1351,\"seqNo\":14,\"roleCode\":\"HLTSPV\",\"roleName\":\"SUPERVISOR\",\"info\":\"ClaimAssignment/Index\",\"canAdd\":true,\"canEdit\":true,\"canView\":true,\"canDelete\":true,\"workflowId\":\"\",\"entryDate\":\"2017-05-16T18:21:19.087Z\",\"lastUpdatedTime\":\"2017-05-16T18:21:19.087Z\"},{\"id\":1362,\"name\":\"ImportProduct\",\"caption\":\"Product\",\"parentId\":1361,\"seqNo\":1,\"roleCode\":\"HLTSPV\",\"roleName\":\"SUPERVISOR\",\"info\":\"ImportProduct/Index\",\"canAdd\":true,\"canEdit\":true,\"canView\":true,\"canDelete\":true,\"workflowId\":\"\",\"entryDate\":\"2017-05-16T18:21:19.087Z\",\"lastUpdatedTime\":\"2017-05-16T18:21:19.087Z\"},{\"id\":1000038,\"name\":\"Benefit\",\"caption\":\"Benefit\",\"parentId\":1361,\"seqNo\":2,\"roleCode\":\"HLTSPV\",\"roleName\":\"SUPERVISOR\",\"info\":\"Benefit/Index\",\"canAdd\":true,\"canEdit\":true,\"canView\":true,\"canDelete\":true,\"workflowId\":\"\",\"entryDate\":\"2017-05-16T18:21:19.087Z\",\"lastUpdatedTime\":\"2017-05-16T18:21:19.087Z\"},{\"id\":1000039,\"name\":\"ProductType\",\"caption\":\"Product Type\",\"parentId\":1361,\"seqNo\":3,\"roleCode\":\"HLTSPV\",\"roleName\":\"SUPERVISOR\",\"info\":\"ProductType/Index\",\"canAdd\":true,\"canEdit\":true,\"canView\":true,\"canDelete\":true,\"workflowId\":\"\",\"entryDate\":\"2017-05-16T18:21:19.087Z\",\"lastUpdatedTime\":\"2017-05-16T18:21:19.087Z\"},{\"id\":1373,\"name\":\"MonitoringExport\",\"caption\":\"Export Claim Monitoring\",\"parentId\":1371,\"seqNo\":1,\"roleCode\":\"HLTSPV\",\"roleName\":\"SUPERVISOR\",\"info\":\"ClaimMonitoringExport/Index\",\"canAdd\":true,\"canEdit\":true,\"canView\":true,\"canDelete\":true,\"workflowId\":\"\",\"entryDate\":\"2017-05-16T18:21:19.087Z\",\"lastUpdatedTime\":\"2017-05-16T18:21:19.087Z\"},{\"id\":1402,\"name\":\"ExportToCSV\",\"caption\":\"Export To CSV\",\"parentId\":1401,\"seqNo\":1,\"roleCode\":\"HEALTHALL\",\"roleName\":\"ALL\",\"info\":\"ExportToCSV/Index\",\"canAdd\":true,\"canEdit\":true,\"canView\":true,\"canDelete\":true,\"workflowId\":\"\",\"entryDate\":\"2017-05-16T18:21:19.087Z\",\"lastUpdatedTime\":\"2017-05-16T18:21:19.087Z\"},{\"id\":1402,\"name\":\"ExportToCSV\",\"caption\":\"Export To CSV\",\"parentId\":1401,\"seqNo\":1,\"roleCode\":\"HLTSPV\",\"roleName\":\"SUPERVISOR\",\"info\":\"ExportToCSV/Index\",\"canAdd\":true,\"canEdit\":true,\"canView\":true,\"canDelete\":true,\"workflowId\":\"\",\"entryDate\":\"2017-05-16T18:21:19.087Z\",\"lastUpdatedTime\":\"2017-05-16T18:21:19.087Z\"},{\"id\":1000024,\"name\":\"PolicyInquiry\",\"caption\":\"Policy\",\"parentId\":1000023,\"seqNo\":1,\"roleCode\":\"HLTSPV\",\"roleName\":\"SUPERVISOR\",\"info\":\"PolicyInquiry/Index\",\"canAdd\":true,\"canEdit\":true,\"canView\":true,\"canDelete\":true,\"workflowId\":\"\",\"entryDate\":\"2017-05-16T18:21:19.087Z\",\"lastUpdatedTime\":\"2017-05-16T18:21:19.087Z\"}],\"parameters\":{}}",
          "comment" : ""
        },
        "redirectURL" : "",
        "headersSize" : 433,
        "bodySize" : 21718,
        "comment" : ""
      },
      "cache" : { },
      "timings" : {
        "comment" : "",
        "ssl" : -1,
        "connect" : 360,
        "blocked" : -1,
        "wait" : 0,
        "receive" : 0,
        "send" : 0,
        "dns" : -1
      },
      "comment" : "",
      "_katalonRequestInformation" : {
        "name" : "2",
        "testObjectId" : "Object Repository/Health/root/signin",
        "harId" : "0f1c32f8-9d72-4c44-bcc7-7cf6a3b031f2",
        "reportFolder" : null
      },
      "time" : 360
    } ],
    "comment" : ""
  }
}