{
  "log" : {
    "version" : "1.2",
    "pages" : [ ],
    "entries" : [ {
      "startedDateTime" : "2021-01-07T12:31:10.944Z",
      "request" : {
        "method" : "POST",
        "url" : "https://gen5-qc.asuransiastra.com/GardaAkses/API/CreateTreatmentGL/GA_ClaimFinalValidation",
        "httpVersion" : "",
        "cookies" : [ ],
        "headers" : [ {
          "name" : "Content-Type",
          "value" : "application/x-www-form-urlencoded"
        }, {
          "name" : "Authorization",
          "value" : "Bearer 8D6FMQeBp+33SuUBXxm2CT6Sg9JRXACI7dXr6wyhbiQotfkKmC2KR23fdn1qTF6W2Uuy18ml47MevXslPn5ZA4HaWCguPo8w47TEx9kq8ZSDBlPAk7MISHfWii94ZLbhDYZHzLibbW5H2gntxF31eor8Y6j5N/rBYr6Pw9v61sZkxW279zF9/srIqG/VWT2+gYgeIfAhtaFKHExPB97vGuZ1XPqOTtWXrATKMdXTEbAl9QppkH7pgSwfjxtuUVhD"
        } ],
        "queryString" : [ ],
        "postData" : {
          "mimeType" : "application/x-www-form-urlencoded",
          "params" : [ {
            "name" : "adminName",
            "value" : "",
            "comment" : ""
          }, {
            "name" : "isGLProvider",
            "value" : "False",
            "comment" : ""
          }, {
            "name" : "memberNo",
            "value" : "A/00141607",
            "comment" : ""
          }, {
            "name" : "previousTrID",
            "value" : "",
            "comment" : ""
          }, {
            "name" : "TreatmentDate",
            "value" : "2020-11-18",
            "comment" : ""
          }, {
            "name" : "productType",
            "value" : "IP",
            "comment" : ""
          }, {
            "name" : "DiagnosisCode",
            "value" : "A36",
            "comment" : ""
          }, {
            "name" : "diagnosisAdditionalInfo",
            "value" : "",
            "comment" : ""
          }, {
            "name" : "providerID",
            "value" : "TJKRH00013",
            "comment" : ""
          }, {
            "name" : "patientPhone",
            "value" : "0987654321",
            "comment" : ""
          }, {
            "name" : "callerName",
            "value" : "-",
            "comment" : ""
          }, {
            "name" : "treatmentRoom",
            "value" : "KELAS I",
            "comment" : ""
          }, {
            "name" : "treatmentRoomAmount",
            "value" : "811000",
            "comment" : ""
          }, {
            "name" : "doctorName",
            "value" : "Agus Wiyono",
            "comment" : ""
          }, {
            "name" : "roomOption",
            "value" : "On Plan",
            "comment" : ""
          }, {
            "name" : "roomAvailability",
            "value" : "NONE",
            "comment" : ""
          }, {
            "name" : "upgradeClass",
            "value" : "NONE",
            "comment" : ""
          }, {
            "name" : "benefitAmount",
            "value" : "0",
            "comment" : ""
          }, {
            "name" : "providerEmail",
            "value" : "ehu@beyond.asuransi.astra.co.id",
            "comment" : ""
          }, {
            "name" : "providerFax",
            "value" : "021-8560601",
            "comment" : ""
          }, {
            "name" : "providerPhone",
            "value" : "081806221986",
            "comment" : ""
          }, {
            "name" : "providerExt",
            "value" : "121",
            "comment" : ""
          }, {
            "name" : "isTiri",
            "value" : "0",
            "comment" : ""
          }, {
            "name" : "defaultProviderID",
            "value" : "",
            "comment" : ""
          }, {
            "name" : "remarks",
            "value" : "",
            "comment" : ""
          }, {
            "name" : "guid",
            "value" : "c5f9e0c43e4844a6a9b772124c04d5ee9f5e1597ad8ef3fdf7741bade5a950f8",
            "comment" : ""
          }, {
            "name" : "ticketNo",
            "value" : "",
            "comment" : ""
          }, {
            "name" : "gLType",
            "value" : "GL Awal",
            "comment" : ""
          }, {
            "name" : "accountManager",
            "value" : "",
            "comment" : ""
          }, {
            "name" : "totalBilled",
            "value" : "0",
            "comment" : ""
          }, {
            "name" : "clientID",
            "value" : "CJKPC0005",
            "comment" : ""
          }, {
            "name" : "classNo",
            "value" : "2",
            "comment" : ""
          }, {
            "name" : "membershipType",
            "value" : "1. EMP",
            "comment" : ""
          }, {
            "name" : "allDiagnosis",
            "value" : "[[1,\"A36\",\"DIPTHERIA\",\"Initial Primary\",\"\",\"\",\"\",\"\",\"\",\"\",\"\",\"\",\"Covered\",\"\",\"\",\"\",\"\",\"\",0,\"1\",\"0\"]]",
            "comment" : ""
          }, {
            "name" : "allDiagnosisAdditionalInfo",
            "value" : "[[]]",
            "comment" : ""
          }, {
            "name" : "allDoctors",
            "value" : "Agus Wiyono",
            "comment" : ""
          }, {
            "name" : "gender",
            "value" : "F",
            "comment" : ""
          }, {
            "name" : "dOB",
            "value" : "1982-02-22",
            "comment" : ""
          }, {
            "name" : "newMemberName",
            "value" : "",
            "comment" : ""
          }, {
            "name" : "previousGuid",
            "value" : "",
            "comment" : ""
          }, {
            "name" : "gLStatus",
            "value" : "",
            "comment" : ""
          }, {
            "name" : "empMemberNo",
            "value" : "",
            "comment" : ""
          }, {
            "name" : "nMEmpID",
            "value" : "",
            "comment" : ""
          }, {
            "name" : "followUpTaskID",
            "value" : "c5f9e0c43e4844a6a9b772124c04d5ee9f5e1597ad8ef3fdf7741bade5a950f8",
            "comment" : ""
          }, {
            "name" : "isClient",
            "value" : "1",
            "comment" : ""
          }, {
            "name" : "callStatusID",
            "value" : "Not Need Follow Up",
            "comment" : ""
          }, {
            "name" : "appropriateRBClass",
            "value" : "KELAS I",
            "comment" : ""
          }, {
            "name" : "appropriateRBRate",
            "value" : "811000",
            "comment" : ""
          }, {
            "name" : "treatmentEnd",
            "value" : "",
            "comment" : ""
          }, {
            "name" : "appropriateRBClassChoosen",
            "value" : "KELAS I",
            "comment" : ""
          }, {
            "name" : "appropriateRBRateChoosen",
            "value" : "811000",
            "comment" : ""
          }, {
            "name" : "treatmentRoomChoosen",
            "value" : "KELAS I",
            "comment" : ""
          }, {
            "name" : "treatmentRoomAmountChoosen",
            "value" : "811000",
            "comment" : ""
          }, {
            "name" : "isReferral",
            "value" : "0",
            "comment" : ""
          }, {
            "name" : "isSpecialCondition",
            "value" : "0",
            "comment" : ""
          }, {
            "name" : "referralReasonCode",
            "value" : "",
            "comment" : ""
          }, {
            "name" : "callInStart",
            "value" : "",
            "comment" : ""
          }, {
            "name" : "secondaryDiagnosisCode",
            "value" : "[]",
            "comment" : ""
          }, {
            "name" : "clientClassNo",
            "value" : "0",
            "comment" : ""
          }, {
            "name" : "userPosition",
            "value" : "",
            "comment" : ""
          }, {
            "name" : "oPNO",
            "value" : "88426",
            "comment" : ""
          }, {
            "name" : "maternityMedicalTreatment",
            "value" : "",
            "comment" : ""
          }, {
            "name" : "maternityFamilyPlanningItem",
            "value" : "",
            "comment" : ""
          }, {
            "name" : "treatmentCode",
            "value" : "",
            "comment" : ""
          }, {
            "name" : "isFromProcessButton",
            "value" : "0",
            "comment" : ""
          }, {
            "name" : "nonMedicalItem",
            "value" : "",
            "comment" : ""
          }, {
            "name" : "isDiagnosisQuestionNotRegistered",
            "value" : "0",
            "comment" : ""
          }, {
            "name" : "medicalTreatmentAdditionalQuestion",
            "value" : "",
            "comment" : ""
          }, {
            "name" : "isODS",
            "value" : "0",
            "comment" : ""
          }, {
            "name" : "isODC",
            "value" : "0",
            "comment" : ""
          }, {
            "name" : "isProducttypeChange",
            "value" : "1",
            "comment" : ""
          }, {
            "name" : "isTreatmentPeriodChange",
            "value" : "1",
            "comment" : ""
          }, {
            "name" : "isMaternityTreatmentChange",
            "value" : "1",
            "comment" : ""
          }, {
            "name" : "isRoomOptionChange",
            "value" : "1",
            "comment" : ""
          }, {
            "name" : "isTreatmentRBClassChange",
            "value" : "1",
            "comment" : ""
          }, {
            "name" : "isODSODCChange",
            "value" : "1",
            "comment" : ""
          }, {
            "name" : "isDocValidityChange",
            "value" : "1",
            "comment" : ""
          }, {
            "name" : "isDocTypeChange",
            "value" : "1",
            "comment" : ""
          } ],
          "comment" : ""
        },
        "headersSize" : 0,
        "bodySize" : 0,
        "comment" : ""
      },
      "response" : {
        "status" : 200,
        "statusText" : "",
        "httpVersion" : "",
        "cookies" : [ ],
        "headers" : [ {
          "name" : "X-Frame-Options",
          "value" : "SAMEORIGIN"
        }, {
          "name" : "Strict-Transport-Security",
          "value" : "max-age=16070400"
        }, {
          "name" : "Cache-Control",
          "value" : "no-cache"
        }, {
          "name" : "X-Content-Type-Options",
          "value" : "nosniff"
        }, {
          "name" : "Set-Cookie",
          "value" : "EGRUM_BTM=5a5331fa-b1df-4376-9587-0bc8670c0e03#~#1||0; path=/"
        }, {
          "name" : "Set-Cookie",
          "value" : "TS0125c461=015294299a8c185c15f0f81ff08aacc4ead9707871ee0e12d7556979bd02fe471b03f446087df1f2e1c59d34032b102b53de8dd8efee9b9d9533fc31d80de0549fc1c43743; Path=/; Domain=.gen5-qc.asuransiastra.com"
        }, {
          "name" : "Pragma",
          "value" : "no-cache"
        }, {
          "name" : "Expires",
          "value" : "-1"
        }, {
          "name" : "#status#",
          "value" : "HTTP/1.1 200 OK"
        }, {
          "name" : "Content-Length",
          "value" : "4725"
        }, {
          "name" : "X-XSS-Protection",
          "value" : "1; mode=block"
        }, {
          "name" : "Date",
          "value" : "Thu, 07 Jan 2021 12:30:27 GMT"
        }, {
          "name" : "Content-Type",
          "value" : "application/json; charset=utf-8"
        } ],
        "content" : {
          "size" : 4725,
          "mimeType" : "application/json; charset=utf-8",
          "text" : "{\"Status\":true,\"Data\":{\"ClaimValidationResult\":\"NONCOVER\",\"ClaimValidationMessage\":\"Perlu pengecekan produk Inpatient (Rawat Inap) peserta oleh tim Garda Medika\",\"ClaimCallInStatus\":\"Follow Up\",\"ClaimGLGenerationF\":false,\"ClaimValidationNonCoverReason\":\"NONCOVER_PRODUCT_PARTIAL_COVERAGE\",\"ClaimValidationAdditionalRemarks\":\"=========================\\r\\nResult : Perlu pengecekan produk Inpatient (Rawat Inap) peserta oleh tim Garda Medika\\r\\n\\r\\n\",\"ClaimValidationFinalResult\":\"Bapak/Ibu <span style=\\\"color:blue\\\">-</span>, terima kasih atas data yang telah disampaikan.<br>\\r\\n\\t\\t\\tRawat Inap atas nama <span style=\\\"color:blue\\\">ANNA SOPIYANA</span> dari <span style=\\\"color:blue\\\">PT. CIMB NIAGA AUTO FINANCE</span> telah diproses dan akan segera difollow-up oleh tim kami.<br></br>\\r\\n\\r\\n\\t\\t\\tKami akan menghubungi Bapak/Ibu maksimal 30 menit kedepan terkait penerbitan Surat Jaminan peserta ini,\\r\\n\\t\\t\\tberikut adalah beberapa hal yang perlu dilengkapi/diperhatikan:<br>\\r\\n\\t\\t\\t<span style=\\\"color:blue\\\">1. Perawatan / Pemeriksaan diagnosa yang memerlukan biaya tinggi, harus di konfirmasikan ke pihak Contact Center Garda Akses Asuransi Astra.<br>2. Ketika pasien pulang, harap menghubungi Contact Center Garda Akses Asuransi Astra.<br>3. Kwitansi atas nama PT. ASURANSI ASTRA BUANA.<br>4. Selisih biaya perawatan menjadi tanggungan  PESERTA sesuai dengan ketentuan polis.<br></span></br>\\r\\n\\r\\n\\t\\t\\tSurat jaminan ini butuh Follow Up karena terkena validasi :<br>\\r\\n\\t\\t\\t<span style=\\\"color:red\\\"><span style=\\\"line-height: 0.7;font-size: large;\\\">- Perlu pengecekan produk Inpatient (Rawat Inap) peserta oleh tim Garda Medika<br><br></span></span>\",\"AllClaimValidationNonCoverReason\":[\"NONCOVER_PRODUCT_PARTIAL_COVERAGE\"],\"ClaimValidationDiagnosis\":\"\",\"ClaimValidationRemainingLimit\":-1.0,\"ClaimValidationDocumentMandatory\":null,\"ExcessOnSiteFValidation\":false,\"ClaimProductType\":\"\",\"ClaimProductTypeCode\":\"IP\",\"ClaimAnnualLimitInfo\":null,\"ClaimDiagnosisDocuments\":[],\"GLRevisionValidationF\":false},\"DataPreview\":{\"ReportFileName\":null,\"ReportFileBytes\":null,\"ReportFileExtension\":null},\"ErrorCode\":\"\",\"ErrorMessage\":\"\",\"IsShowCetakanRejection\":0,\"IsShowCetakanGL\":0,\"TransactionalData\":{\"TransactionGuid\":\"68b1e1b0-1e07-490d-bb54-f2307537b9e6\",\"TransactionTypeCode\":\"CLAIMH\",\"MemberNo\":\"A/00141607\",\"DiagnosisCode\":\"A36\",\"ProductID\":null,\"ProductType\":\"IP\",\"TreatmentDate\":\"2020-11-18T00:00:00\",\"PatientPhone\":\"0987654321\",\"CallerName\":\"-\",\"CallerPosition\":\"\",\"DoctorName\":\"Agus Wiyono\",\"RoomOption\":\"On Plan\",\"RoomAvailability\":\"NONE\",\"UpgradeClass\":\"NONE\",\"TreatmentRoomCode\":\"KELAS I\",\"TreatmentRoomAmount\":811000.0,\"ProviderID\":\"TJKRH00013\",\"ProviderPhone\":\"081806221986\",\"ProviderEmail\":\"ehu@beyond.asuransi.astra.co.id\",\"ProviderExt\":\"121\",\"ProviderFax\":\"021-8560601\",\"BenefitAmount\":0.0,\"MaternityAmount\":0.0,\"CNO\":0,\"GLNO\":null,\"TRNO\":0,\"IsTiri\":false,\"Remarks\":\"\",\"AdditionalRemarks\":null,\"TicketNo\":null,\"CallStatusID\":\"Follow Up\",\"ServiceTypeID\":\"PRI\",\"TicketID\":null,\"CallerPhoneNo\":null,\"MemberCompanyNotes\":null,\"ClosestFamilyContactName\":null,\"ClosestFamilyEmail\":null,\"ClosestFamilyPhoneNo\":null,\"PICAdmin\":\"DFY\",\"LUser\":\"WEB\",\"FUser\":\"WEB\",\"ChatbotAdditionalQuestionAnswer\":[],\"ClientID\":\"CJKPC0005\",\"ClassNo\":2,\"Membership\":\"1. EMP\",\"GLType\":\"GL Awal\",\"Gender\":\"F\",\"DOB\":\"1982-02-22T00:00:00\",\"Guid\":\"c5f9e0c43e4844a6a9b772124c04d5ee9f5e1597ad8ef3fdf7741bade5a950f8\",\"GATicketNo\":null,\"AllDiagnosis\":\"[[1,\\\"A36\\\",\\\"DIPTHERIA\\\",\\\"Initial Primary\\\",\\\"\\\",\\\"\\\",\\\"\\\",\\\"\\\",\\\"\\\",\\\"\\\",\\\"\\\",\\\"\\\",\\\"Covered\\\",\\\"\\\",\\\"\\\",\\\"\\\",\\\"\\\",\\\"\\\",0,\\\"1\\\",\\\"0\\\"]]\",\"AllDoctors\":null,\"TotalBilled\":0.0,\"PreviousTrID\":-1,\"AppropriateRBClass\":\"KELAS I\",\"AppropriateRBRate\":811000.0,\"TreatmentEnd\":\"2020-11-20T00:00:00\",\"IsReferral\":false,\"CallInStart\":null,\"CallInFinish\":\"2021-01-07T19:30:20.9573226+07:00\",\"SecondaryDiagnosisCode\":[],\"ClientClassNo\":0,\"OPNO\":88426,\"MaternityMedicalTreatment\":[],\"MaternityFamilyPlanningItem\":[],\"MaternityBenefitCode\":\"\",\"Partus\":0,\"Gravida\":0,\"Abortus\":0,\"EmployeeMemberNo\":\"\",\"NewMemberEmpID\":\"\",\"BenefitProductType\":\"\",\"CurrentTrID\":-1,\"MaternityTreatmentCode\":\"\",\"NonMedicalItems\":[],\"IsClientF\":1,\"IsDiagnosisQuestionNotRegistered\":false,\"AllDiagnosisDeserialize\":[[1,\"A36\",\"DIPTHERIA\",\"Initial Primary\",\"\",\"\",\"\",\"\",\"\",\"\",\"\",\"\",\"Covered\",\"\",\"\",\"\",\"\",\"\",0,\"1\",\"0\"]],\"AllDiagnosisAdditionalInfo\":[[]],\"MedicalTreatmentAdditionalQuestion\":[],\"IsODS\":false,\"IsODC\":false,\"GLFlag\":{\"IsProductTypeChange\":1,\"IsTreatmentPeriodChange\":1,\"IsMaternityTreatmentChange\":1,\"IsRoomOptionChange\":1,\"IsTreatmentRBClassChange\":1,\"IsODSODCChange\":1,\"IsPartialCoverageChange\":1,\"IsPrimaryDiagnosisChange\":1,\"IsDocValidityChange\":1,\"IsDocTypeChange\":1},\"PreviousDocs\":null,\"RejectCause\":\"\"}}",
          "comment" : ""
        },
        "redirectURL" : "",
        "headersSize" : 535,
        "bodySize" : 4725,
        "comment" : ""
      },
      "cache" : { },
      "timings" : {
        "comment" : "",
        "ssl" : -1,
        "connect" : 8090,
        "dns" : -1,
        "wait" : 0,
        "blocked" : -1,
        "receive" : 0,
        "send" : 0
      },
      "comment" : "",
      "_katalonRequestInformation" : {
        "name" : "2",
        "testObjectId" : "Object Repository/CreateTreatmentGL/GA_ClaimFinalValidation",
        "harId" : "90fa34b4-edb9-4de1-8f07-345571cdd2f7",
        "reportFolder" : null
      },
      "time" : 8090
    } ],
    "comment" : ""
  }
}