{
  "log" : {
    "version" : "1.2",
    "pages" : [ ],
    "entries" : [ {
      "startedDateTime" : "2021-03-15T19:28:38.952Z",
      "request" : {
        "method" : "POST",
        "url" : "https://gen5-qc.asuransiastra.com/health/API/MembershipTaskList/GA_ClaimFinalValidation",
        "httpVersion" : "",
        "cookies" : [ ],
        "headers" : [ {
          "name" : "Content-Type",
          "value" : "application/x-www-form-urlencoded"
        }, {
          "name" : "Authorization",
          "value" : "Bearer r9u/DppW/lXa5ndSy2fICiQC0gvM84a/kky/4llFEqdARQr4nH9qgnIB1cWhWN8dp9EN9tH3ZCkv/v8dOjAR590D5klECGP+2mMq5CcgBGjYzpcdcSzvr77Zx2iW+4tso/fNf3cG/VDHwFewbrHf+rHtQ1Y+yqB3YqM/+RnPHwxyGrZpaa3p0woT8YpaPrYF6vNOKEegLdYo6z9QtHFiSDDLxieo+JPnKCVVVhdtKqGqfd8eNZje4l0FQWPzoi+1"
        }, {
          "name" : "Connection",
          "value" : "keep-alive"
        } ],
        "queryString" : [ ],
        "postData" : {
          "mimeType" : "application/x-www-form-urlencoded",
          "params" : [ {
            "name" : "MemberNo",
            "value" : "P/00016483",
            "comment" : ""
          }, {
            "name" : "PreviousTrID",
            "value" : "2824930",
            "comment" : ""
          }, {
            "name" : "TreatmentDate",
            "value" : "2021-03-13",
            "comment" : ""
          }, {
            "name" : "ProductType",
            "value" : "MA",
            "comment" : ""
          }, {
            "name" : "DiagnosisCode",
            "value" : "O80",
            "comment" : ""
          }, {
            "name" : "DiagnosisAdditionalInfo",
            "value" : "[]",
            "comment" : ""
          }, {
            "name" : "ProviderID",
            "value" : "TJKRH00013",
            "comment" : ""
          }, {
            "name" : "PatientPhone",
            "value" : "0987654321",
            "comment" : ""
          }, {
            "name" : "CallerName",
            "value" : "Dele - Dokter",
            "comment" : ""
          }, {
            "name" : "TreatmentRoom",
            "value" : "KELAS II",
            "comment" : ""
          }, {
            "name" : "DoctorName",
            "value" : "Dele",
            "comment" : ""
          }, {
            "name" : "RoomOption",
            "value" : "On Plan",
            "comment" : ""
          }, {
            "name" : "RoomAvailability",
            "value" : "NONE",
            "comment" : ""
          }, {
            "name" : "UpgradeClass",
            "value" : "NONE",
            "comment" : ""
          }, {
            "name" : "TreatmentRoomAmount",
            "value" : "487000",
            "comment" : ""
          }, {
            "name" : "BenefitAmount",
            "value" : "0",
            "comment" : ""
          }, {
            "name" : "ProviderEmail",
            "value" : "ehu@beyond.asuransi.astra.co.id",
            "comment" : ""
          }, {
            "name" : "ProviderFax",
            "value" : "0218560601",
            "comment" : ""
          }, {
            "name" : "ProviderPhone",
            "value" : "081806221986",
            "comment" : ""
          }, {
            "name" : "ProviderExt",
            "value" : "121",
            "comment" : ""
          }, {
            "name" : "IsTiri",
            "value" : "0",
            "comment" : ""
          }, {
            "name" : "DefaultProviderID",
            "value" : "",
            "comment" : ""
          }, {
            "name" : "Remarks",
            "value" : "",
            "comment" : ""
          }, {
            "name" : "PreviousGLNo",
            "value" : "",
            "comment" : ""
          }, {
            "name" : "Guid",
            "value" : "21c5cca072b740f2a42b379ebc89d6562fda2e3596959ffd09641c28f4b30434",
            "comment" : ""
          }, {
            "name" : "TicketNo",
            "value" : "",
            "comment" : ""
          }, {
            "name" : "GLType",
            "value" : "GL Akhir",
            "comment" : ""
          }, {
            "name" : "AccountManager",
            "value" : "",
            "comment" : ""
          }, {
            "name" : "TotalBilled",
            "value" : "123456",
            "comment" : ""
          }, {
            "name" : "ClientID",
            "value" : "CJKPA18",
            "comment" : ""
          }, {
            "name" : "ClassNo",
            "value" : "2",
            "comment" : ""
          }, {
            "name" : "MembershipType",
            "value" : "2. SPO",
            "comment" : ""
          }, {
            "name" : "AllDiagnosis",
            "value" : "[[1,\"O80\",\"SINGLE SPONTANEOUS DELIVERY/NORMAL DELIVERY\",\"Initial Primary\",\"\",\"\",\"\",\"1\",\"1\",\"1\",\"1\",\"\",\"Covered\",\"\",\"\",\"\",\"\",\"Covered\",0,\"0\",\"0\"],[2,\"W04\",\"Fall while being carried or supported by other persons\",\"Initial Secondary\",\"\",\"\",\"\",\"\",\"\",\"\",\"\",\"\",\"Uncovered\",\"\",\"\",\"\",\"\",\"\",0,\"1\",\"0\"],[3,\"W03\",\"Other fall on same level due to collision with, or pushing by,another person\",\"Initial Secondary\",\"\",\"\",\"\",\"\",\"\",\"\",\"\",\"\",\"Uncovered\",\"\",\"\",\"\",\"\",\"\",0,\"1\",\"0\"]]",
            "comment" : ""
          }, {
            "name" : "AllDiagnosisAdditionalInfo",
            "value" : "[[],[]]",
            "comment" : ""
          }, {
            "name" : "AllDoctors",
            "value" : "Dele",
            "comment" : ""
          }, {
            "name" : "Gender",
            "value" : "F",
            "comment" : ""
          }, {
            "name" : "DOB",
            "value" : "1990-09-10",
            "comment" : ""
          }, {
            "name" : "IsClient",
            "value" : "0",
            "comment" : ""
          }, {
            "name" : "TreatmentEnd",
            "value" : "2021-03-15",
            "comment" : ""
          }, {
            "name" : "IsReferral",
            "value" : "0",
            "comment" : ""
          }, {
            "name" : "ReferralReasonCode",
            "value" : "",
            "comment" : ""
          }, {
            "name" : "AppropriateRBClass",
            "value" : "KELAS II",
            "comment" : ""
          }, {
            "name" : "AppropriateRBRate",
            "value" : "487000",
            "comment" : ""
          }, {
            "name" : "AppropriateRBClassChoosen",
            "value" : "KELAS II",
            "comment" : ""
          }, {
            "name" : "AppropriateRBRateChoosen",
            "value" : "487000",
            "comment" : ""
          }, {
            "name" : "TreatmentRoomChoosen",
            "value" : "KELAS II",
            "comment" : ""
          }, {
            "name" : "TreatmentRoomAmountChoosen",
            "value" : "487000",
            "comment" : ""
          }, {
            "name" : "IsSpecialCondition",
            "value" : "0",
            "comment" : ""
          }, {
            "name" : "ClientClassNo",
            "value" : "1",
            "comment" : ""
          }, {
            "name" : "SecondaryDiagnosisCode",
            "value" : "[[1,\"O80\",\"SINGLE SPONTANEOUS DELIVERY/NORMAL DELIVERY\",\"Initial Primary\",\"\",\"\",\"\",\"1\",\"1\",\"1\",\"1\",\"\",\"Covered\",\"\",\"\",\"\",\"\",\"Covered\",0,\"0\",\"0\"],[2,\"W04\",\"Fall while being carried or supported by other persons\",\"Initial Secondary\",\"\",\"\",\"\",\"\",\"\",\"\",\"\",\"\",\"Uncovered\",\"\",\"\",\"\",\"\",\"\",0,\"1\",\"0\"],[3,\"W03\",\"Other fall on same level due to collision with, or pushing by,another person\",\"Initial Secondary\",\"\",\"\",\"\",\"\",\"\",\"\",\"\",\"\",\"Uncovered\",\"\",\"\",\"\",\"\",\"\",0,\"1\",\"0\"]]",
            "comment" : ""
          }, {
            "name" : "MaternityMedicalTreatment",
            "value" : "",
            "comment" : ""
          }, {
            "name" : "MaternityFamilyPlanningItem",
            "value" : "",
            "comment" : ""
          }, {
            "name" : "TreatmentCode",
            "value" : "MAT001",
            "comment" : ""
          }, {
            "name" : "TreatmentDuration",
            "value" : "3",
            "comment" : ""
          }, {
            "name" : "IsODS",
            "value" : "0",
            "comment" : ""
          }, {
            "name" : "IsODC",
            "value" : "0",
            "comment" : ""
          }, {
            "name" : "CallStatusID",
            "value" : "Not Need Follow Up",
            "comment" : ""
          }, {
            "name" : "EmpMemberNo",
            "value" : "P/00016483",
            "comment" : ""
          } ],
          "comment" : ""
        },
        "headersSize" : 0,
        "bodySize" : 0,
        "comment" : ""
      },
      "response" : {
        "status" : 200,
        "statusText" : "",
        "httpVersion" : "",
        "cookies" : [ ],
        "headers" : [ {
          "name" : "X-Frame-Options",
          "value" : "SAMEORIGIN"
        }, {
          "name" : "Strict-Transport-Security",
          "value" : "max-age=16070400"
        }, {
          "name" : "Cache-Control",
          "value" : "no-cache"
        }, {
          "name" : "X-Content-Type-Options",
          "value" : "nosniff"
        }, {
          "name" : "Set-Cookie",
          "value" : "TS0125c461=015294299ace950b52fb00c4f274ace0b1854a203f9b73c02a2406ab64bdd6131f006b05ecfc84922591364086707c9f3274f0f086; Path=/; Domain=.gen5-qc.asuransiastra.com"
        }, {
          "name" : "Pragma",
          "value" : "no-cache"
        }, {
          "name" : "Expires",
          "value" : "-1"
        }, {
          "name" : "#status#",
          "value" : "HTTP/1.1 200 OK"
        }, {
          "name" : "Content-Length",
          "value" : "635"
        }, {
          "name" : "X-XSS-Protection",
          "value" : "1; mode=block"
        }, {
          "name" : "Date",
          "value" : "Mon, 15 Mar 2021 19:28:12 GMT"
        }, {
          "name" : "Content-Type",
          "value" : "application/json; charset=utf-8"
        } ],
        "content" : {
          "size" : 635,
          "mimeType" : "application/json; charset=utf-8",
          "text" : "{\"Status\":true,\"Data\":{\"ClaimValidationResult\":\"COVER\",\"ClaimValidationMessage\":\"\",\"ClaimCallInStatus\":\"Not Need Follow Up\",\"ClaimGLGenerationF\":true,\"ClaimValidationNonCoverReason\":null,\"ClaimValidationAdditionalRemarks\":null,\"ClaimValidationFinalResult\":\"\",\"AllClaimValidationNonCoverReason\":null,\"ClaimValidationDiagnosis\":\"W04;W03\",\"ClaimValidationRemainingLimit\":-1.0,\"ClaimValidationDocumentMandatory\":null,\"ExcessOnSiteFValidation\":false,\"ClaimProductType\":\"\",\"ClaimProductTypeCode\":\"MA\",\"ClaimDiagnosisDocuments\":[]},\"ErrorCode\":\"\",\"ErrorMessage\":\"\",\"NewGuid\":\"9c21ded866c84023965b637884efa35ae780f27306d79f9a040f90a9f042b046\"}",
          "comment" : ""
        },
        "redirectURL" : "",
        "headersSize" : 431,
        "bodySize" : 635,
        "comment" : ""
      },
      "cache" : { },
      "timings" : {
        "comment" : "",
        "ssl" : -1,
        "connect" : 7171,
        "blocked" : -1,
        "dns" : -1,
        "receive" : 0,
        "send" : 0,
        "wait" : 0
      },
      "comment" : "",
      "_katalonRequestInformation" : {
        "name" : "9",
        "testObjectId" : "Object Repository/Health/MembershipTasklist/GA_ClaimFinalValidation",
        "harId" : "6614770d-9447-4579-940e-61911bf87f53",
        "reportFolder" : null
      },
      "time" : 7171
    } ],
    "comment" : ""
  }
}